RiscyBusiness/riscy.vcd
$date
  Tue Oct  4 23:32:17 2022
$end
$version
  GHDL v0
$end
$timescale
  1 fs
$end
$var reg 1 ! clk $end
$var reg 1 " nrst $end
$var reg 1 # const0 $end
$var reg 1 $ const1 $end
$var reg 1 % dnwe $end
$var reg 32 & iaddr[31:0] $end
$var reg 32 ' daddr[31:0] $end
$var reg 32 ( idatao[31:0] $end
$var reg 32 ) ddatao[31:0] $end
$var reg 32 * ddatai[31:0] $end
$comment ictrl is not handled $end
$comment dctrl is not handled $end
$var reg 32 + random[31:0] $end
$scope module instmemi $end
$var reg 1 , ncs $end
$var reg 1 - nwe $end
$var reg 8 . addr[7:0] $end
$var reg 32 / datain[31:0] $end
$var reg 32 0 dataout[31:0] $end
$comment fileio is not handled $end
$upscope $end
$scope module datamemi $end
$var reg 1 1 ncs $end
$var reg 1 2 nwe $end
$var reg 8 3 addr[7:0] $end
$var reg 32 4 datain[31:0] $end
$var reg 32 5 dataout[31:0] $end
$comment fileio is not handled $end
$upscope $end
$scope module pipeproci $end
$var reg 1 6 clk $end
$var reg 1 7 nrst $end
$var reg 32 8 iaddr[31:0] $end
$var reg 32 9 idata[31:0] $end
$var reg 1 : dnwe $end
$var reg 32 ; daddr[31:0] $end
$var reg 32 < ddatai[31:0] $end
$var reg 32 = ddatao[31:0] $end
$var reg 32 > ins_mem_d[31:0] $end
$var reg 32 ? o_addr_d[31:0] $end
$var reg 32 @ o_addr_d2[31:0] $end
$var reg 1 A branch_out $end
$var reg 32 B o_addr_f[31:0] $end
$var reg 32 C imm_o_d[31:0] $end
$var reg 3 D alu_sel_signal_f_d[2:0] $end
$var reg 7 E alu_sel_signal_ff_d[6:0] $end
$var reg 7 F sel_opcode_signal_d[6:0] $end
$var reg 5 G rd_signal_d[4:0] $end
$var reg 5 H rs1_signal_d[4:0] $end
$var reg 5 I rs2_signal_d[4:0] $end
$var reg 12 J imm_signal_itype_d[11:0] $end
$var reg 20 K imm_signal_utype_d[19:0] $end
$var reg 5 L imm_signal_stype_d[4:0] $end
$var reg 7 M imm_signal_stypetwo_d[6:0] $end
$var reg 1 N imm_signal_btype_d $end
$var reg 4 O imm_signal_btypetwo_d[3:0] $end
$var reg 6 P imm_signal_btypethree_d[5:0] $end
$var reg 1 Q imm_signal_btypefour_d $end
$var reg 8 R imm_signal_jtype_d[7:0] $end
$var reg 1 S imm_signal_jtypetwo_d $end
$var reg 10 T imm_signal_jtypethree_d[9:0] $end
$var reg 1 U imm_signal_jtypefour_d $end
$var reg 32 V rs1_out_d[31:0] $end
$var reg 32 W rs2_out_d[31:0] $end
$var reg 3 X alu_sel_signal_f_x[2:0] $end
$var reg 7 Y alu_sel_signal_ff_x[6:0] $end
$var reg 7 Z sel_opcode_signal_x[6:0] $end
$var reg 32 [ rs1_out_x[31:0] $end
$var reg 32 \ rs2_out_x[31:0] $end
$var reg 32 ] rs2_out_x2[31:0] $end
$var reg 32 ^ alu_out_x[31:0] $end
$var reg 5 _ rd_signal_x[4:0] $end
$var reg 7 ` sel_opcode_signal_m[6:0] $end
$var reg 5 a rd_signal_m[4:0] $end
$var reg 32 b alu_out_m[31:0] $end
$var reg 32 c data_output_wb[31:0] $end
$var reg 5 d rd_signal_wb[4:0] $end
$var reg 32 e data_output_wb_external[31:0] $end
$var reg 7 f sel_opcode_signal_wb[6:0] $end
$var reg 1 g nwe_d_ram $end
$var reg 1 h nwe_x_ram $end
$var reg 1 i nwe_m_ram $end
$var reg 1 j nwe_d_r2 $end
$var reg 1 k nwe_x_r $end
$var reg 1 l nwe_wb_r $end
$var reg 1 m nwe_wb_r2 $end
$var reg 1 n nwe_m_r $end
$scope module pc $end
$var reg 1 o clk $end
$var reg 32 p i_addr[31:0] $end
$var reg 1 q nrst $end
$var reg 32 r o_addr[31:0] $end
$var reg 1 s mux_control_target $end
$var reg 32 t current_pc[31:0] $end
$upscope $end
$scope module brancher_brain $end
$var reg 7 u sel_opcode[6:0] $end
$var reg 3 v sel_f[2:0] $end
$var reg 32 w rs1[31:0] $end
$var reg 32 x rs2[31:0] $end
$var reg 1 y branch_out $end
$var reg 1 z val $end
$upscope $end
$scope module address_decoder $end
$var reg 32 { instruction[31:0] $end
$var reg 3 | alu_sel_f[2:0] $end
$var reg 7 } alu_sel_ff[6:0] $end
$var reg 7 !" sel_opcode[6:0] $end
$var reg 5 "" rd[4:0] $end
$var reg 5 #" rs1[4:0] $end
$var reg 5 $" rs2[4:0] $end
$var reg 12 %" imm_itype[11:0] $end
$var reg 20 &" imm_utype[19:0] $end
$var reg 5 '" imm_stype[4:0] $end
$var reg 7 (" imm_stypetwo[6:0] $end
$var reg 1 )" imm_btype $end
$var reg 4 *" imm_btypetwo[3:0] $end
$var reg 6 +" imm_btypethree[5:0] $end
$var reg 1 ," imm_btypefour $end
$var reg 8 -" imm_jtype[7:0] $end
$var reg 1 ." imm_jtypetwo $end
$var reg 10 /" imm_jtypethree[9:0] $end
$var reg 1 0" imm_jtypefour $end
$var reg 1 1" i_nwe_r2 $end
$var reg 1 2" i_nwe_ram $end
$var reg 7 3" default[31:25] $end
$upscope $end
$scope module register_file $end
$var reg 1 4" i_clk $end
$var reg 5 5" i_rs1[4:0] $end
$var reg 5 6" i_rs2[4:0] $end
$var reg 5 7" i_rd[4:0] $end
$var reg 5 8" i_rd2[4:0] $end
$var reg 5 9" i_rd3[4:0] $end
$var reg 32 :" i_data_input[31:0] $end
$var reg 32 ;" i_data_input2[31:0] $end
$var reg 32 <" i_data_input3[31:0] $end
$var reg 7 =" sel_opcode[6:0] $end
$var reg 7 >" sel_opcode2[6:0] $end
$var reg 7 ?" sel_opcode3[6:0] $end
$var reg 32 @" o_rs1_out[31:0] $end
$var reg 32 A" o_rs2_out[31:0] $end
$var reg 1 B" i_nwe $end
$var reg 1 C" i_nwe2 $end
$var reg 1 D" i_nwe3 $end
$comment registers is not handled $end
$var reg 32 E" out_a[31:0] $end
$var reg 32 F" out_b[31:0] $end
$upscope $end
$scope module alu_integer $end
$var reg 32 G" val_a[31:0] $end
$var reg 32 H" val_b[31:0] $end
$var reg 3 I" alu_sel_f[2:0] $end
$var reg 7 J" alu_sel_ff[6:0] $end
$var reg 32 K" alu_out[31:0] $end
$var reg 7 L" sel_opcode[6:0] $end
$upscope $end
$scope module alu_addresser $end
$var reg 32 M" val_a[31:0] $end
$var reg 32 N" val_b[31:0] $end
$var reg 3 O" alu_sel_f[2:0] $end
$var reg 7 P" alu_sel_ff[6:0] $end
$var reg 32 Q" alu_out[31:0] $end
$var reg 7 R" sel_opcode[6:0] $end
$upscope $end
$scope module extender_imm $end
$var reg 7 S" sel_opcode[6:0] $end
$var reg 12 T" imm_itype[11:0] $end
$var reg 20 U" imm_utype[19:0] $end
$var reg 5 V" imm_stype[4:0] $end
$var reg 7 W" imm_stypetwo[6:0] $end
$var reg 1 X" imm_btype $end
$var reg 4 Y" imm_btypetwo[3:0] $end
$var reg 6 Z" imm_btypethree[5:0] $end
$var reg 1 [" imm_btypefour $end
$var reg 8 \" imm_jtype[7:0] $end
$var reg 1 ]" imm_jtypetwo $end
$var reg 10 ^" imm_jtypethree[9:0] $end
$var reg 1 _" imm_jtypefour $end
$var reg 32 `" imm_o[31:0] $end
$upscope $end
$upscope $end
$enddefinitions $end
#0
0!
0"
0#
1$
U%
b00000000000000000000000000000000 &
b00000000000000000000000000000000 '
b00000001010000000000101010010011 (
bUUUUUUUUUUUUUUUUUUUUUUUUUUUUUUUU )
bUUUUUUUUUUUUUUUUUUUUUUUUUUUUUUUU *
b00000000000000000000000000000000 +
0,
1-
b00000000 .
b00000000000000000000000000000000 /
b00000001010000000000101010010011 0
01
U2
b00000000 3
bUUUUUUUUUUUUUUUUUUUUUUUUUUUUUUUU 4
bUUUUUUUUUUUUUUUUUUUUUUUUUUUUUUUU 5
06
07
b00000000000000000000000000000000 8
b00000001010000000000101010010011 9
U:
b00000000000000000000000000000000 ;
bUUUUUUUUUUUUUUUUUUUUUUUUUUUUUUUU <
bUUUUUUUUUUUUUUUUUUUUUUUUUUUUUUUU =
bUUUUUUUUUUUUUUUUUUUUUUUUUUUUUUUU >
bUUUUUUUUUUUUUUUUUUUUUUUUUUUUUUUU ?
b00000000000000000000000000000000 @
0A
b00000000000000000000000000000000 B
b00000000000000000000000000000000 C
b000 D
bUUUUUUU E
b0000000 F
b00000 G
b00000 H
bUUUUU I
b000000000000 J
bUUUUUUUUUUUUUUUUUUUU K
bUUUUU L
bUUUUUUU M
UN
bUUUU O
bUUUUUU P
UQ
bUUUUUUUU R
US
bUUUUUUUUUU T
UU
b00000000000000000000000000000000 V
b00000000000000000000000000000000 W
bUUU X
bUUUUUUU Y
bUUUUUUU Z
bUUUUUUUUUUUUUUUUUUUUUUUUUUUUUUUU [
bUUUUUUUUUUUUUUUUUUUUUUUUUUUUUUUU \
bUUUUUUUUUUUUUUUUUUUUUUUUUUUUUUUU ]
b00000000000000000000000000000000 ^
bUUUUU _
bUUUUUUU `
bUUUUU a
b00000000000000000000000000000000 b
bUUUUUUUUUUUUUUUUUUUUUUUUUUUUUUUU c
bUUUUU d
bUUUUUUUUUUUUUUUUUUUUUUUUUUUUUUUU e
bUUUUUUU f
1g
Uh
Ui
1j
Uk
Ul
Um
Un
0o
b00000000000000000000000000000000 p
0q
b00000000000000000000000000000000 r
0s
b00000000000000000000000000000000 t
b0000000 u
b000 v
b00000000000000000000000000000000 w
b00000000000000000000000000000000 x
0y
0z
bUUUUUUUUUUUUUUUUUUUUUUUUUUUUUUUU {
b000 |
bUUUUUUU }
b0000000 !"
b00000 ""
b00000 #"
bUUUUU $"
b000000000000 %"
bUUUUUUUUUUUUUUUUUUUU &"
bUUUUU '"
bUUUUUUU ("
U)"
bUUUU *"
bUUUUUU +"
U,"
bUUUUUUUU -"
U."
bUUUUUUUUUU /"
U0"
11"
12"
b1111111 3"
04"
b00000 5"
bUUUUU 6"
bUUUUU 7"
bUUUUU 8"
b00000 9"
bUUUUUUUUUUUUUUUUUUUUUUUUUUUUUUUU :"
bUUUUUUUUUUUUUUUUUUUUUUUUUUUUUUUU ;"
bUUUUUUUUUUUUUUUUUUUUUUUUUUUUUUUU <"
bUUUUUUU ="
bUUUUUUU >"
b0000000 ?"
b00000000000000000000000000000000 @"
b00000000000000000000000000000000 A"
UB"
UC"
1D"
b00000000000000000000000000000000 E"
b00000000000000000000000000000000 F"
bUUUUUUUUUUUUUUUUUUUUUUUUUUUUUUUU G"
bUUUUUUUUUUUUUUUUUUUUUUUUUUUUUUUU H"
bUUU I"
bUUUUUUU J"
b00000000000000000000000000000000 K"
bUUUUUUU L"
b00000000000000000000000000000000 M"
bUUUUUUUUUUUUUUUUUUUUUUUUUUUUUUUU N"
b000 O"
bUUUUUUU P"
b00000000000000000000000000000000 Q"
b0000000 R"
b0000000 S"
b000000000000 T"
bUUUUUUUUUUUUUUUUUUUU U"
bUUUUU V"
bUUUUUUU W"
UX"
bUUUU Y"
bUUUUUU Z"
U["
bUUUUUUUU \"
U]"
bUUUUUUUUUU ^"
U_"
b00000000000000000000000000000000 `"
#5000000
1"
17
1q
#10000000
#20000000
1!
1%
b00000000000000000000000000000100 &
b00000000000000000000011000010011 (
b00000100 .
b00000000000000000000011000010011 0
12
16
b00000000000000000000000000000100 8
b00000000000000000000011000010011 9
1:
b00000001010000000000101010010011 >
b00000000000000000000000000000000 ?
b00000000000000000000000000010100 @
b00000000000000000000000000000100 B
b00000000000000000000000000010100 C
b1111111 E
b0010011 F
b10101 G
b000000010100 J
b000 X
b0000000 Z
b00000000000000000000000000000000 [
b00000000000000000000000000000000 \
b00000 _
b0000000 `
b00000 a
b00000000000000000000000000000000 e
1h
0j
1k
1l
1n
1o
b00000000000000000000000000010100 p
b00000000000000000000000000000100 r
b00000000000000000000000000000100 t
b0010011 u
b00000001010000000000101010010011 {
b1111111 }
b0010011 !"
b10101 ""
b000000010100 %"
01"
14"
b00000 7"
b10101 9"
b00000000000000000000000000000000 ;"
b00000000000000000000000000000000 <"
b0000000 ="
b0010011 ?"
1B"
0D"
b00000000000000000000000000000000 G"
b00000000000000000000000000000000 H"
b000 I"
b0000000 L"
b00000000000000000000000000010100 M"
b00000000000000000000000000000000 N"
b1111111 P"
b00000000000000000000000000010100 Q"
b0010011 R"
b0010011 S"
b000000010100 T"
b00000000000000000000000000010100 `"
#30000000
0!
06
0o
04"
#40000000
1!
b00000000000000000000000000001000 &
b00000000000000000000100110010011 (
b00000000000000000000000000000000 *
b00001000 .
b00000000000000000000100110010011 0
b00000000000000000000000000000000 4
16
b00000000000000000000000000001000 8
b00000000000000000000100110010011 9
b00000000000000000000000000000000 <
b00000000000000000000011000010011 >
b00000000000000000000000000000100 ?
b00000000000000000000000000000100 @
b00000000000000000000000000001000 B
b00000000000000000000000000000000 C
b01100 G
b000000000000 J
b1111111 Y
b0010011 Z
b00000000000000000000000000010100 \
b00000000000000000000000000000000 ]
b00000000000000000000000000010100 ^
b10101 _
b0010011 `
b10101 a
b00000000000000000000000000010100 c
b00000 d
b0000000 f
0k
0l
1m
1o
b00000000000000000000000000000100 p
b00000000000000000000000000001000 r
b00000000000000000000000000001000 t
b00000000000000000000011000010011 {
b01100 ""
b000000000000 %"
14"
b10101 7"
b00000 8"
b01100 9"
b00000000000000000000000000010100 :"
b00000000000000000000000000000100 <"
b0010011 ="
b0000000 >"
0B"
1C"
b00000000000000000000000000010100 H"
b1111111 J"
b00000000000000000000000000010100 K"
b0010011 L"
b00000000000000000000000000000000 M"
b00000000000000000000000000000100 N"
b00000000000000000000000000000100 Q"
b000000000000 T"
b00000000000000000000000000000000 `"
#50000000
0!
06
0o
04"
#60000000
1!
b00000000000000000000000000001100 &
b00000001001101100010000000100011 (
b00001100 .
b00000001001101100010000000100011 0
16
b00000000000000000000000000001100 8
b00000001001101100010000000100011 9
b00000000000000000000100110010011 >
b00000000000000000000000000001000 ?
b00000000000000000000000000001000 @
b00000000000000000000000000001100 B
b10011 G
b00000000000000000000000000000000 \
b00000000000000000000000000000000 ^
b01100 _
b01100 a
b00000000000000000000000000000000 c
b10101 d
b0010011 f
1o
b00000000000000000000000000001000 p
b00000000000000000000000000001100 r
b00000000000000000000000000001100 t
b00000000000000000000100110010011 {
b10011 ""
14"
b01100 7"
b10101 8"
b10011 9"
b00000000000000000000000000000000 :"
b00000000000000000000000000001000 <"
b0010011 >"
b00000000000000000000000000000000 H"
b00000000000000000000000000000000 K"
b00000000000000000000000000001000 N"
b00000000000000000000000000001000 Q"
#70000000
0!
06
0o
04"
#80000000
1!
b00000000000000000000000000010000 &
b00000000000101100000011000010011 (
b00010000 .
b00000000000101100000011000010011 0
16
b00000000000000000000000000010000 8
b00000000000101100000011000010011 9
b00000001001101100010000000100011 >
b00000000000000000000000000001100 ?
b00000000000000000000000000001100 @
b00000000000000000000000000010000 B
b010 D
b0100011 F
b01100 H
b10011 I
b00000 L
b0000000 M
b10011 _
b10011 a
b01100 d
0g
1j
1o
b00000000000000000000000000001100 p
b00000000000000000000000000010000 r
b00000000000000000000000000010000 t
b0100011 u
b010 v
b00000001001101100010000000100011 {
b010 |
b0100011 !"
b01100 #"
b10011 $"
b00000 '"
b0000000 ("
11"
02"
14"
b01100 5"
b10011 6"
b10011 7"
b01100 8"
b00000000000000000000000000001100 <"
b0100011 ?"
1D"
b00000000000000000000000000001100 N"
b010 O"
b00000000000000000000000000001100 Q"
b0100011 R"
b0100011 S"
b00000 V"
b0000000 W"
#90000000
0!
06
0o
04"
#100000000
1!
0%
b00000000000000000000000000010100 &
b00000000000100000000101000010011 (
b00010100 .
b00000000000100000000101000010011 0
02
16
b00000000000000000000000000010100 8
b00000000000100000000101000010011 9
0:
b00000000000101100000011000010011 >
b00000000000000000000000000010000 ?
b00000000000000000000000000010001 @
b00000000000000000000000000010100 B
b00000000000000000000000000000001 C
b000 D
b0010011 F
b01100 G
b000000000001 J
b010 X
b0100011 Z
b0100011 `
b10011 d
1g
0h
0j
1k
1l
1o
b00000000000000000000000000010001 p
b00000000000000000000000000010100 r
b00000000000000000000000000010100 t
b0010011 u
b000 v
b00000000000101100000011000010011 {
b000 |
b0010011 !"
b01100 ""
b000000000001 %"
01"
12"
14"
b10011 8"
b01100 9"
b00000000000000000000000000010000 <"
b0100011 ="
b0010011 ?"
1B"
0D"
b010 I"
b0100011 L"
b00000000000000000000000000000001 M"
b00000000000000000000000000010000 N"
b000 O"
b00000000000000000000000000010001 Q"
b0010011 R"
b0010011 S"
b000000000001 T"
b00000000000000000000000000000001 `"
#110000000
0!
06
0o
04"
#120000000
1!
1%
b00000000000000000000000000011000 &
b00000001010001100010000000100011 (
b00000000000000000000000000000000 )
b00011000 .
b00000001010001100010000000100011 0
12
b00000000000000000000000000000000 5
16
b00000000000000000000000000011000 8
b00000001010001100010000000100011 9
1:
b00000000000000000000000000000000 =
b00000000000100000000101000010011 >
b00000000000000000000000000010100 ?
b00000000000000000000000000010101 @
b00000000000000000000000000011000 B
b10100 G
b00000 H
b000 X
b0010011 Z
b00000000000000000000000000000001 \
b00000000000000000000000000000001 ^
b01100 _
b0010011 `
b01100 a
b00000000000000000000000000000001 c
b0100011 f
1h
0k
0l
1o
b00000000000000000000000000010101 p
b00000000000000000000000000011000 r
b00000000000000000000000000011000 t
b00000000000100000000101000010011 {
b10100 ""
b00000 #"
14"
b00000 5"
b01100 7"
b10100 9"
b00000000000000000000000000000001 :"
b00000000000000000000000000010100 <"
b0010011 ="
b0100011 >"
0B"
b00000000000000000000000000000001 H"
b000 I"
b00000000000000000000000000000001 K"
b0010011 L"
b00000000000000000000000000010100 N"
b00000000000000000000000000010101 Q"
#130000000
0!
06
0o
04"
#140000000
1!
b00000000000000000000000000011100 &
b00000000000101100000011000010011 (
b00011100 .
b00000000000101100000011000010011 0
16
b00000000000000000000000000011100 8
b00000000000101100000011000010011 9
b00000001010001100010000000100011 >
b00000000000000000000000000011000 ?
b00000000000000000000000000011000 @
b00000000000000000000000000011100 B
b00000000000000000000000000000000 C
b010 D
b0100011 F
b01100 H
b10100 I
b00000000000000000000000000000001 V
b00000000000000000000000000000001 W
b10100 _
b10100 a
b01100 d
b0010011 f
0g
1j
1o
b00000000000000000000000000011000 p
b00000000000000000000000000011100 r
b00000000000000000000000000011100 t
b0100011 u
b010 v
b00000000000000000000000000000001 w
b00000000000000000000000000000001 x
b00000001010001100010000000100011 {
b010 |
b0100011 !"
b01100 #"
b10100 $"
11"
02"
14"
b01100 5"
b10100 6"
b10100 7"
b01100 8"
b00000000000000000000000000011000 <"
b0010011 >"
b0100011 ?"
b00000000000000000000000000000001 @"
b00000000000000000000000000000001 A"
1D"
b00000000000000000000000000000001 E"
b00000000000000000000000000000001 F"
b00000000000000000000000000000000 M"
b00000000000000000000000000011000 N"
b010 O"
b00000000000000000000000000011000 Q"
b0100011 R"
b0100011 S"
b00000000000000000000000000000000 `"
#150000000
0!
06
0o
04"
#160000000
1!
0%
b00000000000000000000000000100000 &
b00000000000000000000000000000001 '
b00000001010010011000100110110011 (
b00000000000000000000000000000001 *
b00100000 .
b00000001010010011000100110110011 0
02
b00000001 3
b00000000000000000000000000000001 4
16
b00000000000000000000000000100000 8
b00000001010010011000100110110011 9
0:
b00000000000000000000000000000001 ;
b00000000000000000000000000000001 <
b00000000000101100000011000010011 >
b00000000000000000000000000011100 ?
b00000000000000000000000000011101 @
b00000000000000000000000000100000 B
b00000000000000000000000000000001 C
b000 D
b0010011 F
b01100 G
b010 X
b0100011 Z
b00000000000000000000000000000001 [
b00000000000000000000000000000000 \
b00000000000000000000000000000001 ]
b0100011 `
b00000000000000000000000000000001 b
b10100 d
1g
0h
0j
1k
1l
1o
b00000000000000000000000000011101 p
b00000000000000000000000000100000 r
b00000000000000000000000000100000 t
b0010011 u
b000 v
b00000000000101100000011000010011 {
b000 |
b0010011 !"
b01100 ""
01"
12"
14"
b10100 8"
b01100 9"
b00000000000000000000000000011100 <"
b0100011 ="
b0010011 ?"
1B"
0D"
b00000000000000000000000000000001 G"
b00000000000000000000000000000000 H"
b010 I"
b0100011 L"
b00000000000000000000000000000001 M"
b00000000000000000000000000011100 N"
b000 O"
b00000000000000000000000000011101 Q"
b0010011 R"
b0010011 S"
b00000000000000000000000000000001 `"
#170000000
0!
06
0o
04"
#180000000
1!
1%
b00000000000000000000000000100100 &
b00000000000000000000000000000000 '
b00000001001101100010000000100011 (
b00000000000000000000000000000000 *
b00100100 .
b00000001001101100010000000100011 0
12
b00000000 3
b00000000000000000000000000000000 4
16
b00000000000000000000000000100100 8
b00000001001101100010000000100011 9
1:
b00000000000000000000000000000000 ;
b00000000000000000000000000000000 <
b00000001010010011000100110110011 >
b00000000000000000000000000100000 ?
b00000000000000000000000000100000 @
b00000000000000000000000000100100 B
b00000000000000000000000000000000 C
b0000000 E
b0110011 F
b10011 G
b10011 H
b00000000000000000000000000000000 V
b000 X
b0010011 Z
b00000000000000000000000000000001 \
b00000000000000000000000000000010 ^
b01100 _
b0010011 `
b01100 a
b00000000000000000000000000000010 c
b0100011 f
1h
0k
0l
1o
b00000000000000000000000000100000 p
b00000000000000000000000000100100 r
b00000000000000000000000000100100 t
b0110011 u
b00000000000000000000000000000000 w
b00000001010010011000100110110011 {
b0000000 }
b0110011 !"
b10011 ""
b10011 #"
14"
b10011 5"
b01100 7"
b10011 9"
b00000000000000000000000000000010 :"
b00000000000000000000000000100000 <"
b0010011 ="
b0100011 >"
b0110011 ?"
b00000000000000000000000000000000 @"
0B"
b00000000000000000000000000000000 E"
b00000000000000000000000000000001 H"
b000 I"
b00000000000000000000000000000010 K"
b0010011 L"
b00000000000000000000000000000000 M"
b00000000000000000000000000100000 N"
b0000000 P"
b00000000000000000000000000100000 Q"
b0110011 R"
b0110011 S"
b00000000000000000000000000000000 `"
#190000000
0!
06
0o
04"
#200000000
1!
b00000000000000000000000000101000 &
b00000001010101100000111001100011 (
b00101000 .
b00000001010101100000111001100011 0
16
b00000000000000000000000000101000 8
b00000001010101100000111001100011 9
b00000001001101100010000000100011 >
b00000000000000000000000000100100 ?
b00000000000000000000000000100100 @
b00000000000000000000000000101000 B
b010 D
b1111111 E
b0100011 F
b01100 H
b10011 I
b00000000000000000000000000000010 V
b00000000000000000000000000000010 W
b0000000 Y
b0110011 Z
b00000000000000000000000000000000 [
b00000000000000000000000000000001 ^
b10011 _
b0110011 `
b10011 a
b00000000000000000000000000000001 c
b01100 d
b0010011 f
0g
1j
1o
b00000000000000000000000000100100 p
b00000000000000000000000000101000 r
b00000000000000000000000000101000 t
b0100011 u
b010 v
b00000000000000000000000000000010 w
b00000000000000000000000000000010 x
b00000001001101100010000000100011 {
b010 |
b1111111 }
b0100011 !"
b01100 #"
b10011 $"
11"
02"
14"
b01100 5"
b10011 6"
b10011 7"
b01100 8"
b00000000000000000000000000000001 :"
b00000000000000000000000000100100 <"
b0110011 ="
b0010011 >"
b0100011 ?"
b00000000000000000000000000000010 @"
b00000000000000000000000000000010 A"
1D"
b00000000000000000000000000000010 E"
b00000000000000000000000000000010 F"
b00000000000000000000000000000000 G"
b0000000 J"
b00000000000000000000000000000001 K"
b0110011 L"
b00000000000000000000000000100100 N"
b010 O"
b1111111 P"
b00000000000000000000000000100100 Q"
b0100011 R"
b0100011 S"
#210000000
0!
06
b00000000000000000000000000000001 W
0o
b00000000000000000000000000000001 x
04"
b00000000000000000000000000000001 A"
b00000000000000000000000000000001 F"
#220000000
1!
0%
b00000000000000000000000000101100 &
b00000000000000000000000000000010 '
b00000000000101100000011000010011 (
b00000000000000000000000000000001 *
b00101100 .
b00000000000101100000011000010011 0
02
b00000010 3
b00000000000000000000000000000001 4
16
b00000000000000000000000000101100 8
b00000000000101100000011000010011 9
0:
b00000000000000000000000000000010 ;
b00000000000000000000000000000001 <
b00000001010101100000111001100011 >
b00000000000000000000000000101000 ?
b00000000000000000000000001000100 @
b00000000000000000000000000101100 B
b00000000000000000000000000011100 C
b000 D
b1100011 F
b10101 I
0N
b1110 O
b000000 P
0Q
b00000000000000000000000000010100 W
b010 X
b1111111 Y
b0100011 Z
b00000000000000000000000000000010 [
b00000000000000000000000000000000 \
b00000000000000000000000000000010 ^
b0100011 `
b00000000000000000000000000000010 b
b10011 d
b0110011 f
1g
0h
1k
1l
1o
b00000000000000000000000001000100 p
b00000000000000000000000000101100 r
b00000000000000000000000000101100 t
b1100011 u
b000 v
b00000000000000000000000000010100 x
b00000001010101100000111001100011 {
b000 |
b1100011 !"
b10101 $"
0)"
b1110 *"
b000000 +"
0,"
12"
14"
b10101 6"
b10011 8"
b00000000000000000000000000101000 <"
b0100011 ="
b0110011 >"
b1100011 ?"
b00000000000000000000000000010100 A"
1B"
b00000000000000000000000000010100 F"
b00000000000000000000000000000010 G"
b00000000000000000000000000000000 H"
b010 I"
b1111111 J"
b00000000000000000000000000000010 K"
b0100011 L"
b00000000000000000000000000011100 M"
b00000000000000000000000000101000 N"
b000 O"
b00000000000000000000000001000100 Q"
b1100011 R"
b1100011 S"
0X"
b1110 Y"
b000000 Z"
0["
b00000000000000000000000000011100 `"
#230000000
0!
06
0o
04"
#240000000
1!
1%
b00000000000000000000000000110000 &
b00000000000000000000000000010110 '
b00000001010010011000101000110011 (
bUUUUUUUUUUUUUUUUUUUUUUUUUUUUUUUU )
b00110000 .
b00000001010010011000101000110011 0
12
b00010110 3
bUUUUUUUUUUUUUUUUUUUUUUUUUUUUUUUU 5
16
b00000000000000000000000000110000 8
b00000001010010011000101000110011 9
1:
b00000000000000000000000000010110 ;
bUUUUUUUUUUUUUUUUUUUUUUUUUUUUUUUU =
b00000000000101100000011000010011 >
b00000000000000000000000000101100 ?
b00000000000000000000000000101101 @
b00000000000000000000000000110000 B
b00000000000000000000000000000001 C
b0010011 F
b01100 G
b000 X
b1100011 Z
b00000000000000000000000000010100 \
b00000000000000000000000000010110 ^
b1100011 `
b00000000000000000000000000010110 b
b0100011 f
1h
0j
1o
b00000000000000000000000000101101 p
b00000000000000000000000000110000 r
b00000000000000000000000000110000 t
b0010011 u
b00000000000101100000011000010011 {
b0010011 !"
b01100 ""
01"
14"
b01100 9"
b00000000000000000000000000101100 <"
b1100011 ="
b0100011 >"
b0010011 ?"
0D"
b00000000000000000000000000010100 H"
b000 I"
b00000000000000000000000000010110 K"
b1100011 L"
b00000000000000000000000000000001 M"
b00000000000000000000000000101100 N"
b00000000000000000000000000101101 Q"
b0010011 R"
b0010011 S"
b00000000000000000000000000000001 `"
#250000000
0!
06
0o
04"
#260000000
1!
b00000000000000000000000000110100 &
b00000000000000000000000000000000 '
b00000001010001100010000000100011 (
b00000000000000000000000000000000 )
b00000000000000000000000000000000 *
b00110100 .
b00000001010001100010000000100011 0
b00000000 3
b00000000000000000000000000000000 4
b00000000000000000000000000000000 5
16
b00000000000000000000000000110100 8
b00000001010001100010000000100011 9
b00000000000000000000000000000000 ;
b00000000000000000000000000000000 <
b00000000000000000000000000000000 =
b00000001010010011000101000110011 >
b00000000000000000000000000110000 ?
b00000000000000000000000000110000 @
b00000000000000000000000000110100 B
b00000000000000000000000000000000 C
b0000000 E
b0110011 F
b10100 G
b10011 H
b10100 I
b00000000000000000000000000000001 V
b00000000000000000000000000000001 W
b0010011 Z
b00000000000000000000000000000001 \
b00000000000000000000000000010100 ]
b00000000000000000000000000000011 ^
b01100 _
b0010011 `
b01100 a
b00000000000000000000000000000011 c
b1100011 f
0k
0l
1o
b00000000000000000000000000110000 p
b00000000000000000000000000110100 r
b00000000000000000000000000110100 t
b0110011 u
b00000000000000000000000000000001 w
b00000000000000000000000000000001 x
b00000001010010011000101000110011 {
b0000000 }
b0110011 !"
b10100 ""
b10011 #"
b10100 $"
14"
b10011 5"
b10100 6"
b01100 7"
b10100 9"
b00000000000000000000000000000011 :"
b00000000000000000000000000110000 <"
b0010011 ="
b1100011 >"
b0110011 ?"
b00000000000000000000000000000001 @"
b00000000000000000000000000000001 A"
0B"
b00000000000000000000000000000001 E"
b00000000000000000000000000000001 F"
b00000000000000000000000000000001 H"
b00000000000000000000000000000011 K"
b0010011 L"
b00000000000000000000000000000000 M"
b00000000000000000000000000110000 N"
b0000000 P"
b00000000000000000000000000110000 Q"
b0110011 R"
b0110011 S"
b00000000000000000000000000000000 `"
#270000000
0!
06
0o
04"
#280000000
1!
b00000000000000000000000000111000 &
b00000000000101100000011000010011 (
b00111000 .
b00000000000101100000011000010011 0
16
b00000000000000000000000000111000 8
b00000000000101100000011000010011 9
b00000001010001100010000000100011 >
b00000000000000000000000000110100 ?
b00000000000000000000000000110100 @
b00000000000000000000000000111000 B
b010 D
b1111111 E
b0100011 F
b01100 H
b00000000000000000000000000000011 V
b00000000000000000000000000000011 W
b0000000 Y
b0110011 Z
b00000000000000000000000000000001 [
b00000000000000000000000000000010 ^
b10100 _
b0110011 `
b10100 a
b00000000000000000000000000000010 c
b01100 d
b0010011 f
0g
1j
1o
b00000000000000000000000000110100 p
b00000000000000000000000000111000 r
b00000000000000000000000000111000 t
b0100011 u
b010 v
b00000000000000000000000000000011 w
b00000000000000000000000000000011 x
b00000001010001100010000000100011 {
b010 |
b1111111 }
b0100011 !"
b01100 #"
11"
02"
14"
b01100 5"
b10100 7"
b01100 8"
b00000000000000000000000000000010 :"
b00000000000000000000000000110100 <"
b0110011 ="
b0010011 >"
b0100011 ?"
b00000000000000000000000000000011 @"
b00000000000000000000000000000011 A"
1D"
b00000000000000000000000000000011 E"
b00000000000000000000000000000011 F"
b00000000000000000000000000000001 G"
b0000000 J"
b00000000000000000000000000000010 K"
b0110011 L"
b00000000000000000000000000110100 N"
b010 O"
b1111111 P"
b00000000000000000000000000110100 Q"
b0100011 R"
b0100011 S"
