RiscyBusiness/riscy.vcd
$date
  Mon Jan 24 22:56:45 2022
$end
$version
  GHDL v0
$end
$timescale
  1 fs
$end
$var reg 1 ! clk $end
$var reg 1 " nrst $end
$var reg 1 # const0 $end
$var reg 1 $ const1 $end
$var reg 1 % dnwe $end
$var reg 32 & iaddr[31:0] $end
$var reg 32 ' daddr[31:0] $end
$var reg 32 ( idatao[31:0] $end
$var reg 32 ) ddatao[31:0] $end
$var reg 32 * ddatai[31:0] $end
$comment ictrl is not handled $end
$comment dctrl is not handled $end
$var reg 32 + random[31:0] $end
$scope module instmemi $end
$var reg 1 , ncs $end
$var reg 1 - nwe $end
$var reg 8 . addr[7:0] $end
$var reg 32 / datain[31:0] $end
$var reg 32 0 dataout[31:0] $end
$comment fileio is not handled $end
$upscope $end
$scope module datamemi $end
$var reg 1 1 ncs $end
$var reg 1 2 nwe $end
$var reg 8 3 addr[7:0] $end
$var reg 32 4 datain[31:0] $end
$var reg 32 5 dataout[31:0] $end
$comment fileio is not handled $end
$upscope $end
$scope module pipeproci $end
$var reg 1 6 clk $end
$var reg 1 7 nrst $end
$var reg 32 8 iaddr[31:0] $end
$var reg 32 9 idata[31:0] $end
$var reg 1 : dnwe $end
$var reg 32 ; daddr[31:0] $end
$var reg 32 < ddatai[31:0] $end
$var reg 32 = ddatao[31:0] $end
$var reg 3 > alu_sel_signal_f_d[2:0] $end
$var reg 7 ? alu_sel_signal_ff_d[6:0] $end
$var reg 7 @ sel_opcode_signal_d[6:0] $end
$var reg 5 A rd_signal_d[4:0] $end
$var reg 5 B rs1_signal_d[4:0] $end
$var reg 5 C rs2_signal_d[4:0] $end
$var reg 12 D imm_signal_itype_d[11:0] $end
$var reg 20 E imm_signal_utype_d[19:0] $end
$var reg 5 F imm_signal_stype_d[4:0] $end
$var reg 7 G imm_signal_stypetwo_d[6:0] $end
$var reg 1 H imm_signal_btype_d $end
$var reg 4 I imm_signal_btypetwo_d[3:0] $end
$var reg 6 J imm_signal_btypethree_d[5:0] $end
$var reg 1 K imm_signal_btypefour_d $end
$var reg 8 L imm_signal_jtype_d[7:0] $end
$var reg 1 M imm_signal_jtypetwo_d $end
$var reg 10 N imm_signal_jtypethree_d[9:0] $end
$var reg 1 O imm_signal_jtypefour_d $end
$var reg 32 P rs1_out_d[31:0] $end
$var reg 32 Q rs2_out_d[31:0] $end
$var reg 32 R ins_mem_d[31:0] $end
$var reg 32 S o_addr_d[31:0] $end
$var reg 32 T o_addr_d2[31:0] $end
$var reg 1 U branch_out $end
$var reg 32 V o_addr_f[31:0] $end
$var reg 32 W imm_o_d[31:0] $end
$var reg 3 X alu_sel_signal_f_x[2:0] $end
$var reg 7 Y alu_sel_signal_ff_x[6:0] $end
$var reg 7 Z sel_opcode_signal_x[6:0] $end
$var reg 32 [ rs1_out_x[31:0] $end
$var reg 32 \ rs2_out_x[31:0] $end
$var reg 32 ] rs2_out_x2[31:0] $end
$var reg 32 ^ alu_out_x[31:0] $end
$var reg 5 _ rd_signal_x[4:0] $end
$var reg 7 ` sel_opcode_signal_m[6:0] $end
$var reg 5 a rd_signal_m[4:0] $end
$var reg 32 b data_output_wb[31:0] $end
$var reg 5 c rd_signal_wb[4:0] $end
$var reg 1 d nwe_d_ram $end
$var reg 1 e nwe_x_ram $end
$var reg 1 f nwe_d_r2 $end
$var reg 1 g nwe_x_r $end
$var reg 1 h nwe_wb_r $end
$scope module pc $end
$var reg 1 i clk $end
$var reg 32 j i_addr[31:0] $end
$var reg 1 k nrst $end
$var reg 32 l o_addr[31:0] $end
$var reg 1 m mux_control_target $end
$var reg 32 n current_pc[31:0] $end
$upscope $end
$scope module brancher_brain $end
$var reg 7 o sel_opcode[6:0] $end
$var reg 32 p rs1[31:0] $end
$var reg 32 q rs2[31:0] $end
$var reg 1 r branch_out $end
$var reg 1 s val $end
$upscope $end
$scope module address_decoder $end
$var reg 32 t instruction[31:0] $end
$var reg 3 u alu_sel_f[2:0] $end
$var reg 7 v alu_sel_ff[6:0] $end
$var reg 7 w sel_opcode[6:0] $end
$var reg 5 x rd[4:0] $end
$var reg 5 y rs1[4:0] $end
$var reg 5 z rs2[4:0] $end
$var reg 12 { imm_itype[11:0] $end
$var reg 20 | imm_utype[19:0] $end
$var reg 5 } imm_stype[4:0] $end
$var reg 7 !" imm_stypetwo[6:0] $end
$var reg 1 "" imm_btype $end
$var reg 4 #" imm_btypetwo[3:0] $end
$var reg 6 $" imm_btypethree[5:0] $end
$var reg 1 %" imm_btypefour $end
$var reg 8 &" imm_jtype[7:0] $end
$var reg 1 '" imm_jtypetwo $end
$var reg 10 (" imm_jtypethree[9:0] $end
$var reg 1 )" imm_jtypefour $end
$var reg 1 *" i_nwe_r2 $end
$var reg 1 +" i_nwe_ram $end
$upscope $end
$scope module register_file $end
$var reg 1 ," i_clk $end
$var reg 5 -" i_rs1[4:0] $end
$var reg 5 ." i_rs2[4:0] $end
$var reg 5 /" i_rd[4:0] $end
$var reg 32 0" i_data_input[31:0] $end
$var reg 32 1" o_rs1_out[31:0] $end
$var reg 32 2" o_rs2_out[31:0] $end
$var reg 1 3" i_nwe $end
$comment registers is not handled $end
$var reg 32 4" out_a[31:0] $end
$var reg 32 5" out_b[31:0] $end
$upscope $end
$scope module alu_integer $end
$var reg 32 6" val_a[31:0] $end
$var reg 32 7" val_b[31:0] $end
$var reg 3 8" alu_sel_f[2:0] $end
$var reg 7 9" alu_sel_ff[6:0] $end
$var reg 32 :" alu_out[31:0] $end
$var reg 7 ;" sel_opcode[6:0] $end
$upscope $end
$scope module alu_addresser $end
$var reg 32 <" val_a[31:0] $end
$var reg 32 =" val_b[31:0] $end
$var reg 3 >" alu_sel_f[2:0] $end
$var reg 7 ?" alu_sel_ff[6:0] $end
$var reg 32 @" alu_out[31:0] $end
$var reg 7 A" sel_opcode[6:0] $end
$upscope $end
$scope module extender_imm $end
$var reg 7 B" sel_opcode[6:0] $end
$var reg 12 C" imm_itype[11:0] $end
$var reg 20 D" imm_utype[19:0] $end
$var reg 5 E" imm_stype[4:0] $end
$var reg 7 F" imm_stypetwo[6:0] $end
$var reg 1 G" imm_btype $end
$var reg 4 H" imm_btypetwo[3:0] $end
$var reg 6 I" imm_btypethree[5:0] $end
$var reg 1 J" imm_btypefour $end
$var reg 8 K" imm_jtype[7:0] $end
$var reg 1 L" imm_jtypetwo $end
$var reg 10 M" imm_jtypethree[9:0] $end
$var reg 1 N" imm_jtypefour $end
$var reg 32 O" imm_o[31:0] $end
$upscope $end
$upscope $end
$enddefinitions $end
#0
0!
0"
0#
1$
U%
b00000000000000000000000000000000 &
bUUUUUUUUUUUUUUUUUUUUUUUUUUUUUUUU '
b00000000101000110000001100010011 (
bUUUUUUUUUUUUUUUUUUUUUUUUUUUUUUUU )
bUUUUUUUUUUUUUUUUUUUUUUUUUUUUUUUU *
b00000000000000000000000000000000 +
0,
1-
b00000000 .
b00000000000000000000000000000000 /
b00000000101000110000001100010011 0
01
U2
bUUUUUUUU 3
bUUUUUUUUUUUUUUUUUUUUUUUUUUUUUUUU 4
bUUUUUUUUUUUUUUUUUUUUUUUUUUUUUUUU 5
06
07
b00000000000000000000000000000000 8
b00000000101000110000001100010011 9
U:
bUUUUUUUUUUUUUUUUUUUUUUUUUUUUUUUU ;
bUUUUUUUUUUUUUUUUUUUUUUUUUUUUUUUU <
bUUUUUUUUUUUUUUUUUUUUUUUUUUUUUUUU =
bUUU >
bUUUUUUU ?
bUUUUUUU @
bUUUUU A
bUUUUU B
bUUUUU C
bUUUUUUUUUUUU D
bUUUUUUUUUUUUUUUUUUUU E
bUUUUU F
bUUUUUUU G
UH
bUUUU I
bUUUUUU J
UK
bUUUUUUUU L
UM
bUUUUUUUUUU N
UO
bUUUUUUUUUUUUUUUUUUUUUUUUUUUUUUUU P
bUUUUUUUUUUUUUUUUUUUUUUUUUUUUUUUU Q
bUUUUUUUUUUUUUUUUUUUUUUUUUUUUUUUU R
bUUUUUUUUUUUUUUUUUUUUUUUUUUUUUUUU S
b00000000000000000000000000000000 T
UU
b00000000000000000000000000000000 V
b00000000000000000000000000000000 W
bUUU X
bUUUUUUU Y
bUUUUUUU Z
bUUUUUUUUUUUUUUUUUUUUUUUUUUUUUUUU [
bUUUUUUUUUUUUUUUUUUUUUUUUUUUUUUUU \
bUUUUUUUUUUUUUUUUUUUUUUUUUUUUUUUU ]
b00000000000000000000000000000000 ^
bUUUUU _
bUUUUUUU `
bUUUUU a
bUUUUUUUUUUUUUUUUUUUUUUUUUUUUUUUU b
bUUUUU c
Ud
Ue
Uf
Ug
Uh
0i
b00000000000000000000000000000000 j
0k
b00000000000000000000000000000000 l
Um
b00000000000000000000000000000000 n
bUUUUUUU o
bUUUUUUUUUUUUUUUUUUUUUUUUUUUUUUUU p
bUUUUUUUUUUUUUUUUUUUUUUUUUUUUUUUU q
Ur
Us
bUUUUUUUUUUUUUUUUUUUUUUUUUUUUUUUU t
bUUU u
bUUUUUUU v
bUUUUUUU w
bUUUUU x
bUUUUU y
bUUUUU z
bUUUUUUUUUUUU {
bUUUUUUUUUUUUUUUUUUUU |
bUUUUU }
bUUUUUUU !"
U""
bUUUU #"
bUUUUUU $"
U%"
bUUUUUUUU &"
U'"
bUUUUUUUUUU ("
U)"
U*"
U+"
0,"
bUUUUU -"
bUUUUU ."
bUUUUU /"
bUUUUUUUUUUUUUUUUUUUUUUUUUUUUUUUU 0"
bUUUUUUUUUUUUUUUUUUUUUUUUUUUUUUUU 1"
bUUUUUUUUUUUUUUUUUUUUUUUUUUUUUUUU 2"
U3"
bUUUUUUUUUUUUUUUUUUUUUUUUUUUUUUUU 4"
bUUUUUUUUUUUUUUUUUUUUUUUUUUUUUUUU 5"
bUUUUUUUUUUUUUUUUUUUUUUUUUUUUUUUU 6"
bUUUUUUUUUUUUUUUUUUUUUUUUUUUUUUUU 7"
bUUU 8"
bUUUUUUU 9"
b00000000000000000000000000000000 :"
bUUUUUUU ;"
bUUUUUUUUUUUUUUUUUUUUUUUUUUUUUUUU <"
b00000000000000000000000000000000 ="
bUUU >"
bUUUUUUU ?"
b00000000000000000000000000000000 @"
bUUUUUUU A"
bUUUUUUU B"
bUUUUUUUUUUUU C"
bUUUUUUUUUUUUUUUUUUUU D"
bUUUUU E"
bUUUUUUU F"
UG"
bUUUU H"
bUUUUUU I"
UJ"
bUUUUUUUU K"
UL"
bUUUUUUUUUU M"
UN"
b00000000000000000000000000000000 O"
#5000000
1"
17
1k
#10000000
#20000000
1!
b00000000000000000000000000000100 &
b00000000000000000000000000000000 '
b00000000000000000000000000010011 (
b00000100 .
b00000000000000000000000000010011 0
b00000000 3
16
b00000000000000000000000000000100 8
b00000000000000000000000000010011 9
b00000000000000000000000000000000 ;
b000 >
b0010011 @
b00110 A
b00110 B
b000000001010 D
b00000000101000110000001100010011 R
b00000000000000000000000000000000 S
b00000000000000000000000000001010 T
b00000000000000000000000000000100 V
b00000000000000000000000000001010 W
b00000000000000000000000000000000 b
1d
0f
1i
b00000000000000000000000000001010 j
b00000000000000000000000000000100 l
b00000000000000000000000000000100 n
b0010011 o
b00000000101000110000001100010011 t
b000 u
b0010011 w
b00110 x
b00110 y
b000000001010 {
0*"
1+"
1,"
b00110 -"
b00000000000000000000000000000000 0"
b00000000000000000000000000000000 <"
b00000000000000000000000000001010 ="
b000 >"
b00000000000000000000000000001010 @"
b0010011 A"
b0010011 B"
b000000001010 C"
b00000000000000000000000000001010 O"
#30000000
0!
06
b00000000000000000000000000000000 P
b00000000000000000000000000000000 Q
0i
b00000000000000000000000000000000 p
b00000000000000000000000000000000 q
0,"
b00000000000000000000000000000000 1"
b00000000000000000000000000000000 2"
b00000000000000000000000000000000 4"
b00000000000000000000000000000000 5"
#40000000
1!
b00000000000000000000000000001000 &
b00001000 .
16
b00000000000000000000000000001000 8
b00000 A
b00000 B
b000000000000 D
b00000000000000000000000000010011 R
b00000000000000000000000000000100 S
b00000000000000000000000000000100 T
b00000000000000000000000000001000 V
b00000000000000000000000000000000 W
b000 X
b0010011 Z
b00000000000000000000000000000000 [
b00000000000000000000000000001010 \
b00000000000000000000000000000000 ]
b00000000000000000000000000001010 ^
b00110 _
b00000000000000000000000000001010 b
b00110 c
1e
0g
0h
1i
b00000000000000000000000000000100 j
b00000000000000000000000000001000 l
b00000000000000000000000000001000 n
b00000000000000000000000000010011 t
b00000 x
b00000 y
b000000000000 {
1,"
b00000 -"
b00110 /"
b00000000000000000000000000001010 0"
03"
b00000000000000000000000000000000 6"
b00000000000000000000000000001010 7"
b000 8"
b00000000000000000000000000001010 :"
b0010011 ;"
b00000000000000000000000000000100 <"
b00000000000000000000000000000000 ="
b00000000000000000000000000000100 @"
b000000000000 C"
b00000000000000000000000000000000 O"
#50000000
0!
06
0i
0,"
#60000000
1!
1%
b00000000000000000000000000001100 &
b00000000000000000000000000001010 '
b00000000000000000000000000000000 *
b00001100 .
12
b00001010 3
b00000000000000000000000000000000 4
16
b00000000000000000000000000001100 8
1:
b00000000000000000000000000001010 ;
b00000000000000000000000000000000 <
b00000000000000000000000000001000 S
b00000000000000000000000000001000 T
b00000000000000000000000000001100 V
b00000000000000000000000000000000 \
b00000000000000000000000000000000 ^
b00000 _
b00000000000000000000000000000000 b
b00000 c
1i
b00000000000000000000000000001000 j
b00000000000000000000000000001100 l
b00000000000000000000000000001100 n
1,"
b00000 /"
b00000000000000000000000000000000 0"
b00000000000000000000000000000000 7"
b00000000000000000000000000000000 :"
b00000000000000000000000000001000 <"
b00000000000000000000000000001000 @"
#70000000
0!
06
0i
0,"
#80000000
1!
b00000000000000000000000000010000 &
b00000000000000000000000000000000 '
b00010000 .
b00000000 3
16
b00000000000000000000000000010000 8
b00000000000000000000000000000000 ;
b00000000000000000000000000001100 S
b00000000000000000000000000001100 T
b00000000000000000000000000010000 V
1i
b00000000000000000000000000001100 j
b00000000000000000000000000010000 l
b00000000000000000000000000010000 n
1,"
b00000000000000000000000000001100 <"
b00000000000000000000000000001100 @"
#90000000
0!
06
0i
0,"
#100000000
1!
b00000000000000000000000000010100 &
b00000000011000000010000100100011 (
b00010100 .
b00000000011000000010000100100011 0
16
b00000000000000000000000000010100 8
b00000000011000000010000100100011 9
b00000000000000000000000000010000 S
b00000000000000000000000000010000 T
b00000000000000000000000000010100 V
1i
b00000000000000000000000000010000 j
b00000000000000000000000000010100 l
b00000000000000000000000000010100 n
1,"
b00000000000000000000000000010000 <"
b00000000000000000000000000010000 @"
#110000000
0!
06
0i
0,"
#120000000
1!
b00000000000000000000000000011000 &
b00000000000000000000000000010011 (
b00011000 .
b00000000000000000000000000010011 0
16
b00000000000000000000000000011000 8
b00000000000000000000000000010011 9
b010 >
b0100011 @
b00110 C
b00010 F
b0000000 G
b00000000011000000010000100100011 R
b00000000000000000000000000010100 S
b00000000000000000000000000010110 T
b00000000000000000000000000011000 V
b00000000000000000000000000000010 W
0d
1f
1i
b00000000000000000000000000010110 j
b00000000000000000000000000011000 l
b00000000000000000000000000011000 n
b0100011 o
b00000000011000000010000100100011 t
b010 u
b0100011 w
b00110 z
b00010 }
b0000000 !"
1*"
0+"
1,"
b00110 ."
b00000000000000000000000000010100 <"
b00000000000000000000000000000010 ="
b010 >"
b00000000000000000000000000010110 @"
b0100011 A"
b0100011 B"
b00010 E"
b0000000 F"
b00000000000000000000000000000010 O"
#130000000
0!
06
b00000000000000000000000000001010 Q
0i
b00000000000000000000000000001010 q
0,"
b00000000000000000000000000001010 2"
b00000000000000000000000000001010 5"
#140000000
1!
b00000000000000000000000000011100 &
b00011100 .
16
b00000000000000000000000000011100 8
b000 >
b0010011 @
b00000000000000000000000000010011 R
b00000000000000000000000000011000 S
b00000000000000000000000000011000 T
b00000000000000000000000000011100 V
b00000000000000000000000000000000 W
b010 X
b0100011 Z
b00000000000000000000000000000010 \
b00000000000000000000000000001010 ]
b00000000000000000000000000000010 ^
1d
0e
0f
1g
1i
b00000000000000000000000000011000 j
b00000000000000000000000000011100 l
b00000000000000000000000000011100 n
b0010011 o
b00000000000000000000000000010011 t
b000 u
b0010011 w
0*"
1+"
1,"
b00000000000000000000000000000010 7"
b010 8"
b00000000000000000000000000000010 :"
b0100011 ;"
b00000000000000000000000000011000 <"
b00000000000000000000000000000000 ="
b000 >"
b00000000000000000000000000011000 @"
b0010011 A"
b0010011 B"
b00000000000000000000000000000000 O"
#150000000
0!
06
0i
0,"
#160000000
1!
0%
b00000000000000000000000000100000 &
b00000000000000000000000000000010 '
b00000000000000000000000000001010 *
b00100000 .
02
b00000010 3
b00000000000000000000000000001010 4
16
b00000000000000000000000000100000 8
0:
b00000000000000000000000000000010 ;
b00000000000000000000000000001010 <
b00000000000000000000000000011100 S
b00000000000000000000000000011100 T
b00000000000000000000000000100000 V
b000 X
b0010011 Z
b00000000000000000000000000000000 \
b00000000000000000000000000000000 ^
b00000000000000000000000000000000 b
1e
0g
1i
b00000000000000000000000000011100 j
b00000000000000000000000000100000 l
b00000000000000000000000000100000 n
1,"
b00000000000000000000000000000000 0"
b00000000000000000000000000000000 7"
b000 8"
b00000000000000000000000000000000 :"
b0010011 ;"
b00000000000000000000000000011100 <"
b00000000000000000000000000011100 @"
#170000000
0!
06
0i
0,"
#180000000
1!
1%
b00000000000000000000000000100100 &
b00000000000000000000000000000000 '
b00100100 .
12
b00000000 3
16
b00000000000000000000000000100100 8
1:
b00000000000000000000000000000000 ;
b00000000000000000000000000100000 S
b00000000000000000000000000100000 T
b00000000000000000000000000100100 V
1i
b00000000000000000000000000100000 j
b00000000000000000000000000100100 l
b00000000000000000000000000100100 n
1,"
b00000000000000000000000000100000 <"
b00000000000000000000000000100000 @"
#190000000
0!
06
0i
0,"
#200000000
1!
b00000000000000000000000000101000 &
b00000000001000000010001110000011 (
b00101000 .
b00000000001000000010001110000011 0
16
b00000000000000000000000000101000 8
b00000000001000000010001110000011 9
b00000000000000000000000000100100 S
b00000000000000000000000000100100 T
b00000000000000000000000000101000 V
1i
b00000000000000000000000000100100 j
b00000000000000000000000000101000 l
b00000000000000000000000000101000 n
1,"
b00000000000000000000000000100100 <"
b00000000000000000000000000100100 @"
#210000000
0!
06
0i
0,"
#220000000
1!
b00000000000000000000000000101100 &
bUUUUUUUUUUUUUUUUUUUUUUUUUUUUUUUU (
b00101100 .
bUUUUUUUUUUUUUUUUUUUUUUUUUUUUUUUU 0
16
b00000000000000000000000000101100 8
bUUUUUUUUUUUUUUUUUUUUUUUUUUUUUUUU 9
b010 >
b0000011 @
b00111 A
b000000000010 D
b00000000001000000010001110000011 R
b00000000000000000000000000101000 S
b00000000000000000000000000101010 T
b00000000000000000000000000101100 V
b00000000000000000000000000000010 W
1i
b00000000000000000000000000101010 j
b00000000000000000000000000101100 l
b00000000000000000000000000101100 n
b0000011 o
b00000000001000000010001110000011 t
b010 u
b0000011 w
b00111 x
b000000000010 {
1,"
b00000000000000000000000000101000 <"
b00000000000000000000000000000010 ="
b010 >"
b00000000000000000000000000101010 @"
b0000011 A"
b0000011 B"
b000000000010 C"
b00000000000000000000000000000010 O"
#230000000
0!
06
0i
0,"
#240000000
1!
b00000000000000000000000000110000 &
b00110000 .
16
b00000000000000000000000000110000 8
bUUUUUUUUUUUUUUUUUUUUUUUUUUUUUUUU R
b00000000000000000000000000101100 S
b00000000000000000000000000101110 T
b00000000000000000000000000110000 V
b010 X
b0000011 Z
b00000000000000000000000000000010 \
b00000000000000000000000000000010 ^
b00111 _
1i
b00000000000000000000000000101110 j
b00000000000000000000000000110000 l
b00000000000000000000000000110000 n
bUUUUUUUUUUUUUUUUUUUUUUUUUUUUUUUU t
1,"
b00000000000000000000000000000010 7"
b010 8"
b00000000000000000000000000000010 :"
b0000011 ;"
b00000000000000000000000000101100 <"
b00000000000000000000000000101110 @"
#250000000
0!
06
0i
0,"
#260000000
1!
b00000000000000000000000000110100 &
b00000000000000000000000000000010 '
b00000000000000000000000000001010 )
b00110100 .
b00000010 3
b00000000000000000000000000001010 5
16
b00000000000000000000000000110100 8
b00000000000000000000000000000010 ;
b00000000000000000000000000001010 =
b00000000000000000000000000110000 S
b00000000000000000000000000110010 T
b00000000000000000000000000110100 V
bUUUUUUUUUUUUUUUUUUUUUUUUUUUUUUUU b
1i
b00000000000000000000000000110010 j
b00000000000000000000000000110100 l
b00000000000000000000000000110100 n
1,"
bUUUUUUUUUUUUUUUUUUUUUUUUUUUUUUUU 0"
b00000000000000000000000000110000 <"
b00000000000000000000000000110010 @"
#270000000
0!
06
bUUUUUUUUUUUUUUUUUUUUUUUUUUUUUUUU P
0i
bUUUUUUUUUUUUUUUUUUUUUUUUUUUUUUUU p
0,"
bUUUUUUUUUUUUUUUUUUUUUUUUUUUUUUUU 1"
bUUUUUUUUUUUUUUUUUUUUUUUUUUUUUUUU 4"
#280000000
1!
b00000000000000000000000000111000 &
b00111000 .
16
b00000000000000000000000000111000 8
b00000000000000000000000000110100 S
b00000000000000000000000000110110 T
b00000000000000000000000000111000 V
bUUUUUUUUUUUUUUUUUUUUUUUUUUUUUUUU [
bXXXXXXXXXXXXXXXXXXXXXXXXXXXXXXXX ^
b00000000000000000000000000001010 b
1i
b00000000000000000000000000110110 j
b00000000000000000000000000111000 l
b00000000000000000000000000111000 n
1,"
b00000000000000000000000000001010 0"
bUUUUUUUUUUUUUUUUUUUUUUUUUUUUUUUU 6"
bXXXXXXXXXXXXXXXXXXXXXXXXXXXXXXXX :"
b00000000000000000000000000110100 <"
b00000000000000000000000000110110 @"
#290000000
0!
06
b00000000000000000000000000001010 P
0i
b00000000000000000000000000001010 p
0,"
b00000000000000000000000000001010 1"
b00000000000000000000000000001010 4"
#300000000
1!
b00000000000000000000000000111100 &
bXXXXXXXXXXXXXXXXXXXXXXXXXXXXXXXX '
bUUUUUUUUUUUUUUUUUUUUUUUUUUUUUUUU )
b00111100 .
bXXXXXXXX 3
bUUUUUUUUUUUUUUUUUUUUUUUUUUUUUUUU 5
16
b00000000000000000000000000111100 8
bXXXXXXXXXXXXXXXXXXXXXXXXXXXXXXXX ;
bUUUUUUUUUUUUUUUUUUUUUUUUUUUUUUUU =
b00000000000000000000000000111000 S
b00000000000000000000000000111010 T
b00000000000000000000000000111100 V
b00000000000000000000000000001010 [
b00000000000000000000000000001100 ^
1i
b00000000000000000000000000111010 j
b00000000000000000000000000111100 l
b00000000000000000000000000111100 n
1,"
b00000000000000000000000000001010 6"
b00000000000000000000000000001100 :"
b00000000000000000000000000111000 <"
b00000000000000000000000000111010 @"
#310000000
0!
06
0i
0,"
#320000000
1!
b00000000000000000000000001000000 &
b00000000000000000000000000001100 '
b01000000 .
b00001100 3
16
b00000000000000000000000001000000 8
b00000000000000000000000000001100 ;
b00000000000000000000000000111100 S
b00000000000000000000000000111110 T
b00000000000000000000000001000000 V
bUUUUUUUUUUUUUUUUUUUUUUUUUUUUUUUU b
1i
b00000000000000000000000000111110 j
b00000000000000000000000001000000 l
b00000000000000000000000001000000 n
1,"
bUUUUUUUUUUUUUUUUUUUUUUUUUUUUUUUU 0"
b00000000000000000000000000111100 <"
b00000000000000000000000000111110 @"
#330000000
0!
06
bUUUUUUUUUUUUUUUUUUUUUUUUUUUUUUUU P
0i
bUUUUUUUUUUUUUUUUUUUUUUUUUUUUUUUU p
0,"
bUUUUUUUUUUUUUUUUUUUUUUUUUUUUUUUU 1"
bUUUUUUUUUUUUUUUUUUUUUUUUUUUUUUUU 4"
#340000000
1!
b00000000000000000000000001000100 &
b01000100 .
16
b00000000000000000000000001000100 8
b00000000000000000000000001000000 S
b00000000000000000000000001000010 T
b00000000000000000000000001000100 V
bUUUUUUUUUUUUUUUUUUUUUUUUUUUUUUUU [
bXXXXXXXXXXXXXXXXXXXXXXXXXXXXXXXX ^
1i
b00000000000000000000000001000010 j
b00000000000000000000000001000100 l
b00000000000000000000000001000100 n
1,"
bUUUUUUUUUUUUUUUUUUUUUUUUUUUUUUUU 6"
bXXXXXXXXXXXXXXXXXXXXXXXXXXXXXXXX :"
b00000000000000000000000001000000 <"
b00000000000000000000000001000010 @"
#350000000
0!
06
0i
0,"
#360000000
1!
b00000000000000000000000001001000 &
bXXXXXXXXXXXXXXXXXXXXXXXXXXXXXXXX '
b01001000 .
bXXXXXXXX 3
16
b00000000000000000000000001001000 8
bXXXXXXXXXXXXXXXXXXXXXXXXXXXXXXXX ;
b00000000000000000000000001000100 S
b00000000000000000000000001000110 T
b00000000000000000000000001001000 V
1i
b00000000000000000000000001000110 j
b00000000000000000000000001001000 l
b00000000000000000000000001001000 n
1,"
b00000000000000000000000001000100 <"
b00000000000000000000000001000110 @"
#370000000
0!
06
0i
0,"
#380000000
1!
b00000000000000000000000001001100 &
b01001100 .
16
b00000000000000000000000001001100 8
b00000000000000000000000001001000 S
b00000000000000000000000001001010 T
b00000000000000000000000001001100 V
1i
b00000000000000000000000001001010 j
b00000000000000000000000001001100 l
b00000000000000000000000001001100 n
1,"
b00000000000000000000000001001000 <"
b00000000000000000000000001001010 @"
#390000000
0!
06
0i
0,"
#400000000
1!
b00000000000000000000000001010000 &
b01010000 .
16
b00000000000000000000000001010000 8
b00000000000000000000000001001100 S
b00000000000000000000000001001110 T
b00000000000000000000000001010000 V
1i
b00000000000000000000000001001110 j
b00000000000000000000000001010000 l
b00000000000000000000000001010000 n
1,"
b00000000000000000000000001001100 <"
b00000000000000000000000001001110 @"
