RiscyBusiness/riscy.vcd
$date
  Wed Jan 26 18:23:27 2022
$end
$version
  GHDL v0
$end
$timescale
  1 fs
$end
$var reg 1 ! clk $end
$var reg 1 " nrst $end
$var reg 1 # const0 $end
$var reg 1 $ const1 $end
$var reg 1 % dnwe $end
$var reg 32 & iaddr[31:0] $end
$var reg 32 ' daddr[31:0] $end
$var reg 32 ( idatao[31:0] $end
$var reg 32 ) ddatao[31:0] $end
$var reg 32 * ddatai[31:0] $end
$comment ictrl is not handled $end
$comment dctrl is not handled $end
$var reg 32 + random[31:0] $end
$scope module instmemi $end
$var reg 1 , ncs $end
$var reg 1 - nwe $end
$var reg 8 . addr[7:0] $end
$var reg 32 / datain[31:0] $end
$var reg 32 0 dataout[31:0] $end
$comment fileio is not handled $end
$upscope $end
$scope module datamemi $end
$var reg 1 1 ncs $end
$var reg 1 2 nwe $end
$var reg 8 3 addr[7:0] $end
$var reg 32 4 datain[31:0] $end
$var reg 32 5 dataout[31:0] $end
$comment fileio is not handled $end
$upscope $end
$scope module pipeproci $end
$var reg 1 6 clk $end
$var reg 1 7 nrst $end
$var reg 32 8 iaddr[31:0] $end
$var reg 32 9 idata[31:0] $end
$var reg 1 : dnwe $end
$var reg 32 ; daddr[31:0] $end
$var reg 32 < ddatai[31:0] $end
$var reg 32 = ddatao[31:0] $end
$var reg 3 > alu_sel_signal_f_d[2:0] $end
$var reg 7 ? alu_sel_signal_ff_d[6:0] $end
$var reg 7 @ sel_opcode_signal_d[6:0] $end
$var reg 5 A rd_signal_d[4:0] $end
$var reg 5 B rs1_signal_d[4:0] $end
$var reg 5 C rs2_signal_d[4:0] $end
$var reg 12 D imm_signal_itype_d[11:0] $end
$var reg 20 E imm_signal_utype_d[19:0] $end
$var reg 5 F imm_signal_stype_d[4:0] $end
$var reg 7 G imm_signal_stypetwo_d[6:0] $end
$var reg 1 H imm_signal_btype_d $end
$var reg 4 I imm_signal_btypetwo_d[3:0] $end
$var reg 6 J imm_signal_btypethree_d[5:0] $end
$var reg 1 K imm_signal_btypefour_d $end
$var reg 8 L imm_signal_jtype_d[7:0] $end
$var reg 1 M imm_signal_jtypetwo_d $end
$var reg 10 N imm_signal_jtypethree_d[9:0] $end
$var reg 1 O imm_signal_jtypefour_d $end
$var reg 32 P rs1_out_d[31:0] $end
$var reg 32 Q rs2_out_d[31:0] $end
$var reg 32 R ins_mem_d[31:0] $end
$var reg 32 S o_addr_d[31:0] $end
$var reg 32 T o_addr_d2[31:0] $end
$var reg 1 U branch_out $end
$var reg 32 V o_addr_f[31:0] $end
$var reg 32 W imm_o_d[31:0] $end
$var reg 3 X alu_sel_signal_f_x[2:0] $end
$var reg 7 Y alu_sel_signal_ff_x[6:0] $end
$var reg 7 Z sel_opcode_signal_x[6:0] $end
$var reg 32 [ rs1_out_x[31:0] $end
$var reg 32 \ rs2_out_x[31:0] $end
$var reg 32 ] rs2_out_x2[31:0] $end
$var reg 32 ^ alu_out_x[31:0] $end
$var reg 5 _ rd_signal_x[4:0] $end
$var reg 7 ` sel_opcode_signal_m[6:0] $end
$var reg 5 a rd_signal_m[4:0] $end
$var reg 32 b alu_out_m[31:0] $end
$var reg 32 c data_output_wb[31:0] $end
$var reg 5 d rd_signal_wb[4:0] $end
$var reg 32 e data_output_wb_external[31:0] $end
$var reg 7 f sel_opcode_signal_wb[6:0] $end
$var reg 1 g nwe_d_ram $end
$var reg 1 h nwe_x_ram $end
$var reg 1 i nwe_m_ram $end
$var reg 1 j nwe_d_r2 $end
$var reg 1 k nwe_x_r $end
$var reg 1 l nwe_wb_r $end
$var reg 1 m nwe_wb_r2 $end
$var reg 1 n nwe_m_r $end
$scope module pc $end
$var reg 1 o clk $end
$var reg 32 p i_addr[31:0] $end
$var reg 1 q nrst $end
$var reg 32 r o_addr[31:0] $end
$var reg 1 s mux_control_target $end
$var reg 32 t current_pc[31:0] $end
$upscope $end
$scope module brancher_brain $end
$var reg 7 u sel_opcode[6:0] $end
$var reg 3 v sel_f[2:0] $end
$var reg 32 w rs1[31:0] $end
$var reg 32 x rs2[31:0] $end
$var reg 1 y branch_out $end
$var reg 1 z val $end
$upscope $end
$scope module address_decoder $end
$var reg 32 { instruction[31:0] $end
$var reg 3 | alu_sel_f[2:0] $end
$var reg 7 } alu_sel_ff[6:0] $end
$var reg 7 !" sel_opcode[6:0] $end
$var reg 5 "" rd[4:0] $end
$var reg 5 #" rs1[4:0] $end
$var reg 5 $" rs2[4:0] $end
$var reg 12 %" imm_itype[11:0] $end
$var reg 20 &" imm_utype[19:0] $end
$var reg 5 '" imm_stype[4:0] $end
$var reg 7 (" imm_stypetwo[6:0] $end
$var reg 1 )" imm_btype $end
$var reg 4 *" imm_btypetwo[3:0] $end
$var reg 6 +" imm_btypethree[5:0] $end
$var reg 1 ," imm_btypefour $end
$var reg 8 -" imm_jtype[7:0] $end
$var reg 1 ." imm_jtypetwo $end
$var reg 10 /" imm_jtypethree[9:0] $end
$var reg 1 0" imm_jtypefour $end
$var reg 1 1" i_nwe_r2 $end
$var reg 1 2" i_nwe_ram $end
$var reg 7 3" default[31:25] $end
$upscope $end
$scope module register_file $end
$var reg 1 4" i_clk $end
$var reg 5 5" i_rs1[4:0] $end
$var reg 5 6" i_rs2[4:0] $end
$var reg 5 7" i_rd[4:0] $end
$var reg 5 8" i_rd2[4:0] $end
$var reg 32 9" i_data_input[31:0] $end
$var reg 32 :" i_data_input2[31:0] $end
$var reg 7 ;" sel_opcode[6:0] $end
$var reg 7 <" sel_opcode_lw[6:0] $end
$var reg 32 =" o_rs1_out[31:0] $end
$var reg 32 >" o_rs2_out[31:0] $end
$var reg 1 ?" i_nwe $end
$var reg 1 @" i_nwe2 $end
$comment registers is not handled $end
$var reg 32 A" out_a[31:0] $end
$var reg 32 B" out_b[31:0] $end
$upscope $end
$scope module alu_integer $end
$var reg 32 C" val_a[31:0] $end
$var reg 32 D" val_b[31:0] $end
$var reg 3 E" alu_sel_f[2:0] $end
$var reg 7 F" alu_sel_ff[6:0] $end
$var reg 32 G" alu_out[31:0] $end
$var reg 7 H" sel_opcode[6:0] $end
$upscope $end
$scope module alu_addresser $end
$var reg 32 I" val_a[31:0] $end
$var reg 32 J" val_b[31:0] $end
$var reg 3 K" alu_sel_f[2:0] $end
$var reg 7 L" alu_sel_ff[6:0] $end
$var reg 32 M" alu_out[31:0] $end
$var reg 7 N" sel_opcode[6:0] $end
$upscope $end
$scope module extender_imm $end
$var reg 7 O" sel_opcode[6:0] $end
$var reg 12 P" imm_itype[11:0] $end
$var reg 20 Q" imm_utype[19:0] $end
$var reg 5 R" imm_stype[4:0] $end
$var reg 7 S" imm_stypetwo[6:0] $end
$var reg 1 T" imm_btype $end
$var reg 4 U" imm_btypetwo[3:0] $end
$var reg 6 V" imm_btypethree[5:0] $end
$var reg 1 W" imm_btypefour $end
$var reg 8 X" imm_jtype[7:0] $end
$var reg 1 Y" imm_jtypetwo $end
$var reg 10 Z" imm_jtypethree[9:0] $end
$var reg 1 [" imm_jtypefour $end
$var reg 32 \" imm_o[31:0] $end
$upscope $end
$upscope $end
$enddefinitions $end
#0
0!
0"
0#
1$
U%
b00000000000000000000000000000000 &
bUUUUUUUUUUUUUUUUUUUUUUUUUUUUUUUU '
b00000001010000000000101010010011 (
bUUUUUUUUUUUUUUUUUUUUUUUUUUUUUUUU )
bUUUUUUUUUUUUUUUUUUUUUUUUUUUUUUUU *
b00000000000000000000000000000000 +
0,
1-
b00000000 .
b00000000000000000000000000000000 /
b00000001010000000000101010010011 0
01
U2
bUUUUUUUU 3
bUUUUUUUUUUUUUUUUUUUUUUUUUUUUUUUU 4
bUUUUUUUUUUUUUUUUUUUUUUUUUUUUUUUU 5
06
07
b00000000000000000000000000000000 8
b00000001010000000000101010010011 9
U:
bUUUUUUUUUUUUUUUUUUUUUUUUUUUUUUUU ;
bUUUUUUUUUUUUUUUUUUUUUUUUUUUUUUUU <
bUUUUUUUUUUUUUUUUUUUUUUUUUUUUUUUU =
b000 >
bUUUUUUU ?
b0000000 @
b00000 A
b00000 B
bUUUUU C
b000000000000 D
bUUUUUUUUUUUUUUUUUUUU E
bUUUUU F
bUUUUUUU G
UH
bUUUU I
bUUUUUU J
UK
bUUUUUUUU L
UM
bUUUUUUUUUU N
UO
b00000000000000000000000000000000 P
b00000000000000000000000000000000 Q
bUUUUUUUUUUUUUUUUUUUUUUUUUUUUUUUU R
bUUUUUUUUUUUUUUUUUUUUUUUUUUUUUUUU S
b00000000000000000000000000000000 T
0U
b00000000000000000000000000000000 V
b00000000000000000000000000000000 W
bUUU X
bUUUUUUU Y
bUUUUUUU Z
bUUUUUUUUUUUUUUUUUUUUUUUUUUUUUUUU [
bUUUUUUUUUUUUUUUUUUUUUUUUUUUUUUUU \
bUUUUUUUUUUUUUUUUUUUUUUUUUUUUUUUU ]
b00000000000000000000000000000000 ^
bUUUUU _
bUUUUUUU `
bUUUUU a
bUUUUUUUUUUUUUUUUUUUUUUUUUUUUUUUU b
bUUUUUUUUUUUUUUUUUUUUUUUUUUUUUUUU c
bUUUUU d
bUUUUUUUUUUUUUUUUUUUUUUUUUUUUUUUU e
bUUUUUUU f
1g
Uh
Ui
1j
Uk
Ul
Um
Un
0o
b00000000000000000000000000000000 p
0q
b00000000000000000000000000000000 r
0s
b00000000000000000000000000000000 t
b0000000 u
b000 v
b00000000000000000000000000000000 w
b00000000000000000000000000000000 x
0y
0z
bUUUUUUUUUUUUUUUUUUUUUUUUUUUUUUUU {
b000 |
bUUUUUUU }
b0000000 !"
b00000 ""
b00000 #"
bUUUUU $"
b000000000000 %"
bUUUUUUUUUUUUUUUUUUUU &"
bUUUUU '"
bUUUUUUU ("
U)"
bUUUU *"
bUUUUUU +"
U,"
bUUUUUUUU -"
U."
bUUUUUUUUUU /"
U0"
11"
12"
b1111111 3"
04"
b00000 5"
bUUUUU 6"
bUUUUU 7"
bUUUUU 8"
bUUUUUUUUUUUUUUUUUUUUUUUUUUUUUUUU 9"
bUUUUUUUUUUUUUUUUUUUUUUUUUUUUUUUU :"
bUUUUUUU ;"
bUUUUUUU <"
b00000000000000000000000000000000 ="
b00000000000000000000000000000000 >"
U?"
U@"
b00000000000000000000000000000000 A"
b00000000000000000000000000000000 B"
bUUUUUUUUUUUUUUUUUUUUUUUUUUUUUUUU C"
bUUUUUUUUUUUUUUUUUUUUUUUUUUUUUUUU D"
bUUU E"
bUUUUUUU F"
b00000000000000000000000000000000 G"
bUUUUUUU H"
b00000000000000000000000000000000 I"
bUUUUUUUUUUUUUUUUUUUUUUUUUUUUUUUU J"
b000 K"
bUUUUUUU L"
b00000000000000000000000000000000 M"
b0000000 N"
b0000000 O"
b000000000000 P"
bUUUUUUUUUUUUUUUUUUUU Q"
bUUUUU R"
bUUUUUUU S"
UT"
bUUUU U"
bUUUUUU V"
UW"
bUUUUUUUU X"
UY"
bUUUUUUUUUU Z"
U["
b00000000000000000000000000000000 \"
#5000000
1"
17
1q
#10000000
#20000000
1!
b00000000000000000000000000000100 &
b00000000000000000000000000000000 '
b00000000000000000000011000010011 (
b00000100 .
b00000000000000000000011000010011 0
b00000000 3
16
b00000000000000000000000000000100 8
b00000000000000000000011000010011 9
b00000000000000000000000000000000 ;
b1111111 ?
b0010011 @
b10101 A
b000000010100 D
b00000001010000000000101010010011 R
b00000000000000000000000000000000 S
b00000000000000000000000000010100 T
b00000000000000000000000000000100 V
b00000000000000000000000000010100 W
b000 X
b0000000 Z
b00000000000000000000000000000000 [
b00000000000000000000000000000000 \
b00000 _
b00000000000000000000000000000000 b
b00000000000000000000000000000000 e
1h
0j
1k
1o
b00000000000000000000000000010100 p
b00000000000000000000000000000100 r
b00000000000000000000000000000100 t
b0010011 u
b00000001010000000000101010010011 {
b1111111 }
b0010011 !"
b10101 ""
b000000010100 %"
01"
14"
b00000000000000000000000000000000 :"
b00000000000000000000000000000000 C"
b00000000000000000000000000000000 D"
b000 E"
b0000000 H"
b00000000000000000000000000010100 I"
b00000000000000000000000000000000 J"
b1111111 L"
b00000000000000000000000000010100 M"
b0010011 N"
b0010011 O"
b000000010100 P"
b00000000000000000000000000010100 \"
#30000000
0!
06
0o
04"
#40000000
1!
1%
b00000000000000000000000000001000 &
b00000000000000000000100110010011 (
b00001000 .
b00000000000000000000100110010011 0
12
16
b00000000000000000000000000001000 8
b00000000000000000000100110010011 9
1:
b01100 A
b000000000000 D
b00000000000000000000011000010011 R
b00000000000000000000000000000100 S
b00000000000000000000000000000100 T
b00000000000000000000000000001000 V
b00000000000000000000000000000000 W
b1111111 Y
b0010011 Z
b00000000000000000000000000010100 \
b00000000000000000000000000000000 ]
b00000000000000000000000000010100 ^
b10101 _
b0000000 `
b00000 a
0k
1l
1n
1o
b00000000000000000000000000000100 p
b00000000000000000000000000001000 r
b00000000000000000000000000001000 t
b00000000000000000000011000010011 {
b01100 ""
b000000000000 %"
14"
b00000 7"
b0000000 ;"
1?"
b00000000000000000000000000010100 D"
b1111111 F"
b00000000000000000000000000010100 G"
b0010011 H"
b00000000000000000000000000000000 I"
b00000000000000000000000000000100 J"
b00000000000000000000000000000100 M"
b000000000000 P"
b00000000000000000000000000000000 \"
#50000000
0!
06
0o
04"
#60000000
1!
b00000000000000000000000000001100 &
b00000000000000000000000000010011 (
b00001100 .
b00000000000000000000000000010011 0
16
b00000000000000000000000000001100 8
b00000000000000000000000000010011 9
b10011 A
b00000000000000000000100110010011 R
b00000000000000000000000000001000 S
b00000000000000000000000000001000 T
b00000000000000000000000000001100 V
b00000000000000000000000000000000 \
b00000000000000000000000000000000 ^
b01100 _
b0010011 `
b10101 a
b00000000000000000000000000010100 c
b00000 d
b0000000 f
0l
1m
1o
b00000000000000000000000000001000 p
b00000000000000000000000000001100 r
b00000000000000000000000000001100 t
b00000000000000000000100110010011 {
b10011 ""
14"
b10101 7"
b00000 8"
b00000000000000000000000000010100 9"
b0010011 ;"
b0000000 <"
0?"
1@"
b00000000000000000000000000000000 D"
b00000000000000000000000000000000 G"
b00000000000000000000000000001000 J"
b00000000000000000000000000001000 M"
#70000000
0!
06
0o
04"
#80000000
1!
b00000000000000000000000000010000 &
b00000001001101100010000000100011 (
b00010000 .
b00000001001101100010000000100011 0
16
b00000000000000000000000000010000 8
b00000001001101100010000000100011 9
b00000 A
b00000000000000000000000000010011 R
b00000000000000000000000000001100 S
b00000000000000000000000000001100 T
b00000000000000000000000000010000 V
b10011 _
b01100 a
b00000000000000000000000000000000 c
b10101 d
b0010011 f
1o
b00000000000000000000000000001100 p
b00000000000000000000000000010000 r
b00000000000000000000000000010000 t
b00000000000000000000000000010011 {
b00000 ""
14"
b01100 7"
b10101 8"
b00000000000000000000000000000000 9"
b0010011 <"
b00000000000000000000000000001100 J"
b00000000000000000000000000001100 M"
#90000000
0!
06
0o
04"
#100000000
1!
b00000000000000000000000000010100 &
b00000000000000000000000000010011 (
b00010100 .
b00000000000000000000000000010011 0
16
b00000000000000000000000000010100 8
b00000000000000000000000000010011 9
b010 >
b0100011 @
b01100 B
b10011 C
b00000 F
b0000000 G
b00000001001101100010000000100011 R
b00000000000000000000000000010000 S
b00000000000000000000000000010000 T
b00000000000000000000000000010100 V
b00000 _
b10011 a
b01100 d
0g
1j
1o
b00000000000000000000000000010000 p
b00000000000000000000000000010100 r
b00000000000000000000000000010100 t
b0100011 u
b010 v
b00000001001101100010000000100011 {
b010 |
b0100011 !"
b01100 #"
b10011 $"
b00000 '"
b0000000 ("
11"
02"
14"
b01100 5"
b10011 6"
b10011 7"
b01100 8"
b00000000000000000000000000010000 J"
b010 K"
b00000000000000000000000000010000 M"
b0100011 N"
b0100011 O"
b00000 R"
b0000000 S"
#110000000
0!
06
0o
04"
#120000000
1!
b00000000000000000000000000011000 &
b00011000 .
16
b00000000000000000000000000011000 8
b000 >
b0010011 @
b00000 B
b00000000000000000000000000010011 R
b00000000000000000000000000010100 S
b00000000000000000000000000010100 T
b00000000000000000000000000011000 V
b010 X
b0100011 Z
b00000 a
b10011 d
1g
0h
0j
1k
1o
b00000000000000000000000000010100 p
b00000000000000000000000000011000 r
b00000000000000000000000000011000 t
b0010011 u
b000 v
b00000000000000000000000000010011 {
b000 |
b0010011 !"
b00000 #"
01"
12"
14"
b00000 5"
b00000 7"
b10011 8"
b010 E"
b0100011 H"
b00000000000000000000000000010100 J"
b000 K"
b00000000000000000000000000010100 M"
b0010011 N"
b0010011 O"
#130000000
0!
06
0o
04"
#140000000
1!
0%
b00000000000000000000000000011100 &
b00000000000101100000011000010011 (
b00000000000000000000000000000000 *
b00011100 .
b00000000000101100000011000010011 0
02
b00000000000000000000000000000000 4
16
b00000000000000000000000000011100 8
b00000000000101100000011000010011 9
0:
b00000000000000000000000000000000 <
b00000000000000000000000000011000 S
b00000000000000000000000000011000 T
b00000000000000000000000000011100 V
b000 X
b0010011 Z
b0100011 `
b00000 d
1h
0k
1l
1o
b00000000000000000000000000011000 p
b00000000000000000000000000011100 r
b00000000000000000000000000011100 t
14"
b00000 8"
b0100011 ;"
1?"
b000 E"
b0010011 H"
b00000000000000000000000000011000 J"
b00000000000000000000000000011000 M"
#150000000
0!
06
0o
04"
#160000000
1!
1%
b00000000000000000000000000100000 &
b00000000000100000000101000010011 (
b00000000000000000000000000000000 )
b00100000 .
b00000000000100000000101000010011 0
12
b00000000000000000000000000000000 5
16
b00000000000000000000000000100000 8
b00000000000100000000101000010011 9
1:
b00000000000000000000000000000000 =
b01100 A
b01100 B
b000000000001 D
b00000000000101100000011000010011 R
b00000000000000000000000000011100 S
b00000000000000000000000000011101 T
b00000000000000000000000000100000 V
b00000000000000000000000000000001 W
b0010011 `
b0100011 f
0l
1o
b00000000000000000000000000011101 p
b00000000000000000000000000100000 r
b00000000000000000000000000100000 t
b00000000000101100000011000010011 {
b01100 ""
b01100 #"
b000000000001 %"
14"
b01100 5"
b0010011 ;"
b0100011 <"
0?"
b00000000000000000000000000000001 I"
b00000000000000000000000000011100 J"
b00000000000000000000000000011101 M"
b000000000001 P"
b00000000000000000000000000000001 \"
#170000000
0!
06
0o
04"
#180000000
1!
b00000000000000000000000000100100 &
b00000000000000000000000000010011 (
b00100100 .
b00000000000000000000000000010011 0
16
b00000000000000000000000000100100 8
b00000000000000000000000000010011 9
b10100 A
b00000 B
b00000000000100000000101000010011 R
b00000000000000000000000000100000 S
b00000000000000000000000000100001 T
b00000000000000000000000000100100 V
b00000000000000000000000000000001 \
b00000000000000000000000000000001 ^
b01100 _
b0010011 f
1o
b00000000000000000000000000100001 p
b00000000000000000000000000100100 r
b00000000000000000000000000100100 t
b00000000000100000000101000010011 {
b10100 ""
b00000 #"
14"
b00000 5"
b0010011 <"
b00000000000000000000000000000001 D"
b00000000000000000000000000000001 G"
b00000000000000000000000000100000 J"
b00000000000000000000000000100001 M"
#190000000
0!
06
0o
04"
#200000000
1!
b00000000000000000000000000101000 &
b00000001010001100010000000100011 (
b00101000 .
b00000001010001100010000000100011 0
16
b00000000000000000000000000101000 8
b00000001010001100010000000100011 9
b00000 A
b000000000000 D
b00000000000000000000000000010011 R
b00000000000000000000000000100100 S
b00000000000000000000000000100100 T
b00000000000000000000000000101000 V
b00000000000000000000000000000000 W
b10100 _
b01100 a
b00000000000000000000000000000001 c
1o
b00000000000000000000000000100100 p
b00000000000000000000000000101000 r
b00000000000000000000000000101000 t
b00000000000000000000000000010011 {
b00000 ""
b000000000000 %"
14"
b01100 7"
b00000000000000000000000000000001 9"
b00000000000000000000000000000000 I"
b00000000000000000000000000100100 J"
b00000000000000000000000000100100 M"
b000000000000 P"
b00000000000000000000000000000000 \"
#210000000
0!
06
0o
04"
#220000000
1!
b00000000000000000000000000101100 &
b00000000000000000000000000010011 (
b00101100 .
b00000000000000000000000000010011 0
16
b00000000000000000000000000101100 8
b00000000000000000000000000010011 9
b010 >
b0100011 @
b01100 B
b10100 C
b00000000000000000000000000000001 P
b00000000000000000000000000000001 Q
b00000001010001100010000000100011 R
b00000000000000000000000000101000 S
b00000000000000000000000000101000 T
b00000000000000000000000000101100 V
b00000000000000000000000000000000 \
b00000000000000000000000000000000 ^
b00000 _
b10100 a
b01100 d
0g
1j
1o
b00000000000000000000000000101000 p
b00000000000000000000000000101100 r
b00000000000000000000000000101100 t
b0100011 u
b010 v
b00000000000000000000000000000001 w
b00000000000000000000000000000001 x
b00000001010001100010000000100011 {
b010 |
b0100011 !"
b01100 #"
b10100 $"
11"
02"
14"
b01100 5"
b10100 6"
b10100 7"
b01100 8"
b00000000000000000000000000000001 ="
b00000000000000000000000000000001 >"
b00000000000000000000000000000001 A"
b00000000000000000000000000000001 B"
b00000000000000000000000000000000 D"
b00000000000000000000000000000000 G"
b00000000000000000000000000101000 J"
b010 K"
b00000000000000000000000000101000 M"
b0100011 N"
b0100011 O"
#230000000
0!
06
0o
04"
#240000000
1!
b00000000000000000000000000110000 &
b00110000 .
16
b00000000000000000000000000110000 8
b000 >
b0010011 @
b00000 B
b00000000000000000000000000000000 P
b00000000000000000000000000010011 R
b00000000000000000000000000101100 S
b00000000000000000000000000101100 T
b00000000000000000000000000110000 V
b010 X
b0100011 Z
b00000000000000000000000000000001 [
b00000000000000000000000000000001 ]
b00000000000000000000000000000001 ^
b00000 a
b00000000000000000000000000000000 c
b10100 d
1g
0h
0j
1k
1o
b00000000000000000000000000101100 p
b00000000000000000000000000110000 r
b00000000000000000000000000110000 t
b0010011 u
b000 v
b00000000000000000000000000000000 w
b00000000000000000000000000010011 {
b000 |
b0010011 !"
b00000 #"
01"
12"
14"
b00000 5"
b00000 7"
b10100 8"
b00000000000000000000000000000000 9"
b00000000000000000000000000000000 ="
b00000000000000000000000000000000 A"
b00000000000000000000000000000001 C"
b010 E"
b00000000000000000000000000000001 G"
b0100011 H"
b00000000000000000000000000101100 J"
b000 K"
b00000000000000000000000000101100 M"
b0010011 N"
b0010011 O"
#250000000
0!
06
0o
04"
#260000000
1!
0%
b00000000000000000000000000110100 &
b00000000000000000000000000000001 '
b00000000000101100000011000010011 (
b00000000000000000000000000000001 *
b00110100 .
b00000000000101100000011000010011 0
02
b00000001 3
b00000000000000000000000000000001 4
16
b00000000000000000000000000110100 8
b00000000000101100000011000010011 9
0:
b00000000000000000000000000000001 ;
b00000000000000000000000000000001 <
b00000000000000000000000000110000 S
b00000000000000000000000000110000 T
b00000000000000000000000000110100 V
b000 X
b0010011 Z
b00000000000000000000000000000000 [
b00000000000000000000000000000000 ^
b0100011 `
b00000000000000000000000000000001 b
b00000 d
1h
0k
1l
1o
b00000000000000000000000000110000 p
b00000000000000000000000000110100 r
b00000000000000000000000000110100 t
14"
b00000 8"
b0100011 ;"
1?"
b00000000000000000000000000000000 C"
b000 E"
b00000000000000000000000000000000 G"
b0010011 H"
b00000000000000000000000000110000 J"
b00000000000000000000000000110000 M"
#270000000
0!
06
0o
04"
#280000000
1!
1%
b00000000000000000000000000111000 &
b00000001010010011000100110110011 (
b00000000000000000000000000000001 )
b00111000 .
b00000001010010011000100110110011 0
12
b00000000000000000000000000000001 5
16
b00000000000000000000000000111000 8
b00000001010010011000100110110011 9
1:
b00000000000000000000000000000001 =
b01100 A
b01100 B
b000000000001 D
b00000000000000000000000000000001 P
b00000000000101100000011000010011 R
b00000000000000000000000000110100 S
b00000000000000000000000000110101 T
b00000000000000000000000000111000 V
b00000000000000000000000000000001 W
b0010011 `
b0100011 f
0l
1o
b00000000000000000000000000110101 p
b00000000000000000000000000111000 r
b00000000000000000000000000111000 t
b00000000000000000000000000000001 w
b00000000000101100000011000010011 {
b01100 ""
b01100 #"
b000000000001 %"
14"
b01100 5"
b0010011 ;"
b0100011 <"
b00000000000000000000000000000001 ="
0?"
b00000000000000000000000000000001 A"
b00000000000000000000000000000001 I"
b00000000000000000000000000110100 J"
b00000000000000000000000000110101 M"
b000000000001 P"
b00000000000000000000000000000001 \"
#290000000
0!
06
0o
04"
#300000000
1!
b00000000000000000000000000111100 &
b00000000000000000000000000010011 (
b00111100 .
b00000000000000000000000000010011 0
16
b00000000000000000000000000111100 8
b00000000000000000000000000010011 9
b0000000 ?
b0110011 @
b10011 A
b10011 B
b00000000000000000000000000000000 P
b00000001010010011000100110110011 R
b00000000000000000000000000111000 S
b00000000000000000000000000111000 T
b00000000000000000000000000111100 V
b00000000000000000000000000000000 W
b00000000000000000000000000000001 [
b00000000000000000000000000000001 \
b00000000000000000000000000000010 ^
b01100 _
b0010011 f
1o
b00000000000000000000000000111000 p
b00000000000000000000000000111100 r
b00000000000000000000000000111100 t
b0110011 u
b00000000000000000000000000000000 w
b00000001010010011000100110110011 {
b0000000 }
b0110011 !"
b10011 ""
b10011 #"
14"
b10011 5"
b0010011 <"
b00000000000000000000000000000000 ="
b00000000000000000000000000000000 A"
b00000000000000000000000000000001 C"
b00000000000000000000000000000001 D"
b00000000000000000000000000000010 G"
b00000000000000000000000000000000 I"
b00000000000000000000000000111000 J"
b0000000 L"
b00000000000000000000000000111000 M"
b0110011 N"
b0110011 O"
b00000000000000000000000000000000 \"
#310000000
0!
06
0o
04"
#320000000
1!
b00000000000000000000000001000000 &
b00000001001101100010000000100011 (
b01000000 .
b00000001001101100010000000100011 0
16
b00000000000000000000000001000000 8
b00000001001101100010000000100011 9
b1111111 ?
b0010011 @
b00000 A
b00000 B
b000000000000 D
b00000000000000000000000000010011 R
b00000000000000000000000000111100 S
b00000000000000000000000000111100 T
b00000000000000000000000001000000 V
b0000000 Y
b0110011 Z
b00000000000000000000000000000000 [
b00000000000000000000000000000001 ^
b10011 _
b01100 a
b00000000000000000000000000000010 c
1o
b00000000000000000000000000111100 p
b00000000000000000000000001000000 r
b00000000000000000000000001000000 t
b0010011 u
b00000000000000000000000000010011 {
b1111111 }
b0010011 !"
b00000 ""
b00000 #"
b000000000000 %"
14"
b00000 5"
b01100 7"
b00000000000000000000000000000010 9"
b00000000000000000000000000000000 C"
b0000000 F"
b00000000000000000000000000000001 G"
b0110011 H"
b00000000000000000000000000111100 J"
b1111111 L"
b00000000000000000000000000111100 M"
b0010011 N"
b0010011 O"
b000000000000 P"
#330000000
0!
06
0o
04"
#340000000
1!
b00000000000000000000000001000100 &
b00000000000000000000000000010011 (
b01000100 .
b00000000000000000000000000010011 0
16
b00000000000000000000000001000100 8
b00000000000000000000000000010011 9
b010 >
b0100011 @
b01100 B
b10011 C
b00000000000000000000000000000010 P
b00000001001101100010000000100011 R
b00000000000000000000000001000000 S
b00000000000000000000000001000000 T
b00000000000000000000000001000100 V
b1111111 Y
b0010011 Z
b00000000000000000000000000000000 \
b00000000000000000000000000000000 ^
b00000 _
b0110011 `
b10011 a
b00000000000000000000000000000001 c
b01100 d
0g
1j
1o
b00000000000000000000000001000000 p
b00000000000000000000000001000100 r
b00000000000000000000000001000100 t
b0100011 u
b010 v
b00000000000000000000000000000010 w
b00000001001101100010000000100011 {
b010 |
b0100011 !"
b01100 #"
b10011 $"
11"
02"
14"
b01100 5"
b10011 6"
b10011 7"
b01100 8"
b00000000000000000000000000000001 9"
b0110011 ;"
b00000000000000000000000000000010 ="
b00000000000000000000000000000010 A"
b00000000000000000000000000000000 D"
b1111111 F"
b00000000000000000000000000000000 G"
b0010011 H"
b00000000000000000000000001000000 J"
b010 K"
b00000000000000000000000001000000 M"
b0100011 N"
b0100011 O"
#350000000
0!
06
0o
04"
#360000000
1!
b00000000000000000000000001001000 &
b01001000 .
16
b00000000000000000000000001001000 8
b000 >
b0010011 @
b00000 B
b00000000000000000000000000000000 P
b00000000000000000000000000010011 R
b00000000000000000000000001000100 S
b00000000000000000000000001000100 T
b00000000000000000000000001001000 V
b010 X
b0100011 Z
b00000000000000000000000000000010 [
b00000000000000000000000000000010 ^
b0010011 `
b00000 a
b00000000000000000000000000000000 c
b10011 d
b0110011 f
1g
0h
0j
1k
1o
b00000000000000000000000001000100 p
b00000000000000000000000001001000 r
b00000000000000000000000001001000 t
b0010011 u
b000 v
b00000000000000000000000000000000 w
b00000000000000000000000000010011 {
b000 |
b0010011 !"
b00000 #"
01"
12"
14"
b00000 5"
b00000 7"
b10011 8"
b00000000000000000000000000000000 9"
b0010011 ;"
b0110011 <"
b00000000000000000000000000000000 ="
b00000000000000000000000000000000 A"
b00000000000000000000000000000010 C"
b010 E"
b00000000000000000000000000000010 G"
b0100011 H"
b00000000000000000000000001000100 J"
b000 K"
b00000000000000000000000001000100 M"
b0010011 N"
b0010011 O"
#370000000
0!
06
0o
04"
#380000000
1!
0%
b00000000000000000000000001001100 &
b00000000000000000000000000000010 '
b00000001010101100000010001100011 (
b01001100 .
b00000001010101100000010001100011 0
02
b00000010 3
16
b00000000000000000000000001001100 8
b00000001010101100000010001100011 9
0:
b00000000000000000000000000000010 ;
b00000000000000000000000001001000 S
b00000000000000000000000001001000 T
b00000000000000000000000001001100 V
b000 X
b0010011 Z
b00000000000000000000000000000000 [
b00000000000000000000000000000000 ^
b0100011 `
b00000000000000000000000000000010 b
b00000 d
b0010011 f
1h
0k
1l
1o
b00000000000000000000000001001000 p
b00000000000000000000000001001100 r
b00000000000000000000000001001100 t
14"
b00000 8"
b0100011 ;"
b0010011 <"
1?"
b00000000000000000000000000000000 C"
b000 E"
b00000000000000000000000000000000 G"
b0010011 H"
b00000000000000000000000001001000 J"
b00000000000000000000000001001000 M"
#390000000
0!
06
0o
04"
