RiscyBusiness/riscy.vcd
$date
  Mon Jan 24 13:26:34 2022
$end
$version
  GHDL v0
$end
$timescale
  1 fs
$end
$var reg 1 ! clk $end
$var reg 1 " nrst $end
$var reg 1 # const0 $end
$var reg 1 $ const1 $end
$var reg 1 % dnwe $end
$var reg 32 & iaddr[31:0] $end
$var reg 32 ' daddr[31:0] $end
$var reg 32 ( idatao[31:0] $end
$var reg 32 ) ddatao[31:0] $end
$var reg 32 * ddatai[31:0] $end
$comment ictrl is not handled $end
$comment dctrl is not handled $end
$var reg 32 + random[31:0] $end
$scope module instmemi $end
$var reg 1 , ncs $end
$var reg 1 - nwe $end
$var reg 8 . addr[7:0] $end
$var reg 32 / datain[31:0] $end
$var reg 32 0 dataout[31:0] $end
$comment fileio is not handled $end
$upscope $end
$scope module datamemi $end
$var reg 1 1 ncs $end
$var reg 1 2 nwe $end
$var reg 8 3 addr[7:0] $end
$var reg 32 4 datain[31:0] $end
$var reg 32 5 dataout[31:0] $end
$comment fileio is not handled $end
$upscope $end
$scope module pipeproci $end
$var reg 1 6 clk $end
$var reg 1 7 nrst $end
$var reg 32 8 iaddr[31:0] $end
$var reg 32 9 idata[31:0] $end
$var reg 1 : dnwe $end
$var reg 32 ; daddr[31:0] $end
$var reg 32 < ddatai[31:0] $end
$var reg 32 = ddatao[31:0] $end
$var reg 3 > alu_sel_signal_f_d[2:0] $end
$var reg 7 ? alu_sel_signal_ff_d[6:0] $end
$var reg 7 @ sel_opcode_signal_d[6:0] $end
$var reg 5 A rd_signal_d[4:0] $end
$var reg 5 B rs1_signal_d[4:0] $end
$var reg 5 C rs2_signal_d[4:0] $end
$var reg 12 D imm_signal_itype_d[11:0] $end
$var reg 20 E imm_signal_utype_d[19:0] $end
$var reg 5 F imm_signal_stype_d[4:0] $end
$var reg 7 G imm_signal_stypetwo_d[6:0] $end
$var reg 1 H imm_signal_btype_d $end
$var reg 4 I imm_signal_btypetwo_d[3:0] $end
$var reg 6 J imm_signal_btypethree_d[5:0] $end
$var reg 1 K imm_signal_btypefour_d $end
$var reg 8 L imm_signal_jtype_d[7:0] $end
$var reg 1 M imm_signal_jtypetwo_d $end
$var reg 10 N imm_signal_jtypethree_d[9:0] $end
$var reg 1 O imm_signal_jtypefour_d $end
$var reg 32 P rs1_out_d[31:0] $end
$var reg 32 Q rs2_out_d[31:0] $end
$var reg 32 R ins_mem_d[31:0] $end
$var reg 32 S o_addr_d[31:0] $end
$var reg 32 T o_addr_d2[31:0] $end
$var reg 1 U branch_out $end
$var reg 32 V o_addr_f[31:0] $end
$var reg 32 W imm_o_d[31:0] $end
$var reg 3 X alu_sel_signal_f_x[2:0] $end
$var reg 7 Y alu_sel_signal_ff_x[6:0] $end
$var reg 7 Z sel_opcode_signal_x[6:0] $end
$var reg 32 [ rs1_out_x[31:0] $end
$var reg 32 \ rs2_out_x[31:0] $end
$var reg 32 ] rs2_out_x2[31:0] $end
$var reg 32 ^ alu_out_x[31:0] $end
$var reg 5 _ rd_signal_x[4:0] $end
$var reg 7 ` sel_opcode_signal_m[6:0] $end
$var reg 5 a rd_signal_m[4:0] $end
$var reg 32 b alu_out_m[31:0] $end
$var reg 32 c data_output_wb[31:0] $end
$var reg 5 d rd_signal_wb[4:0] $end
$var reg 1 e nwe_d_ram $end
$var reg 1 f nwe_x_ram $end
$var reg 1 g nwe_d_r2 $end
$var reg 1 h nwe_x_r $end
$var reg 1 i nwe_wb_r $end
$var reg 1 j nwe_m_r $end
$scope module pc $end
$var reg 1 k clk $end
$var reg 32 l i_addr[31:0] $end
$var reg 1 m nrst $end
$var reg 32 n o_addr[31:0] $end
$var reg 1 o mux_control_target $end
$var reg 32 p current_pc[31:0] $end
$upscope $end
$scope module brancher_brain $end
$var reg 7 q sel_opcode[6:0] $end
$var reg 32 r rs1[31:0] $end
$var reg 32 s rs2[31:0] $end
$var reg 1 t branch_out $end
$var reg 1 u val $end
$upscope $end
$scope module address_decoder $end
$var reg 32 v instruction[31:0] $end
$var reg 3 w alu_sel_f[2:0] $end
$var reg 7 x alu_sel_ff[6:0] $end
$var reg 7 y sel_opcode[6:0] $end
$var reg 5 z rd[4:0] $end
$var reg 5 { rs1[4:0] $end
$var reg 5 | rs2[4:0] $end
$var reg 12 } imm_itype[11:0] $end
$var reg 20 !" imm_utype[19:0] $end
$var reg 5 "" imm_stype[4:0] $end
$var reg 7 #" imm_stypetwo[6:0] $end
$var reg 1 $" imm_btype $end
$var reg 4 %" imm_btypetwo[3:0] $end
$var reg 6 &" imm_btypethree[5:0] $end
$var reg 1 '" imm_btypefour $end
$var reg 8 (" imm_jtype[7:0] $end
$var reg 1 )" imm_jtypetwo $end
$var reg 10 *" imm_jtypethree[9:0] $end
$var reg 1 +" imm_jtypefour $end
$var reg 1 ," i_nwe_r2 $end
$var reg 1 -" i_nwe_ram $end
$upscope $end
$scope module register_file $end
$var reg 1 ." i_clk $end
$var reg 5 /" i_rs1[4:0] $end
$var reg 5 0" i_rs2[4:0] $end
$var reg 5 1" i_rd[4:0] $end
$var reg 32 2" i_data_input[31:0] $end
$var reg 32 3" o_rs1_out[31:0] $end
$var reg 32 4" o_rs2_out[31:0] $end
$var reg 1 5" i_nwe $end
$comment registers is not handled $end
$var reg 32 6" out_a[31:0] $end
$var reg 32 7" out_b[31:0] $end
$upscope $end
$scope module alu_integer $end
$var reg 32 8" val_a[31:0] $end
$var reg 32 9" val_b[31:0] $end
$var reg 3 :" alu_sel_f[2:0] $end
$var reg 7 ;" alu_sel_ff[6:0] $end
$var reg 32 <" alu_out[31:0] $end
$var reg 7 =" sel_opcode[6:0] $end
$upscope $end
$scope module alu_addresser $end
$var reg 32 >" val_a[31:0] $end
$var reg 32 ?" val_b[31:0] $end
$var reg 3 @" alu_sel_f[2:0] $end
$var reg 7 A" alu_sel_ff[6:0] $end
$var reg 32 B" alu_out[31:0] $end
$var reg 7 C" sel_opcode[6:0] $end
$upscope $end
$scope module extender_imm $end
$var reg 7 D" sel_opcode[6:0] $end
$var reg 12 E" imm_itype[11:0] $end
$var reg 20 F" imm_utype[19:0] $end
$var reg 5 G" imm_stype[4:0] $end
$var reg 7 H" imm_stypetwo[6:0] $end
$var reg 1 I" imm_btype $end
$var reg 4 J" imm_btypetwo[3:0] $end
$var reg 6 K" imm_btypethree[5:0] $end
$var reg 1 L" imm_btypefour $end
$var reg 8 M" imm_jtype[7:0] $end
$var reg 1 N" imm_jtypetwo $end
$var reg 10 O" imm_jtypethree[9:0] $end
$var reg 1 P" imm_jtypefour $end
$var reg 32 Q" imm_o[31:0] $end
$upscope $end
$upscope $end
$enddefinitions $end
#0
0!
0"
0#
1$
U%
bUUUUUUUUUUUUUUUUUUUUUUUUUUUUUUUU &
bUUUUUUUUUUUUUUUUUUUUUUUUUUUUUUUU '
b00000000101000110000001100010011 (
bUUUUUUUUUUUUUUUUUUUUUUUUUUUUUUUU )
bUUUUUUUUUUUUUUUUUUUUUUUUUUUUUUUU *
b00000000000000000000000000000000 +
0,
1-
bUUUUUUUU .
b00000000000000000000000000000000 /
b00000000101000110000001100010011 0
01
U2
bUUUUUUUU 3
bUUUUUUUUUUUUUUUUUUUUUUUUUUUUUUUU 4
bUUUUUUUUUUUUUUUUUUUUUUUUUUUUUUUU 5
06
07
bUUUUUUUUUUUUUUUUUUUUUUUUUUUUUUUU 8
b00000000101000110000001100010011 9
U:
bUUUUUUUUUUUUUUUUUUUUUUUUUUUUUUUU ;
bUUUUUUUUUUUUUUUUUUUUUUUUUUUUUUUU <
bUUUUUUUUUUUUUUUUUUUUUUUUUUUUUUUU =
bUUU >
bUUUUUUU ?
bUUUUUUU @
bUUUUU A
bUUUUU B
bUUUUU C
bUUUUUUUUUUUU D
bUUUUUUUUUUUUUUUUUUUU E
bUUUUU F
bUUUUUUU G
UH
bUUUU I
bUUUUUU J
UK
bUUUUUUUU L
UM
bUUUUUUUUUU N
UO
b00000000000000000000000000000000 P
b00000000000000000000000000000000 Q
bUUUUUUUUUUUUUUUUUUUUUUUUUUUUUUUU R
bUUUUUUUUUUUUUUUUUUUUUUUUUUUUUUUU S
b00000000000000000000000000000000 T
UU
b00000000000000000000000000000000 V
b00000000000000000000000000000000 W
bUUU X
bUUUUUUU Y
bUUUUUUU Z
bUUUUUUUUUUUUUUUUUUUUUUUUUUUUUUUU [
bUUUUUUUUUUUUUUUUUUUUUUUUUUUUUUUU \
bUUUUUUUUUUUUUUUUUUUUUUUUUUUUUUUU ]
b00000000000000000000000000000000 ^
bUUUUU _
bUUUUUUU `
bUUUUU a
bUUUUUUUUUUUUUUUUUUUUUUUUUUUUUUUU b
bUUUUUUUUUUUUUUUUUUUUUUUUUUUUUUUU c
bUUUUU d
Ue
Uf
Ug
Uh
Ui
Uj
0k
b00000000000000000000000000000000 l
0m
b00000000000000000000000000000000 n
Uo
b00000000000000000000000000000000 p
bUUUUUUU q
b00000000000000000000000000000000 r
b00000000000000000000000000000000 s
Ut
Uu
bUUUUUUUUUUUUUUUUUUUUUUUUUUUUUUUU v
bUUU w
bUUUUUUU x
bUUUUUUU y
bUUUUU z
bUUUUU {
bUUUUU |
bUUUUUUUUUUUU }
bUUUUUUUUUUUUUUUUUUUU !"
bUUUUU ""
bUUUUUUU #"
U$"
bUUUU %"
bUUUUUU &"
U'"
bUUUUUUUU ("
U)"
bUUUUUUUUUU *"
U+"
U,"
U-"
0."
bUUUUU /"
bUUUUU 0"
bUUUUU 1"
bUUUUUUUUUUUUUUUUUUUUUUUUUUUUUUUU 2"
b00000000000000000000000000000000 3"
b00000000000000000000000000000000 4"
U5"
b00000000000000000000000000000000 6"
b00000000000000000000000000000000 7"
bUUUUUUUUUUUUUUUUUUUUUUUUUUUUUUUU 8"
bUUUUUUUUUUUUUUUUUUUUUUUUUUUUUUUU 9"
bUUU :"
bUUUUUUU ;"
b00000000000000000000000000000000 <"
bUUUUUUU ="
bUUUUUUUUUUUUUUUUUUUUUUUUUUUUUUUU >"
bUUUUUUUUUUUUUUUUUUUUUUUUUUUUUUUU ?"
bUUU @"
bUUUUUUU A"
b00000000000000000000000000000000 B"
bUUUUUUU C"
bUUUUUUU D"
bUUUUUUUUUUUU E"
bUUUUUUUUUUUUUUUUUUUU F"
bUUUUU G"
bUUUUUUU H"
UI"
bUUUU J"
bUUUUUU K"
UL"
bUUUUUUUU M"
UN"
bUUUUUUUUUU O"
UP"
b00000000000000000000000000000000 Q"
#5000000
1"
17
1m
#10000000
#20000000
1!
b00000000000000000000000000000000 &
b00000000000000000000000000000000 '
b00000000 .
b00000000 3
16
b00000000000000000000000000000000 8
b00000000000000000000000000000000 ;
b000 >
b0010011 @
b00110 A
b00110 B
b000000001010 D
b00000000101000110000001100010011 R
b00000000000000000000000000000000 S
b00000000000000000000000000000100 V
b00000000000000000000000000001010 W
b00000000000000000000000000000000 [
b00000000000000000000000000000000 \
b00000000000000000000000000000000 b
1e
0g
1k
b00000000000000000000000000000100 n
b00000000000000000000000000000100 p
b0010011 q
b00000000101000110000001100010011 v
b000 w
b0010011 y
b00110 z
b00110 {
b000000001010 }
0,"
1-"
1."
b00110 /"
b00000000000000000000000000000000 8"
b00000000000000000000000000000000 9"
b00000000000000000000000000000000 >"
b00000000000000000000000000000000 ?"
b000 @"
b0010011 C"
b0010011 D"
b000000001010 E"
b00000000000000000000000000001010 Q"
#30000000
0!
06
0k
0."
#40000000
1!
b00000000000000000000000000000100 &
b00000000000000000000000000010011 (
b00000100 .
b00000000000000000000000000010011 0
16
b00000000000000000000000000000100 8
b00000000000000000000000000010011 9
b00000000000000000000000000000100 S
b00000000000000000000000000001000 T
b00000000000000000000000000001000 V
b000 X
b0010011 Z
b00000000000000000000000000001010 \
b00000000000000000000000000000000 ]
b00000000000000000000000000001010 ^
b00110 _
b00000000000000000000000000000000 c
1f
0h
1k
b00000000000000000000000000001000 l
b00000000000000000000000000001000 n
b00000000000000000000000000001000 p
1."
b00000000000000000000000000000000 2"
b00000000000000000000000000001010 9"
b000 :"
b00000000000000000000000000001010 <"
b0010011 ="
b00000000000000000000000000000100 >"
b00000000000000000000000000000100 ?"
b00000000000000000000000000001000 B"
#50000000
0!
06
0k
0."
#60000000
1!
1%
b00000000000000000000000000001000 &
b00000000000000000000000000001010 '
b00000000000000000000000000000000 *
b00001000 .
12
b00001010 3
b00000000000000000000000000000000 4
16
b00000000000000000000000000001000 8
1:
b00000000000000000000000000001010 ;
b00000000000000000000000000000000 <
b00000 A
b00000 B
b000000000000 D
b00000000000000000000000000010011 R
b00000000000000000000000000001000 S
b00000000000000000000000000010000 T
b00000000000000000000000000001100 V
b00000000000000000000000000000000 W
b0010011 `
b00110 a
b00000000000000000000000000001010 b
0j
1k
b00000000000000000000000000010000 l
b00000000000000000000000000001100 n
b00000000000000000000000000001100 p
b00000000000000000000000000010011 v
b00000 z
b00000 {
b000000000000 }
1."
b00000 /"
b00000000000000000000000000001000 >"
b00000000000000000000000000001000 ?"
b00000000000000000000000000010000 B"
b000000000000 E"
b00000000000000000000000000000000 Q"
#70000000
0!
06
0k
0."
#80000000
1!
b00000000000000000000000000001100 &
b00001100 .
16
b00000000000000000000000000001100 8
b00000000000000000000000000001100 S
b00000000000000000000000000011000 T
b00000000000000000000000000010000 V
b00000000000000000000000000000000 \
b00000000000000000000000000000000 ^
b00000 _
b00000000000000000000000000001010 c
b00110 d
0i
1k
b00000000000000000000000000011000 l
b00000000000000000000000000010000 n
b00000000000000000000000000010000 p
1."
b00110 1"
b00000000000000000000000000001010 2"
05"
b00000000000000000000000000000000 9"
b00000000000000000000000000000000 <"
b00000000000000000000000000001100 >"
b00000000000000000000000000001100 ?"
b00000000000000000000000000011000 B"
#90000000
0!
06
0k
0."
#100000000
1!
b00000000000000000000000000010000 &
b00000000000000000000000000000000 '
b00000000010000110000001110010011 (
b00010000 .
b00000000010000110000001110010011 0
b00000000 3
16
b00000000000000000000000000010000 8
b00000000010000110000001110010011 9
b00000000000000000000000000000000 ;
b00000000000000000000000000010000 S
b00000000000000000000000000100000 T
b00000000000000000000000000010100 V
b00000 a
b00000000000000000000000000000000 b
1k
b00000000000000000000000000100000 l
b00000000000000000000000000010100 n
b00000000000000000000000000010100 p
1."
b00000000000000000000000000010000 >"
b00000000000000000000000000010000 ?"
b00000000000000000000000000100000 B"
#110000000
0!
06
0k
0."
#120000000
1!
b00000000000000000000000000010100 &
b00000000000000000000000000010011 (
b00010100 .
b00000000000000000000000000010011 0
16
b00000000000000000000000000010100 8
b00000000000000000000000000010011 9
b00111 A
b00110 B
b000000000100 D
b00000000010000110000001110010011 R
b00000000000000000000000000010100 S
b00000000000000000000000000101000 T
b00000000000000000000000000011000 V
b00000000000000000000000000000100 W
b00000000000000000000000000000000 c
b00000 d
1k
b00000000000000000000000000101000 l
b00000000000000000000000000011000 n
b00000000000000000000000000011000 p
b00000000010000110000001110010011 v
b00111 z
b00110 {
b000000000100 }
1."
b00110 /"
b00000 1"
b00000000000000000000000000000000 2"
b00000000000000000000000000010100 >"
b00000000000000000000000000010100 ?"
b00000000000000000000000000101000 B"
b000000000100 E"
b00000000000000000000000000000100 Q"
#130000000
0!
06
b00000000000000000000000000001010 P
0k
b00000000000000000000000000001010 r
0."
b00000000000000000000000000001010 3"
b00000000000000000000000000001010 6"
#140000000
1!
b00000000000000000000000000011000 &
b00011000 .
16
b00000000000000000000000000011000 8
b00000 A
b00000 B
b000000000000 D
b00000000000000000000000000010011 R
b00000000000000000000000000011000 S
b00000000000000000000000000110000 T
b00000000000000000000000000011100 V
b00000000000000000000000000000000 W
b00000000000000000000000000001010 [
b00000000000000000000000000000100 \
b00000000000000000000000000001110 ^
b00111 _
1k
b00000000000000000000000000110000 l
b00000000000000000000000000011100 n
b00000000000000000000000000011100 p
b00000000000000000000000000010011 v
b00000 z
b00000 {
b000000000000 }
1."
b00000 /"
b00000000000000000000000000001010 8"
b00000000000000000000000000000100 9"
b00000000000000000000000000001110 <"
b00000000000000000000000000011000 >"
b00000000000000000000000000011000 ?"
b00000000000000000000000000110000 B"
b000000000000 E"
b00000000000000000000000000000000 Q"
#150000000
0!
06
b00000000000000000000000000000000 P
0k
b00000000000000000000000000000000 r
0."
b00000000000000000000000000000000 3"
b00000000000000000000000000000000 6"
#160000000
1!
b00000000000000000000000000011100 &
b00000000000000000000000000001110 '
b00011100 .
b00001110 3
16
b00000000000000000000000000011100 8
b00000000000000000000000000001110 ;
b00000000000000000000000000011100 S
b00000000000000000000000000111000 T
b00000000000000000000000000100000 V
b00000000000000000000000000000000 [
b00000000000000000000000000000000 \
b00000000000000000000000000000000 ^
b00000 _
b00111 a
b00000000000000000000000000001110 b
1k
b00000000000000000000000000111000 l
b00000000000000000000000000100000 n
b00000000000000000000000000100000 p
1."
b00000000000000000000000000000000 8"
b00000000000000000000000000000000 9"
b00000000000000000000000000000000 <"
b00000000000000000000000000011100 >"
b00000000000000000000000000011100 ?"
b00000000000000000000000000111000 B"
#170000000
0!
06
0k
0."
#180000000
1!
b00000000000000000000000000100000 &
b00000000000000000000000000000000 '
b00000000001000111000111010010011 (
b00100000 .
b00000000001000111000111010010011 0
b00000000 3
16
b00000000000000000000000000100000 8
b00000000001000111000111010010011 9
b00000000000000000000000000000000 ;
b00000000000000000000000000100000 S
b00000000000000000000000001000000 T
b00000000000000000000000000100100 V
b00000 a
b00000000000000000000000000000000 b
b00000000000000000000000000001110 c
b00111 d
1k
b00000000000000000000000001000000 l
b00000000000000000000000000100100 n
b00000000000000000000000000100100 p
1."
b00111 1"
b00000000000000000000000000001110 2"
b00000000000000000000000000100000 >"
b00000000000000000000000000100000 ?"
b00000000000000000000000001000000 B"
#190000000
0!
06
0k
0."
#200000000
1!
b00000000000000000000000000100100 &
bUUUUUUUUUUUUUUUUUUUUUUUUUUUUUUUU (
b00100100 .
bUUUUUUUUUUUUUUUUUUUUUUUUUUUUUUUU 0
16
b00000000000000000000000000100100 8
bUUUUUUUUUUUUUUUUUUUUUUUUUUUUUUUU 9
b11101 A
b00111 B
b000000000010 D
b00000000001000111000111010010011 R
b00000000000000000000000000100100 S
b00000000000000000000000001001000 T
b00000000000000000000000000101000 V
b00000000000000000000000000000010 W
b00000000000000000000000000000000 c
b00000 d
1k
b00000000000000000000000001001000 l
b00000000000000000000000000101000 n
b00000000000000000000000000101000 p
b00000000001000111000111010010011 v
b11101 z
b00111 {
b000000000010 }
1."
b00111 /"
b00000 1"
b00000000000000000000000000000000 2"
b00000000000000000000000000100100 >"
b00000000000000000000000000100100 ?"
b00000000000000000000000001001000 B"
b000000000010 E"
b00000000000000000000000000000010 Q"
#210000000
0!
06
b00000000000000000000000000001110 P
0k
b00000000000000000000000000001110 r
0."
b00000000000000000000000000001110 3"
b00000000000000000000000000001110 6"
#220000000
1!
b00000000000000000000000000101000 &
b00101000 .
16
b00000000000000000000000000101000 8
bUUUUUUUUUUUUUUUUUUUUUUUUUUUUUUUU R
b00000000000000000000000000101000 S
b00000000000000000000000001010000 T
b00000000000000000000000000101100 V
b00000000000000000000000000001110 [
b00000000000000000000000000000010 \
b00000000000000000000000000010000 ^
b11101 _
1k
b00000000000000000000000001010000 l
b00000000000000000000000000101100 n
b00000000000000000000000000101100 p
bUUUUUUUUUUUUUUUUUUUUUUUUUUUUUUUU v
1."
b00000000000000000000000000001110 8"
b00000000000000000000000000000010 9"
b00000000000000000000000000010000 <"
b00000000000000000000000000101000 >"
b00000000000000000000000000101000 ?"
b00000000000000000000000001010000 B"
#230000000
0!
06
0k
0."
#240000000
1!
b00000000000000000000000000101100 &
b00000000000000000000000000010000 '
b00101100 .
b00010000 3
16
b00000000000000000000000000101100 8
b00000000000000000000000000010000 ;
b00000000000000000000000000101100 S
b00000000000000000000000001011000 T
b00000000000000000000000000110000 V
b11101 a
b00000000000000000000000000010000 b
1k
b00000000000000000000000001011000 l
b00000000000000000000000000110000 n
b00000000000000000000000000110000 p
1."
b00000000000000000000000000101100 >"
b00000000000000000000000000101100 ?"
b00000000000000000000000001011000 B"
#250000000
0!
06
0k
0."
#260000000
1!
b00000000000000000000000000110000 &
b00110000 .
16
b00000000000000000000000000110000 8
b00000000000000000000000000110000 S
b00000000000000000000000001100000 T
b00000000000000000000000000110100 V
b00000000000000000000000000010000 c
b11101 d
1k
b00000000000000000000000001100000 l
b00000000000000000000000000110100 n
b00000000000000000000000000110100 p
1."
b11101 1"
b00000000000000000000000000010000 2"
b00000000000000000000000000110000 >"
b00000000000000000000000000110000 ?"
b00000000000000000000000001100000 B"
#270000000
0!
06
0k
0."
#280000000
1!
b00000000000000000000000000110100 &
b00110100 .
16
b00000000000000000000000000110100 8
b00000000000000000000000000110100 S
b00000000000000000000000001101000 T
b00000000000000000000000000111000 V
1k
b00000000000000000000000001101000 l
b00000000000000000000000000111000 n
b00000000000000000000000000111000 p
1."
b00000000000000000000000000110100 >"
b00000000000000000000000000110100 ?"
b00000000000000000000000001101000 B"
#290000000
0!
06
0k
0."
#300000000
1!
b00000000000000000000000000111000 &
b00111000 .
16
b00000000000000000000000000111000 8
b00000000000000000000000000111000 S
b00000000000000000000000001110000 T
b00000000000000000000000000111100 V
1k
b00000000000000000000000001110000 l
b00000000000000000000000000111100 n
b00000000000000000000000000111100 p
1."
b00000000000000000000000000111000 >"
b00000000000000000000000000111000 ?"
b00000000000000000000000001110000 B"
#310000000
0!
06
0k
0."
#320000000
1!
b00000000000000000000000000111100 &
b00111100 .
16
b00000000000000000000000000111100 8
b00000000000000000000000000111100 S
b00000000000000000000000001111000 T
b00000000000000000000000001000000 V
1k
b00000000000000000000000001111000 l
b00000000000000000000000001000000 n
b00000000000000000000000001000000 p
1."
b00000000000000000000000000111100 >"
b00000000000000000000000000111100 ?"
b00000000000000000000000001111000 B"
#330000000
0!
06
0k
0."
#340000000
1!
b00000000000000000000000001000000 &
b01000000 .
16
b00000000000000000000000001000000 8
b00000000000000000000000001000000 S
b00000000000000000000000010000000 T
b00000000000000000000000001000100 V
1k
b00000000000000000000000010000000 l
b00000000000000000000000001000100 n
b00000000000000000000000001000100 p
1."
b00000000000000000000000001000000 >"
b00000000000000000000000001000000 ?"
b00000000000000000000000010000000 B"
#350000000
0!
06
0k
0."
#360000000
1!
b00000000000000000000000001000100 &
b01000100 .
16
b00000000000000000000000001000100 8
b00000000000000000000000001000100 S
b00000000000000000000000010001000 T
b00000000000000000000000001001000 V
1k
b00000000000000000000000010001000 l
b00000000000000000000000001001000 n
b00000000000000000000000001001000 p
1."
b00000000000000000000000001000100 >"
b00000000000000000000000001000100 ?"
b00000000000000000000000010001000 B"
#370000000
0!
06
0k
0."
#380000000
1!
b00000000000000000000000001001000 &
b01001000 .
16
b00000000000000000000000001001000 8
b00000000000000000000000001001000 S
b00000000000000000000000010010000 T
b00000000000000000000000001001100 V
1k
b00000000000000000000000010010000 l
b00000000000000000000000001001100 n
b00000000000000000000000001001100 p
1."
b00000000000000000000000001001000 >"
b00000000000000000000000001001000 ?"
b00000000000000000000000010010000 B"
#390000000
0!
06
0k
0."
#400000000
1!
b00000000000000000000000001001100 &
b01001100 .
16
b00000000000000000000000001001100 8
b00000000000000000000000001001100 S
b00000000000000000000000010011000 T
b00000000000000000000000001010000 V
1k
b00000000000000000000000010011000 l
b00000000000000000000000001010000 n
b00000000000000000000000001010000 p
1."
b00000000000000000000000001001100 >"
b00000000000000000000000001001100 ?"
b00000000000000000000000010011000 B"
