RiscyBusiness/riscy.vcd
$date
  Wed Jan 26 16:16:48 2022
$end
$version
  GHDL v0
$end
$timescale
  1 fs
$end
$var reg 1 ! clk $end
$var reg 1 " nrst $end
$var reg 1 # const0 $end
$var reg 1 $ const1 $end
$var reg 1 % dnwe $end
$var reg 32 & iaddr[31:0] $end
$var reg 32 ' daddr[31:0] $end
$var reg 32 ( idatao[31:0] $end
$var reg 32 ) ddatao[31:0] $end
$var reg 32 * ddatai[31:0] $end
$comment ictrl is not handled $end
$comment dctrl is not handled $end
$var reg 32 + random[31:0] $end
$scope module instmemi $end
$var reg 1 , ncs $end
$var reg 1 - nwe $end
$var reg 8 . addr[7:0] $end
$var reg 32 / datain[31:0] $end
$var reg 32 0 dataout[31:0] $end
$comment fileio is not handled $end
$upscope $end
$scope module datamemi $end
$var reg 1 1 ncs $end
$var reg 1 2 nwe $end
$var reg 8 3 addr[7:0] $end
$var reg 32 4 datain[31:0] $end
$var reg 32 5 dataout[31:0] $end
$comment fileio is not handled $end
$upscope $end
$scope module pipeproci $end
$var reg 1 6 clk $end
$var reg 1 7 nrst $end
$var reg 32 8 iaddr[31:0] $end
$var reg 32 9 idata[31:0] $end
$var reg 1 : dnwe $end
$var reg 32 ; daddr[31:0] $end
$var reg 32 < ddatai[31:0] $end
$var reg 32 = ddatao[31:0] $end
$var reg 3 > alu_sel_signal_f_d[2:0] $end
$var reg 7 ? alu_sel_signal_ff_d[6:0] $end
$var reg 7 @ sel_opcode_signal_d[6:0] $end
$var reg 5 A rd_signal_d[4:0] $end
$var reg 5 B rs1_signal_d[4:0] $end
$var reg 5 C rs2_signal_d[4:0] $end
$var reg 12 D imm_signal_itype_d[11:0] $end
$var reg 20 E imm_signal_utype_d[19:0] $end
$var reg 5 F imm_signal_stype_d[4:0] $end
$var reg 7 G imm_signal_stypetwo_d[6:0] $end
$var reg 1 H imm_signal_btype_d $end
$var reg 4 I imm_signal_btypetwo_d[3:0] $end
$var reg 6 J imm_signal_btypethree_d[5:0] $end
$var reg 1 K imm_signal_btypefour_d $end
$var reg 8 L imm_signal_jtype_d[7:0] $end
$var reg 1 M imm_signal_jtypetwo_d $end
$var reg 10 N imm_signal_jtypethree_d[9:0] $end
$var reg 1 O imm_signal_jtypefour_d $end
$var reg 32 P rs1_out_d[31:0] $end
$var reg 32 Q rs2_out_d[31:0] $end
$var reg 32 R ins_mem_d[31:0] $end
$var reg 32 S o_addr_d[31:0] $end
$var reg 32 T o_addr_d2[31:0] $end
$var reg 1 U branch_out $end
$var reg 32 V o_addr_f[31:0] $end
$var reg 32 W imm_o_d[31:0] $end
$var reg 3 X alu_sel_signal_f_x[2:0] $end
$var reg 7 Y alu_sel_signal_ff_x[6:0] $end
$var reg 7 Z sel_opcode_signal_x[6:0] $end
$var reg 32 [ rs1_out_x[31:0] $end
$var reg 32 \ rs2_out_x[31:0] $end
$var reg 32 ] rs2_out_x2[31:0] $end
$var reg 32 ^ alu_out_x[31:0] $end
$var reg 5 _ rd_signal_x[4:0] $end
$var reg 7 ` sel_opcode_signal_m[6:0] $end
$var reg 5 a rd_signal_m[4:0] $end
$var reg 32 b alu_out_m[31:0] $end
$var reg 32 c data_output_wb[31:0] $end
$var reg 5 d rd_signal_wb[4:0] $end
$var reg 32 e data_output_wb_external[31:0] $end
$var reg 7 f sel_opcode_signal_wb[6:0] $end
$var reg 1 g nwe_d_ram $end
$var reg 1 h nwe_x_ram $end
$var reg 1 i nwe_m_ram $end
$var reg 1 j nwe_d_r2 $end
$var reg 1 k nwe_x_r $end
$var reg 1 l nwe_wb_r $end
$var reg 1 m nwe_wb_r2 $end
$var reg 1 n nwe_m_r $end
$scope module pc $end
$var reg 1 o clk $end
$var reg 32 p i_addr[31:0] $end
$var reg 1 q nrst $end
$var reg 32 r o_addr[31:0] $end
$var reg 1 s mux_control_target $end
$var reg 32 t current_pc[31:0] $end
$upscope $end
$scope module brancher_brain $end
$var reg 7 u sel_opcode[6:0] $end
$var reg 32 v rs1[31:0] $end
$var reg 32 w rs2[31:0] $end
$var reg 1 x branch_out $end
$var reg 1 y val $end
$upscope $end
$scope module address_decoder $end
$var reg 32 z instruction[31:0] $end
$var reg 3 { alu_sel_f[2:0] $end
$var reg 7 | alu_sel_ff[6:0] $end
$var reg 7 } sel_opcode[6:0] $end
$var reg 5 !" rd[4:0] $end
$var reg 5 "" rs1[4:0] $end
$var reg 5 #" rs2[4:0] $end
$var reg 12 $" imm_itype[11:0] $end
$var reg 20 %" imm_utype[19:0] $end
$var reg 5 &" imm_stype[4:0] $end
$var reg 7 '" imm_stypetwo[6:0] $end
$var reg 1 (" imm_btype $end
$var reg 4 )" imm_btypetwo[3:0] $end
$var reg 6 *" imm_btypethree[5:0] $end
$var reg 1 +" imm_btypefour $end
$var reg 8 ," imm_jtype[7:0] $end
$var reg 1 -" imm_jtypetwo $end
$var reg 10 ." imm_jtypethree[9:0] $end
$var reg 1 /" imm_jtypefour $end
$var reg 1 0" i_nwe_r2 $end
$var reg 1 1" i_nwe_ram $end
$upscope $end
$scope module register_file $end
$var reg 1 2" i_clk $end
$var reg 5 3" i_rs1[4:0] $end
$var reg 5 4" i_rs2[4:0] $end
$var reg 5 5" i_rd[4:0] $end
$var reg 5 6" i_rd2[4:0] $end
$var reg 32 7" i_data_input[31:0] $end
$var reg 32 8" i_data_input2[31:0] $end
$var reg 7 9" sel_opcode[6:0] $end
$var reg 7 :" sel_opcode_lw[6:0] $end
$var reg 32 ;" o_rs1_out[31:0] $end
$var reg 32 <" o_rs2_out[31:0] $end
$var reg 1 =" i_nwe $end
$var reg 1 >" i_nwe2 $end
$comment registers is not handled $end
$var reg 32 ?" out_a[31:0] $end
$var reg 32 @" out_b[31:0] $end
$upscope $end
$scope module alu_integer $end
$var reg 32 A" val_a[31:0] $end
$var reg 32 B" val_b[31:0] $end
$var reg 3 C" alu_sel_f[2:0] $end
$var reg 7 D" alu_sel_ff[6:0] $end
$var reg 32 E" alu_out[31:0] $end
$var reg 7 F" sel_opcode[6:0] $end
$upscope $end
$scope module alu_addresser $end
$var reg 32 G" val_a[31:0] $end
$var reg 32 H" val_b[31:0] $end
$var reg 3 I" alu_sel_f[2:0] $end
$var reg 7 J" alu_sel_ff[6:0] $end
$var reg 32 K" alu_out[31:0] $end
$var reg 7 L" sel_opcode[6:0] $end
$upscope $end
$scope module extender_imm $end
$var reg 7 M" sel_opcode[6:0] $end
$var reg 12 N" imm_itype[11:0] $end
$var reg 20 O" imm_utype[19:0] $end
$var reg 5 P" imm_stype[4:0] $end
$var reg 7 Q" imm_stypetwo[6:0] $end
$var reg 1 R" imm_btype $end
$var reg 4 S" imm_btypetwo[3:0] $end
$var reg 6 T" imm_btypethree[5:0] $end
$var reg 1 U" imm_btypefour $end
$var reg 8 V" imm_jtype[7:0] $end
$var reg 1 W" imm_jtypetwo $end
$var reg 10 X" imm_jtypethree[9:0] $end
$var reg 1 Y" imm_jtypefour $end
$var reg 32 Z" imm_o[31:0] $end
$upscope $end
$upscope $end
$enddefinitions $end
#0
0!
0"
0#
1$
U%
b00000000000000000000000000000000 &
bUUUUUUUUUUUUUUUUUUUUUUUUUUUUUUUU '
b00000001010000000000010010010011 (
bUUUUUUUUUUUUUUUUUUUUUUUUUUUUUUUU )
bUUUUUUUUUUUUUUUUUUUUUUUUUUUUUUUU *
b00000000000000000000000000000000 +
0,
1-
b00000000 .
b00000000000000000000000000000000 /
b00000001010000000000010010010011 0
01
U2
bUUUUUUUU 3
bUUUUUUUUUUUUUUUUUUUUUUUUUUUUUUUU 4
bUUUUUUUUUUUUUUUUUUUUUUUUUUUUUUUU 5
06
07
b00000000000000000000000000000000 8
b00000001010000000000010010010011 9
U:
bUUUUUUUUUUUUUUUUUUUUUUUUUUUUUUUU ;
bUUUUUUUUUUUUUUUUUUUUUUUUUUUUUUUU <
bUUUUUUUUUUUUUUUUUUUUUUUUUUUUUUUU =
b000 >
bUUUUUUU ?
b0000000 @
b00000 A
b00000 B
bUUUUU C
b000000000000 D
bUUUUUUUUUUUUUUUUUUUU E
bUUUUU F
bUUUUUUU G
UH
bUUUU I
bUUUUUU J
UK
bUUUUUUUU L
UM
bUUUUUUUUUU N
UO
b00000000000000000000000000000000 P
b00000000000000000000000000000000 Q
bUUUUUUUUUUUUUUUUUUUUUUUUUUUUUUUU R
bUUUUUUUUUUUUUUUUUUUUUUUUUUUUUUUU S
b00000000000000000000000000000000 T
0U
b00000000000000000000000000000000 V
b00000000000000000000000000000000 W
bUUU X
bUUUUUUU Y
bUUUUUUU Z
bUUUUUUUUUUUUUUUUUUUUUUUUUUUUUUUU [
bUUUUUUUUUUUUUUUUUUUUUUUUUUUUUUUU \
bUUUUUUUUUUUUUUUUUUUUUUUUUUUUUUUU ]
b00000000000000000000000000000000 ^
bUUUUU _
bUUUUUUU `
bUUUUU a
bUUUUUUUUUUUUUUUUUUUUUUUUUUUUUUUU b
bUUUUUUUUUUUUUUUUUUUUUUUUUUUUUUUU c
bUUUUU d
bUUUUUUUUUUUUUUUUUUUUUUUUUUUUUUUU e
bUUUUUUU f
1g
Uh
Ui
1j
Uk
Ul
Um
Un
0o
b00000000000000000000000000000000 p
0q
b00000000000000000000000000000000 r
0s
b00000000000000000000000000000000 t
b0000000 u
b00000000000000000000000000000000 v
b00000000000000000000000000000000 w
0x
0y
bUUUUUUUUUUUUUUUUUUUUUUUUUUUUUUUU z
b000 {
bUUUUUUU |
b0000000 }
b00000 !"
b00000 ""
bUUUUU #"
b000000000000 $"
bUUUUUUUUUUUUUUUUUUUU %"
bUUUUU &"
bUUUUUUU '"
U("
bUUUU )"
bUUUUUU *"
U+"
bUUUUUUUU ,"
U-"
bUUUUUUUUUU ."
U/"
10"
11"
02"
b00000 3"
bUUUUU 4"
bUUUUU 5"
bUUUUU 6"
bUUUUUUUUUUUUUUUUUUUUUUUUUUUUUUUU 7"
bUUUUUUUUUUUUUUUUUUUUUUUUUUUUUUUU 8"
bUUUUUUU 9"
bUUUUUUU :"
b00000000000000000000000000000000 ;"
b00000000000000000000000000000000 <"
U="
U>"
b00000000000000000000000000000000 ?"
b00000000000000000000000000000000 @"
bUUUUUUUUUUUUUUUUUUUUUUUUUUUUUUUU A"
bUUUUUUUUUUUUUUUUUUUUUUUUUUUUUUUU B"
bUUU C"
bUUUUUUU D"
b00000000000000000000000000000000 E"
bUUUUUUU F"
b00000000000000000000000000000000 G"
bUUUUUUUUUUUUUUUUUUUUUUUUUUUUUUUU H"
b000 I"
bUUUUUUU J"
b00000000000000000000000000000000 K"
b0000000 L"
b0000000 M"
b000000000000 N"
bUUUUUUUUUUUUUUUUUUUU O"
bUUUUU P"
bUUUUUUU Q"
UR"
bUUUU S"
bUUUUUU T"
UU"
bUUUUUUUU V"
UW"
bUUUUUUUUUU X"
UY"
b00000000000000000000000000000000 Z"
#5000000
1"
17
1q
#10000000
#20000000
1!
b00000000000000000000000000000100 &
b00000000000000000000000000000000 '
b00000000000000000000010100010011 (
b00000100 .
b00000000000000000000010100010011 0
b00000000 3
16
b00000000000000000000000000000100 8
b00000000000000000000010100010011 9
b00000000000000000000000000000000 ;
b0010011 @
b01001 A
b000000010100 D
b00000001010000000000010010010011 R
b00000000000000000000000000000000 S
b00000000000000000000000000010100 T
b00000000000000000000000000000100 V
b00000000000000000000000000010100 W
b000 X
b0000000 Z
b00000000000000000000000000000000 [
b00000000000000000000000000000000 \
b00000 _
b00000000000000000000000000000000 b
b00000000000000000000000000000000 e
1h
0j
1k
1o
b00000000000000000000000000010100 p
b00000000000000000000000000000100 r
b00000000000000000000000000000100 t
b0010011 u
b00000001010000000000010010010011 z
b0010011 }
b01001 !"
b000000010100 $"
00"
12"
b00000000000000000000000000000000 8"
b00000000000000000000000000000000 A"
b00000000000000000000000000000000 B"
b000 C"
b0000000 F"
b00000000000000000000000000010100 G"
b00000000000000000000000000000000 H"
b00000000000000000000000000010100 K"
b0010011 L"
b0010011 M"
b000000010100 N"
b00000000000000000000000000010100 Z"
#30000000
0!
06
0o
02"
#40000000
1!
1%
b00000000000000000000000000001000 &
b00000000000000000000000000010011 (
b00001000 .
b00000000000000000000000000010011 0
12
16
b00000000000000000000000000001000 8
b00000000000000000000000000010011 9
1:
b01010 A
b000000000000 D
b00000000000000000000010100010011 R
b00000000000000000000000000000100 S
b00000000000000000000000000000100 T
b00000000000000000000000000001000 V
b00000000000000000000000000000000 W
b0010011 Z
b00000000000000000000000000010100 \
b00000000000000000000000000000000 ]
b00000000000000000000000000010100 ^
b01001 _
b0000000 `
b00000 a
0k
1n
1o
b00000000000000000000000000000100 p
b00000000000000000000000000001000 r
b00000000000000000000000000001000 t
b00000000000000000000010100010011 z
b01010 !"
b000000000000 $"
12"
b00000 5"
b0000000 9"
b00000000000000000000000000010100 B"
b00000000000000000000000000010100 E"
b0010011 F"
b00000000000000000000000000000000 G"
b00000000000000000000000000000100 H"
b00000000000000000000000000000100 K"
b000000000000 N"
b00000000000000000000000000000000 Z"
#50000000
0!
06
0o
02"
#60000000
1!
b00000000000000000000000000001100 &
b00000000101001001000111001100011 (
b00001100 .
b00000000101001001000111001100011 0
16
b00000000000000000000000000001100 8
b00000000101001001000111001100011 9
b00000 A
b00000000000000000000000000010011 R
b00000000000000000000000000001000 S
b00000000000000000000000000001000 T
b00000000000000000000000000001100 V
b00000000000000000000000000000000 \
b00000000000000000000000000000000 ^
b01010 _
b0010011 `
b01001 a
b00000000000000000000000000010100 c
b00000 d
b0000000 f
0l
1m
1o
b00000000000000000000000000001000 p
b00000000000000000000000000001100 r
b00000000000000000000000000001100 t
b00000000000000000000000000010011 z
b00000 !"
12"
b01001 5"
b00000 6"
b00000000000000000000000000010100 7"
b0010011 9"
b0000000 :"
0="
1>"
b00000000000000000000000000000000 B"
b00000000000000000000000000000000 E"
b00000000000000000000000000001000 H"
b00000000000000000000000000001000 K"
#70000000
0!
06
0o
02"
#80000000
1!
b00000000000000000000000000010000 &
b11111111111101001000010010010011 (
b00010000 .
b11111111111101001000010010010011 0
16
b00000000000000000000000000010000 8
b11111111111101001000010010010011 9
b1100011 @
b01001 B
b01010 C
0H
b1110 I
b000000 J
0K
b00000000000000000000000000010100 P
b00000000101001001000111001100011 R
b00000000000000000000000000001100 S
b00000000000000000000000000101000 T
1U
b00000000000000000000000000010000 V
b00000000000000000000000000011100 W
b00000 _
b01010 a
b00000000000000000000000000000000 c
b01001 d
b0010011 f
1j
1o
b00000000000000000000000000101000 p
b00000000000000000000000000010000 r
1s
b00000000000000000000000000010000 t
b1100011 u
b00000000000000000000000000010100 v
1x
1y
b00000000101001001000111001100011 z
b1100011 }
b01001 ""
b01010 #"
0("
b1110 )"
b000000 *"
0+"
10"
12"
b01001 3"
b01010 4"
b01010 5"
b01001 6"
b00000000000000000000000000000000 7"
b0010011 :"
b00000000000000000000000000010100 ;"
b00000000000000000000000000010100 ?"
b00000000000000000000000000011100 G"
b00000000000000000000000000001100 H"
b00000000000000000000000000101000 K"
b1100011 L"
b1100011 M"
0R"
b1110 S"
b000000 T"
0U"
b00000000000000000000000000011100 Z"
#90000000
0!
06
0o
02"
#100000000
1!
b00000000000000000000000000101000 &
bUUUUUUUUUUUUUUUUUUUUUUUUUUUUUUUU (
b00101000 .
bUUUUUUUUUUUUUUUUUUUUUUUUUUUUUUUU 0
16
b00000000000000000000000000101000 8
bUUUUUUUUUUUUUUUUUUUUUUUUUUUUUUUU 9
b0010011 @
b01001 A
b111111111111 D
b11111111111101001000010010010011 R
b00000000000000000000000000010000 S
b00000000000000000000000000001111 T
b00000000000000000000000000101000 V
b11111111111111111111111111111111 W
b1100011 Z
b00000000000000000000000000010100 [
b00000000000000000000000000010100 ^
b00000 a
b01010 d
0j
1k
1o
b00000000000000000000000000001111 p
b00000000000000000000000000101000 r
b00000000000000000000000000101000 t
b0010011 u
b11111111111101001000010010010011 z
b0010011 }
b01001 !"
b111111111111 $"
00"
12"
b00000 5"
b01010 6"
b00000000000000000000000000010100 A"
b00000000000000000000000000010100 E"
b1100011 F"
b11111111111111111111111111111111 G"
b00000000000000000000000000010000 H"
b00000000000000000000000000001111 K"
b0010011 L"
b0010011 M"
b111111111111 N"
b11111111111111111111111111111111 Z"
#110000000
0!
06
0o
02"
#120000000
1!
b00000000000000000000000000001111 &
b00000000000000000000000000010100 '
b00000000000000000000000000000000 *
b00001111 .
b00010100 3
b00000000000000000000000000000000 4
16
b00000000000000000000000000001111 8
b00000000000000000000000000010100 ;
b00000000000000000000000000000000 <
b0000000 @
b00000 A
b00000 B
b000000000000 D
b00000000000000000000000000000000 P
bUUUUUUUUUUUUUUUUUUUUUUUUUUUUUUUU R
b00000000000000000000000000101000 S
b00000000000000000000000000000000 T
0U
b00000000000000000000000000001111 V
b00000000000000000000000000000000 W
b0010011 Z
b11111111111111111111111111111111 \
b00000000000000000000000000010011 ^
b01001 _
b1100011 `
b00000000000000000000000000010100 b
b00000 d
1j
0k
1o
b00000000000000000000000000000000 p
b00000000000000000000000000001111 r
0s
b00000000000000000000000000001111 t
b0000000 u
b00000000000000000000000000000000 v
0x
0y
bUUUUUUUUUUUUUUUUUUUUUUUUUUUUUUUU z
b0000000 }
b00000 !"
b00000 ""
b000000000000 $"
10"
12"
b00000 3"
b00000 6"
b1100011 9"
b00000000000000000000000000000000 ;"
b00000000000000000000000000000000 ?"
b11111111111111111111111111111111 B"
b00000000000000000000000000010011 E"
b0010011 F"
b00000000000000000000000000000000 G"
b00000000000000000000000000101000 H"
b00000000000000000000000000000000 K"
b0000000 L"
b0000000 M"
b000000000000 N"
b00000000000000000000000000000000 Z"
#130000000
0!
06
0o
02"
#140000000
1!
b00000000000000000000000000010011 &
b00010011 .
16
b00000000000000000000000000010011 8
b00000000000000000000000000001111 S
b00000000000000000000000000010011 V
b0000000 Z
b00000000000000000000000000000000 [
b00000000000000000000000000000000 \
b00000000000000000000000000000000 ^
b00000 _
b0010011 `
b01001 a
b00000000000000000000000000010011 c
b1100011 f
1k
1o
b00000000000000000000000000010011 r
b00000000000000000000000000010011 t
12"
b01001 5"
b00000000000000000000000000010011 7"
b0010011 9"
b1100011 :"
b00000000000000000000000000000000 A"
b00000000000000000000000000000000 B"
b00000000000000000000000000000000 E"
b0000000 F"
b00000000000000000000000000001111 H"
#150000000
0!
06
0o
02"
#160000000
1!
b00000000000000000000000000010111 &
b00000000000000000000000000000000 '
b00010111 .
b00000000 3
16
b00000000000000000000000000010111 8
b00000000000000000000000000000000 ;
b00000000000000000000000000010011 S
b00000000000000000000000000010111 V
b0000000 `
b00000 a
b00000000000000000000000000000000 b
b01001 d
b0010011 f
1o
b00000000000000000000000000010111 r
b00000000000000000000000000010111 t
12"
b00000 5"
b01001 6"
b0000000 9"
b0010011 :"
b00000000000000000000000000010011 H"
#170000000
0!
06
0o
02"
#180000000
1!
b00000000000000000000000000011011 &
b00011011 .
16
b00000000000000000000000000011011 8
b00000000000000000000000000010111 S
b00000000000000000000000000011011 V
b00000 d
b0000000 f
1o
b00000000000000000000000000011011 r
b00000000000000000000000000011011 t
12"
b00000 6"
b0000000 :"
b00000000000000000000000000010111 H"
#190000000
0!
06
0o
02"
#200000000
1!
b00000000000000000000000000011111 &
b00011111 .
16
b00000000000000000000000000011111 8
b00000000000000000000000000011011 S
b00000000000000000000000000011111 V
1o
b00000000000000000000000000011111 r
b00000000000000000000000000011111 t
12"
b00000000000000000000000000011011 H"
#210000000
0!
06
0o
02"
#220000000
1!
b00000000000000000000000000100011 &
b00100011 .
16
b00000000000000000000000000100011 8
b00000000000000000000000000011111 S
b00000000000000000000000000100011 V
1o
b00000000000000000000000000100011 r
b00000000000000000000000000100011 t
12"
b00000000000000000000000000011111 H"
#230000000
0!
06
0o
02"
#240000000
1!
b00000000000000000000000000100111 &
b00100111 .
16
b00000000000000000000000000100111 8
b00000000000000000000000000100011 S
b00000000000000000000000000100111 V
1o
b00000000000000000000000000100111 r
b00000000000000000000000000100111 t
12"
b00000000000000000000000000100011 H"
#250000000
0!
06
0o
02"
#260000000
1!
b00000000000000000000000000101011 &
b00101011 .
16
b00000000000000000000000000101011 8
b00000000000000000000000000100111 S
b00000000000000000000000000101011 V
1o
b00000000000000000000000000101011 r
b00000000000000000000000000101011 t
12"
b00000000000000000000000000100111 H"
#270000000
0!
06
0o
02"
#280000000
1!
b00000000000000000000000000101111 &
b00101111 .
16
b00000000000000000000000000101111 8
b00000000000000000000000000101011 S
b00000000000000000000000000101111 V
1o
b00000000000000000000000000101111 r
b00000000000000000000000000101111 t
12"
b00000000000000000000000000101011 H"
#290000000
0!
06
0o
02"
#300000000
1!
b00000000000000000000000000110011 &
b00110011 .
16
b00000000000000000000000000110011 8
b00000000000000000000000000101111 S
b00000000000000000000000000110011 V
1o
b00000000000000000000000000110011 r
b00000000000000000000000000110011 t
12"
b00000000000000000000000000101111 H"
#310000000
0!
06
0o
02"
#320000000
1!
b00000000000000000000000000110111 &
b00110111 .
16
b00000000000000000000000000110111 8
b00000000000000000000000000110011 S
b00000000000000000000000000110111 V
1o
b00000000000000000000000000110111 r
b00000000000000000000000000110111 t
12"
b00000000000000000000000000110011 H"
#330000000
0!
06
0o
02"
#340000000
1!
b00000000000000000000000000111011 &
b00111011 .
16
b00000000000000000000000000111011 8
b00000000000000000000000000110111 S
b00000000000000000000000000111011 V
1o
b00000000000000000000000000111011 r
b00000000000000000000000000111011 t
12"
b00000000000000000000000000110111 H"
#350000000
0!
06
0o
02"
#360000000
1!
b00000000000000000000000000111111 &
b00111111 .
16
b00000000000000000000000000111111 8
b00000000000000000000000000111011 S
b00000000000000000000000000111111 V
1o
b00000000000000000000000000111111 r
b00000000000000000000000000111111 t
12"
b00000000000000000000000000111011 H"
#370000000
0!
06
0o
02"
#380000000
1!
b00000000000000000000000001000011 &
b01000011 .
16
b00000000000000000000000001000011 8
b00000000000000000000000000111111 S
b00000000000000000000000001000011 V
1o
b00000000000000000000000001000011 r
b00000000000000000000000001000011 t
12"
b00000000000000000000000000111111 H"
#390000000
0!
06
0o
02"
#400000000
1!
b00000000000000000000000001000111 &
b01000111 .
16
b00000000000000000000000001000111 8
b00000000000000000000000001000011 S
b00000000000000000000000001000111 V
1o
b00000000000000000000000001000111 r
b00000000000000000000000001000111 t
12"
b00000000000000000000000001000011 H"
#410000000
0!
06
0o
02"
#420000000
1!
b00000000000000000000000001001011 &
b01001011 .
16
b00000000000000000000000001001011 8
b00000000000000000000000001000111 S
b00000000000000000000000001001011 V
1o
b00000000000000000000000001001011 r
b00000000000000000000000001001011 t
12"
b00000000000000000000000001000111 H"
#430000000
0!
06
0o
02"
#440000000
1!
b00000000000000000000000001001111 &
b01001111 .
16
b00000000000000000000000001001111 8
b00000000000000000000000001001011 S
b00000000000000000000000001001111 V
1o
b00000000000000000000000001001111 r
b00000000000000000000000001001111 t
12"
b00000000000000000000000001001011 H"
#450000000
0!
06
0o
02"
#460000000
1!
b00000000000000000000000001010011 &
b01010011 .
16
b00000000000000000000000001010011 8
b00000000000000000000000001001111 S
b00000000000000000000000001010011 V
1o
b00000000000000000000000001010011 r
b00000000000000000000000001010011 t
12"
b00000000000000000000000001001111 H"
#470000000
0!
06
0o
02"
#480000000
1!
b00000000000000000000000001010111 &
b01010111 .
16
b00000000000000000000000001010111 8
b00000000000000000000000001010011 S
b00000000000000000000000001010111 V
1o
b00000000000000000000000001010111 r
b00000000000000000000000001010111 t
12"
b00000000000000000000000001010011 H"
#490000000
0!
06
0o
02"
#500000000
1!
b00000000000000000000000001011011 &
b01011011 .
16
b00000000000000000000000001011011 8
b00000000000000000000000001010111 S
b00000000000000000000000001011011 V
1o
b00000000000000000000000001011011 r
b00000000000000000000000001011011 t
12"
b00000000000000000000000001010111 H"
#510000000
0!
06
0o
02"
#520000000
1!
b00000000000000000000000001011111 &
b01011111 .
16
b00000000000000000000000001011111 8
b00000000000000000000000001011011 S
b00000000000000000000000001011111 V
1o
b00000000000000000000000001011111 r
b00000000000000000000000001011111 t
12"
b00000000000000000000000001011011 H"
#530000000
0!
06
0o
02"
#540000000
1!
b00000000000000000000000001100011 &
b01100011 .
16
b00000000000000000000000001100011 8
b00000000000000000000000001011111 S
b00000000000000000000000001100011 V
1o
b00000000000000000000000001100011 r
b00000000000000000000000001100011 t
12"
b00000000000000000000000001011111 H"
#550000000
0!
06
0o
02"
#560000000
1!
b00000000000000000000000001100111 &
b01100111 .
16
b00000000000000000000000001100111 8
b00000000000000000000000001100011 S
b00000000000000000000000001100111 V
1o
b00000000000000000000000001100111 r
b00000000000000000000000001100111 t
12"
b00000000000000000000000001100011 H"
#570000000
0!
06
0o
02"
#580000000
1!
b00000000000000000000000001101011 &
b01101011 .
16
b00000000000000000000000001101011 8
b00000000000000000000000001100111 S
b00000000000000000000000001101011 V
1o
b00000000000000000000000001101011 r
b00000000000000000000000001101011 t
12"
b00000000000000000000000001100111 H"
#590000000
0!
06
0o
02"
#600000000
1!
b00000000000000000000000001101111 &
b01101111 .
16
b00000000000000000000000001101111 8
b00000000000000000000000001101011 S
b00000000000000000000000001101111 V
1o
b00000000000000000000000001101111 r
b00000000000000000000000001101111 t
12"
b00000000000000000000000001101011 H"
