RiscyBusiness/riscy.vcd
$date
  Wed Jan 26 01:07:38 2022
$end
$version
  GHDL v0
$end
$timescale
  1 fs
$end
$var reg 1 ! clk $end
$var reg 1 " nrst $end
$var reg 1 # const0 $end
$var reg 1 $ const1 $end
$var reg 1 % dnwe $end
$var reg 32 & iaddr[31:0] $end
$var reg 32 ' daddr[31:0] $end
$var reg 32 ( idatao[31:0] $end
$var reg 32 ) ddatao[31:0] $end
$var reg 32 * ddatai[31:0] $end
$comment ictrl is not handled $end
$comment dctrl is not handled $end
$var reg 32 + random[31:0] $end
$scope module instmemi $end
$var reg 1 , ncs $end
$var reg 1 - nwe $end
$var reg 8 . addr[7:0] $end
$var reg 32 / datain[31:0] $end
$var reg 32 0 dataout[31:0] $end
$comment fileio is not handled $end
$upscope $end
$scope module datamemi $end
$var reg 1 1 ncs $end
$var reg 1 2 nwe $end
$var reg 8 3 addr[7:0] $end
$var reg 32 4 datain[31:0] $end
$var reg 32 5 dataout[31:0] $end
$comment fileio is not handled $end
$upscope $end
$scope module pipeproci $end
$var reg 1 6 clk $end
$var reg 1 7 nrst $end
$var reg 32 8 iaddr[31:0] $end
$var reg 32 9 idata[31:0] $end
$var reg 1 : dnwe $end
$var reg 32 ; daddr[31:0] $end
$var reg 32 < ddatai[31:0] $end
$var reg 32 = ddatao[31:0] $end
$var reg 3 > alu_sel_signal_f_d[2:0] $end
$var reg 7 ? alu_sel_signal_ff_d[6:0] $end
$var reg 7 @ sel_opcode_signal_d[6:0] $end
$var reg 5 A rd_signal_d[4:0] $end
$var reg 5 B rs1_signal_d[4:0] $end
$var reg 5 C rs2_signal_d[4:0] $end
$var reg 12 D imm_signal_itype_d[11:0] $end
$var reg 20 E imm_signal_utype_d[19:0] $end
$var reg 5 F imm_signal_stype_d[4:0] $end
$var reg 7 G imm_signal_stypetwo_d[6:0] $end
$var reg 1 H imm_signal_btype_d $end
$var reg 4 I imm_signal_btypetwo_d[3:0] $end
$var reg 6 J imm_signal_btypethree_d[5:0] $end
$var reg 1 K imm_signal_btypefour_d $end
$var reg 8 L imm_signal_jtype_d[7:0] $end
$var reg 1 M imm_signal_jtypetwo_d $end
$var reg 10 N imm_signal_jtypethree_d[9:0] $end
$var reg 1 O imm_signal_jtypefour_d $end
$var reg 32 P rs1_out_d[31:0] $end
$var reg 32 Q rs2_out_d[31:0] $end
$var reg 32 R ins_mem_d[31:0] $end
$var reg 32 S o_addr_d[31:0] $end
$var reg 32 T o_addr_d2[31:0] $end
$var reg 1 U branch_out $end
$var reg 32 V o_addr_f[31:0] $end
$var reg 32 W imm_o_d[31:0] $end
$var reg 3 X alu_sel_signal_f_x[2:0] $end
$var reg 7 Y alu_sel_signal_ff_x[6:0] $end
$var reg 7 Z sel_opcode_signal_x[6:0] $end
$var reg 32 [ rs1_out_x[31:0] $end
$var reg 32 \ rs2_out_x[31:0] $end
$var reg 32 ] rs2_out_x2[31:0] $end
$var reg 32 ^ alu_out_x[31:0] $end
$var reg 5 _ rd_signal_x[4:0] $end
$var reg 7 ` sel_opcode_signal_m[6:0] $end
$var reg 5 a rd_signal_m[4:0] $end
$var reg 32 b alu_out_m[31:0] $end
$var reg 32 c data_output_wb[31:0] $end
$var reg 5 d rd_signal_wb[4:0] $end
$var reg 32 e data_output_wb_external[31:0] $end
$var reg 7 f sel_opcode_signal_wb[6:0] $end
$var reg 1 g nwe_d_ram $end
$var reg 1 h nwe_x_ram $end
$var reg 1 i nwe_m_ram $end
$var reg 1 j nwe_d_r2 $end
$var reg 1 k nwe_x_r $end
$var reg 1 l nwe_wb_r $end
$var reg 1 m nwe_wb_r2 $end
$var reg 1 n nwe_m_r $end
$scope module pc $end
$var reg 1 o clk $end
$var reg 32 p i_addr[31:0] $end
$var reg 1 q nrst $end
$var reg 32 r o_addr[31:0] $end
$var reg 1 s mux_control_target $end
$var reg 32 t current_pc[31:0] $end
$upscope $end
$scope module brancher_brain $end
$var reg 7 u sel_opcode[6:0] $end
$var reg 32 v rs1[31:0] $end
$var reg 32 w rs2[31:0] $end
$var reg 1 x branch_out $end
$var reg 1 y val $end
$upscope $end
$scope module address_decoder $end
$var reg 32 z instruction[31:0] $end
$var reg 3 { alu_sel_f[2:0] $end
$var reg 7 | alu_sel_ff[6:0] $end
$var reg 7 } sel_opcode[6:0] $end
$var reg 5 !" rd[4:0] $end
$var reg 5 "" rs1[4:0] $end
$var reg 5 #" rs2[4:0] $end
$var reg 12 $" imm_itype[11:0] $end
$var reg 20 %" imm_utype[19:0] $end
$var reg 5 &" imm_stype[4:0] $end
$var reg 7 '" imm_stypetwo[6:0] $end
$var reg 1 (" imm_btype $end
$var reg 4 )" imm_btypetwo[3:0] $end
$var reg 6 *" imm_btypethree[5:0] $end
$var reg 1 +" imm_btypefour $end
$var reg 8 ," imm_jtype[7:0] $end
$var reg 1 -" imm_jtypetwo $end
$var reg 10 ." imm_jtypethree[9:0] $end
$var reg 1 /" imm_jtypefour $end
$var reg 1 0" i_nwe_r2 $end
$var reg 1 1" i_nwe_ram $end
$upscope $end
$scope module register_file $end
$var reg 1 2" i_clk $end
$var reg 5 3" i_rs1[4:0] $end
$var reg 5 4" i_rs2[4:0] $end
$var reg 5 5" i_rd[4:0] $end
$var reg 5 6" i_rd2[4:0] $end
$var reg 32 7" i_data_input[31:0] $end
$var reg 32 8" i_data_input2[31:0] $end
$var reg 7 9" sel_opcode[6:0] $end
$var reg 7 :" sel_opcode_lw[6:0] $end
$var reg 32 ;" o_rs1_out[31:0] $end
$var reg 32 <" o_rs2_out[31:0] $end
$var reg 1 =" i_nwe $end
$var reg 1 >" i_nwe2 $end
$comment registers is not handled $end
$var reg 32 ?" out_a[31:0] $end
$var reg 32 @" out_b[31:0] $end
$upscope $end
$scope module alu_integer $end
$var reg 32 A" val_a[31:0] $end
$var reg 32 B" val_b[31:0] $end
$var reg 3 C" alu_sel_f[2:0] $end
$var reg 7 D" alu_sel_ff[6:0] $end
$var reg 32 E" alu_out[31:0] $end
$var reg 7 F" sel_opcode[6:0] $end
$upscope $end
$scope module alu_addresser $end
$var reg 32 G" val_a[31:0] $end
$var reg 32 H" val_b[31:0] $end
$var reg 3 I" alu_sel_f[2:0] $end
$var reg 7 J" alu_sel_ff[6:0] $end
$var reg 32 K" alu_out[31:0] $end
$var reg 7 L" sel_opcode[6:0] $end
$upscope $end
$scope module extender_imm $end
$var reg 7 M" sel_opcode[6:0] $end
$var reg 12 N" imm_itype[11:0] $end
$var reg 20 O" imm_utype[19:0] $end
$var reg 5 P" imm_stype[4:0] $end
$var reg 7 Q" imm_stypetwo[6:0] $end
$var reg 1 R" imm_btype $end
$var reg 4 S" imm_btypetwo[3:0] $end
$var reg 6 T" imm_btypethree[5:0] $end
$var reg 1 U" imm_btypefour $end
$var reg 8 V" imm_jtype[7:0] $end
$var reg 1 W" imm_jtypetwo $end
$var reg 10 X" imm_jtypethree[9:0] $end
$var reg 1 Y" imm_jtypefour $end
$var reg 32 Z" imm_o[31:0] $end
$upscope $end
$upscope $end
$enddefinitions $end
#0
0!
0"
0#
1$
U%
b00000000000000000000000000000000 &
bUUUUUUUUUUUUUUUUUUUUUUUUUUUUUUUU '
b00000000101000000000111010010011 (
bUUUUUUUUUUUUUUUUUUUUUUUUUUUUUUUU )
bUUUUUUUUUUUUUUUUUUUUUUUUUUUUUUUU *
b00000000000000000000000000000000 +
0,
1-
b00000000 .
b00000000000000000000000000000000 /
b00000000101000000000111010010011 0
01
U2
bUUUUUUUU 3
bUUUUUUUUUUUUUUUUUUUUUUUUUUUUUUUU 4
bUUUUUUUUUUUUUUUUUUUUUUUUUUUUUUUU 5
06
07
b00000000000000000000000000000000 8
b00000000101000000000111010010011 9
U:
bUUUUUUUUUUUUUUUUUUUUUUUUUUUUUUUU ;
bUUUUUUUUUUUUUUUUUUUUUUUUUUUUUUUU <
bUUUUUUUUUUUUUUUUUUUUUUUUUUUUUUUU =
b000 >
bUUUUUUU ?
b0000000 @
b00000 A
b00000 B
bUUUUU C
b000000000000 D
bUUUUUUUUUUUUUUUUUUUU E
bUUUUU F
bUUUUUUU G
UH
bUUUU I
bUUUUUU J
UK
bUUUUUUUU L
UM
bUUUUUUUUUU N
UO
b00000000000000000000000000000000 P
b00000000000000000000000000000000 Q
bUUUUUUUUUUUUUUUUUUUUUUUUUUUUUUUU R
bUUUUUUUUUUUUUUUUUUUUUUUUUUUUUUUU S
b00000000000000000000000000000000 T
0U
b00000000000000000000000000000000 V
b00000000000000000000000000000000 W
bUUU X
bUUUUUUU Y
bUUUUUUU Z
bUUUUUUUUUUUUUUUUUUUUUUUUUUUUUUUU [
bUUUUUUUUUUUUUUUUUUUUUUUUUUUUUUUU \
bUUUUUUUUUUUUUUUUUUUUUUUUUUUUUUUU ]
b00000000000000000000000000000000 ^
bUUUUU _
bUUUUUUU `
bUUUUU a
bUUUUUUUUUUUUUUUUUUUUUUUUUUUUUUUU b
bUUUUUUUUUUUUUUUUUUUUUUUUUUUUUUUU c
bUUUUU d
bUUUUUUUUUUUUUUUUUUUUUUUUUUUUUUUU e
bUUUUUUU f
1g
Uh
Ui
1j
Uk
Ul
Um
Un
0o
b00000000000000000000000000000000 p
0q
b00000000000000000000000000000000 r
0s
b00000000000000000000000000000000 t
b0000000 u
b00000000000000000000000000000000 v
b00000000000000000000000000000000 w
0x
0y
bUUUUUUUUUUUUUUUUUUUUUUUUUUUUUUUU z
b000 {
bUUUUUUU |
b0000000 }
b00000 !"
b00000 ""
bUUUUU #"
b000000000000 $"
bUUUUUUUUUUUUUUUUUUUU %"
bUUUUU &"
bUUUUUUU '"
U("
bUUUU )"
bUUUUUU *"
U+"
bUUUUUUUU ,"
U-"
bUUUUUUUUUU ."
U/"
10"
11"
02"
b00000 3"
bUUUUU 4"
bUUUUU 5"
bUUUUU 6"
bUUUUUUUUUUUUUUUUUUUUUUUUUUUUUUUU 7"
bUUUUUUUUUUUUUUUUUUUUUUUUUUUUUUUU 8"
bUUUUUUU 9"
bUUUUUUU :"
b00000000000000000000000000000000 ;"
b00000000000000000000000000000000 <"
U="
U>"
b00000000000000000000000000000000 ?"
b00000000000000000000000000000000 @"
bUUUUUUUUUUUUUUUUUUUUUUUUUUUUUUUU A"
bUUUUUUUUUUUUUUUUUUUUUUUUUUUUUUUU B"
bUUU C"
bUUUUUUU D"
b00000000000000000000000000000000 E"
bUUUUUUU F"
b00000000000000000000000000000000 G"
bUUUUUUUUUUUUUUUUUUUUUUUUUUUUUUUU H"
b000 I"
bUUUUUUU J"
b00000000000000000000000000000000 K"
b0000000 L"
b0000000 M"
b000000000000 N"
bUUUUUUUUUUUUUUUUUUUU O"
bUUUUU P"
bUUUUUUU Q"
UR"
bUUUU S"
bUUUUUU T"
UU"
bUUUUUUUU V"
UW"
bUUUUUUUUUU X"
UY"
b00000000000000000000000000000000 Z"
#5000000
1"
17
1q
#10000000
#20000000
1!
b00000000000000000000000000000100 &
b00000000000000000000000000000000 '
b00000000000000000000000000010011 (
b00000100 .
b00000000000000000000000000010011 0
b00000000 3
16
b00000000000000000000000000000100 8
b00000000000000000000000000010011 9
b00000000000000000000000000000000 ;
b0010011 @
b11101 A
b000000001010 D
b00000000101000000000111010010011 R
b00000000000000000000000000000000 S
b00000000000000000000000000001010 T
b00000000000000000000000000000100 V
b00000000000000000000000000001010 W
b000 X
b0000000 Z
b00000000000000000000000000000000 [
b00000000000000000000000000000000 \
b00000 _
b00000000000000000000000000000000 b
1h
0j
1k
1o
b00000000000000000000000000001010 p
b00000000000000000000000000000100 r
b00000000000000000000000000000100 t
b0010011 u
b00000000101000000000111010010011 z
b0010011 }
b11101 !"
b000000001010 $"
00"
12"
b00000000000000000000000000000000 A"
b00000000000000000000000000000000 B"
b000 C"
b0000000 F"
b00000000000000000000000000001010 G"
b00000000000000000000000000000000 H"
b00000000000000000000000000001010 K"
b0010011 L"
b0010011 M"
b000000001010 N"
b00000000000000000000000000001010 Z"
#30000000
0!
06
0o
02"
#40000000
1!
1%
b00000000000000000000000000001000 &
b00000001110111101010000110100011 (
b00001000 .
b00000001110111101010000110100011 0
12
16
b00000000000000000000000000001000 8
b00000001110111101010000110100011 9
1:
b00000 A
b000000000000 D
b00000000000000000000000000010011 R
b00000000000000000000000000000100 S
b00000000000000000000000000000100 T
b00000000000000000000000000001000 V
b00000000000000000000000000000000 W
b0010011 Z
b00000000000000000000000000001010 \
b00000000000000000000000000000000 ]
b00000000000000000000000000001010 ^
b11101 _
b0000000 `
b00000 a
0k
1n
1o
b00000000000000000000000000000100 p
b00000000000000000000000000001000 r
b00000000000000000000000000001000 t
b00000000000000000000000000010011 z
b00000 !"
b000000000000 $"
12"
b00000 5"
b0000000 9"
b00000000000000000000000000001010 B"
b00000000000000000000000000001010 E"
b0010011 F"
b00000000000000000000000000000000 G"
b00000000000000000000000000000100 H"
b00000000000000000000000000000100 K"
b000000000000 N"
b00000000000000000000000000000000 Z"
#50000000
0!
06
0o
02"
#60000000
1!
b00000000000000000000000000001100 &
b00000000000000000000000000010011 (
b00001100 .
b00000000000000000000000000010011 0
16
b00000000000000000000000000001100 8
b00000000000000000000000000010011 9
b010 >
b0100011 @
b11101 B
b11101 C
b00011 F
b0000000 G
b00000001110111101010000110100011 R
b00000000000000000000000000001000 S
b00000000000000000000000000001011 T
b00000000000000000000000000001100 V
b00000000000000000000000000000011 W
b00000000000000000000000000000000 \
b00000000000000000000000000000000 ^
b00000 _
b0010011 `
b11101 a
b00000000000000000000000000001010 c
0g
1j
0l
1o
b00000000000000000000000000001011 p
b00000000000000000000000000001100 r
b00000000000000000000000000001100 t
b0100011 u
b00000001110111101010000110100011 z
b010 {
b0100011 }
b11101 ""
b11101 #"
b00011 &"
b0000000 '"
10"
01"
12"
b11101 3"
b11101 4"
b11101 5"
b00000000000000000000000000001010 7"
b0010011 9"
0="
b00000000000000000000000000000000 B"
b00000000000000000000000000000000 E"
b00000000000000000000000000000011 G"
b00000000000000000000000000001000 H"
b010 I"
b00000000000000000000000000001011 K"
b0100011 L"
b0100011 M"
b00011 P"
b0000000 Q"
b00000000000000000000000000000011 Z"
#70000000
0!
06
b00000000000000000000000000001010 P
b00000000000000000000000000001010 Q
0o
b00000000000000000000000000001010 v
b00000000000000000000000000001010 w
02"
b00000000000000000000000000001010 ;"
b00000000000000000000000000001010 <"
b00000000000000000000000000001010 ?"
b00000000000000000000000000001010 @"
#80000000
1!
b00000000000000000000000000010000 &
b00010000 .
16
b00000000000000000000000000010000 8
b000 >
b0010011 @
b00000 B
b00000000000000000000000000010011 R
b00000000000000000000000000001100 S
b00000000000000000000000000001100 T
b00000000000000000000000000010000 V
b00000000000000000000000000000000 W
b010 X
b0100011 Z
b00000000000000000000000000001010 [
b00000000000000000000000000000011 \
b00000000000000000000000000001010 ]
b00000000000000000000000000001101 ^
b00000 a
b00000000000000000000000000000000 c
1g
0h
0j
1k
1o
b00000000000000000000000000001100 p
b00000000000000000000000000010000 r
b00000000000000000000000000010000 t
b0010011 u
b00000000000000000000000000010011 z
b000 {
b0010011 }
b00000 ""
00"
11"
12"
b00000 3"
b00000 5"
b00000000000000000000000000000000 7"
b00000000000000000000000000001010 A"
b00000000000000000000000000000011 B"
b010 C"
b00000000000000000000000000001101 E"
b0100011 F"
b00000000000000000000000000000000 G"
b00000000000000000000000000001100 H"
b000 I"
b00000000000000000000000000001100 K"
b0010011 L"
b0010011 M"
b00000000000000000000000000000000 Z"
#90000000
0!
06
b00000000000000000000000000000000 P
0o
b00000000000000000000000000000000 v
02"
b00000000000000000000000000000000 ;"
b00000000000000000000000000000000 ?"
#100000000
1!
0%
b00000000000000000000000000010100 &
b00000000000000000000000000001101 '
b00000000001100000000111100010011 (
b00000000000000000000000000001010 *
b00010100 .
b00000000001100000000111100010011 0
02
b00001101 3
b00000000000000000000000000001010 4
16
b00000000000000000000000000010100 8
b00000000001100000000111100010011 9
0:
b00000000000000000000000000001101 ;
b00000000000000000000000000001010 <
b00000000000000000000000000010000 S
b00000000000000000000000000010000 T
b00000000000000000000000000010100 V
b000 X
b0010011 Z
b00000000000000000000000000000000 [
b00000000000000000000000000000000 \
b00000000000000000000000000000000 ^
b0100011 `
b00000000000000000000000000001101 b
1h
0k
1o
b00000000000000000000000000010000 p
b00000000000000000000000000010100 r
b00000000000000000000000000010100 t
12"
b0100011 9"
b00000000000000000000000000000000 A"
b00000000000000000000000000000000 B"
b000 C"
b00000000000000000000000000000000 E"
b0010011 F"
b00000000000000000000000000010000 H"
b00000000000000000000000000010000 K"
#110000000
0!
06
0o
02"
#120000000
1!
b00000000000000000000000000011000 &
b00000000000000000000000000010011 (
b00011000 .
b00000000000000000000000000010011 0
16
b00000000000000000000000000011000 8
b00000000000000000000000000010011 9
b11110 A
b000000000011 D
b00000000001100000000111100010011 R
b00000000000000000000000000010100 S
b00000000000000000000000000010111 T
b00000000000000000000000000011000 V
b00000000000000000000000000000011 W
b0010011 `
1o
b00000000000000000000000000010111 p
b00000000000000000000000000011000 r
b00000000000000000000000000011000 t
b00000000001100000000111100010011 z
b11110 !"
b000000000011 $"
12"
b0010011 9"
b00000000000000000000000000000011 G"
b00000000000000000000000000010100 H"
b00000000000000000000000000010111 K"
b000000000011 N"
b00000000000000000000000000000011 Z"
#130000000
0!
06
0o
02"
#140000000
1!
b00000000000000000000000000011100 &
b00000001111011101010001000100011 (
b00011100 .
b00000001111011101010001000100011 0
16
b00000000000000000000000000011100 8
b00000001111011101010001000100011 9
b00000 A
b000000000000 D
b00000000000000000000000000010011 R
b00000000000000000000000000011000 S
b00000000000000000000000000011000 T
b00000000000000000000000000011100 V
b00000000000000000000000000000000 W
b00000000000000000000000000000011 \
b00000000000000000000000000000011 ^
b11110 _
1o
b00000000000000000000000000011000 p
b00000000000000000000000000011100 r
b00000000000000000000000000011100 t
b00000000000000000000000000010011 z
b00000 !"
b000000000000 $"
12"
b00000000000000000000000000000011 B"
b00000000000000000000000000000011 E"
b00000000000000000000000000000000 G"
b00000000000000000000000000011000 H"
b00000000000000000000000000011000 K"
b000000000000 N"
b00000000000000000000000000000000 Z"
#150000000
0!
06
0o
02"
#160000000
1!
b00000000000000000000000000100000 &
b00000000000000000000000000010011 (
b00100000 .
b00000000000000000000000000010011 0
16
b00000000000000000000000000100000 8
b00000000000000000000000000010011 9
b010 >
b0100011 @
b11101 B
b11110 C
b00100 F
b00000001111011101010001000100011 R
b00000000000000000000000000011100 S
b00000000000000000000000000100000 T
b00000000000000000000000000100000 V
b00000000000000000000000000000100 W
b00000000000000000000000000000000 \
b00000000000000000000000000000000 ^
b00000 _
b11110 a
b00000000000000000000000000000011 c
0g
1j
1o
b00000000000000000000000000100000 p
b00000000000000000000000000100000 r
b00000000000000000000000000100000 t
b0100011 u
b00000001111011101010001000100011 z
b010 {
b0100011 }
b11101 ""
b11110 #"
b00100 &"
10"
01"
12"
b11101 3"
b11110 4"
b11110 5"
b00000000000000000000000000000011 7"
b00000000000000000000000000000000 B"
b00000000000000000000000000000000 E"
b00000000000000000000000000000100 G"
b00000000000000000000000000011100 H"
b010 I"
b00000000000000000000000000100000 K"
b0100011 L"
b0100011 M"
b00100 P"
b00000000000000000000000000000100 Z"
#170000000
0!
06
b00000000000000000000000000001010 P
b00000000000000000000000000000011 Q
0o
b00000000000000000000000000001010 v
b00000000000000000000000000000011 w
02"
b00000000000000000000000000001010 ;"
b00000000000000000000000000000011 <"
b00000000000000000000000000001010 ?"
b00000000000000000000000000000011 @"
#180000000
1!
b00000000000000000000000000100100 &
b00100100 .
16
b00000000000000000000000000100100 8
b000 >
b0010011 @
b00000 B
b00000000000000000000000000010011 R
b00000000000000000000000000100000 S
b00000000000000000000000000100000 T
b00000000000000000000000000100100 V
b00000000000000000000000000000000 W
b010 X
b0100011 Z
b00000000000000000000000000001010 [
b00000000000000000000000000000100 \
b00000000000000000000000000000011 ]
b00000000000000000000000000001110 ^
b00000 a
b00000000000000000000000000000000 c
1g
0h
0j
1k
1o
b00000000000000000000000000100000 p
b00000000000000000000000000100100 r
b00000000000000000000000000100100 t
b0010011 u
b00000000000000000000000000010011 z
b000 {
b0010011 }
b00000 ""
00"
11"
12"
b00000 3"
b00000 5"
b00000000000000000000000000000000 7"
b00000000000000000000000000001010 A"
b00000000000000000000000000000100 B"
b010 C"
b00000000000000000000000000001110 E"
b0100011 F"
b00000000000000000000000000000000 G"
b00000000000000000000000000100000 H"
b000 I"
b00000000000000000000000000100000 K"
b0010011 L"
b0010011 M"
b00000000000000000000000000000000 Z"
#190000000
0!
06
b00000000000000000000000000000000 P
0o
b00000000000000000000000000000000 v
02"
b00000000000000000000000000000000 ;"
b00000000000000000000000000000000 ?"
#200000000
1!
b00000000000000000000000000101000 &
b00000000000000000000000000001110 '
b00000000010011101010111110000011 (
b00000000000000000000000000000011 *
b00101000 .
b00000000010011101010111110000011 0
b00001110 3
b00000000000000000000000000000011 4
16
b00000000000000000000000000101000 8
b00000000010011101010111110000011 9
b00000000000000000000000000001110 ;
b00000000000000000000000000000011 <
b00000000000000000000000000100100 S
b00000000000000000000000000100100 T
b00000000000000000000000000101000 V
b000 X
b0010011 Z
b00000000000000000000000000000000 [
b00000000000000000000000000000000 \
b00000000000000000000000000000000 ^
b0100011 `
b00000000000000000000000000001110 b
1h
0k
1o
b00000000000000000000000000100100 p
b00000000000000000000000000101000 r
b00000000000000000000000000101000 t
12"
b0100011 9"
b00000000000000000000000000000000 A"
b00000000000000000000000000000000 B"
b000 C"
b00000000000000000000000000000000 E"
b0010011 F"
b00000000000000000000000000100100 H"
b00000000000000000000000000100100 K"
#210000000
0!
06
0o
02"
#220000000
1!
b00000000000000000000000000101100 &
b00000000000000000000000000010011 (
b00101100 .
b00000000000000000000000000010011 0
16
b00000000000000000000000000101100 8
b00000000000000000000000000010011 9
b010 >
b0000011 @
b11111 A
b11101 B
b000000000100 D
b00000000010011101010111110000011 R
b00000000000000000000000000101000 S
b00000000000000000000000000101100 T
b00000000000000000000000000101100 V
b00000000000000000000000000000100 W
b0010011 `
1o
b00000000000000000000000000101100 p
b00000000000000000000000000101100 r
b00000000000000000000000000101100 t
b0000011 u
b00000000010011101010111110000011 z
b010 {
b0000011 }
b11111 !"
b11101 ""
b000000000100 $"
12"
b11101 3"
b0010011 9"
b00000000000000000000000000000100 G"
b00000000000000000000000000101000 H"
b010 I"
b00000000000000000000000000101100 K"
b0000011 L"
b0000011 M"
b000000000100 N"
b00000000000000000000000000000100 Z"
#230000000
0!
06
b00000000000000000000000000001010 P
0o
b00000000000000000000000000001010 v
02"
b00000000000000000000000000001010 ;"
b00000000000000000000000000001010 ?"
#240000000
1!
b00000000000000000000000000110000 &
b00110000 .
16
b00000000000000000000000000110000 8
b000 >
b0010011 @
b00000 A
b00000 B
b000000000000 D
b00000000000000000000000000010011 R
b00000000000000000000000000101100 S
b00000000000000000000000000101100 T
b00000000000000000000000000110000 V
b00000000000000000000000000000000 W
b010 X
b0000011 Z
b00000000000000000000000000001010 [
b00000000000000000000000000000100 \
b00000000000000000000000000001110 ^
b11111 _
1o
b00000000000000000000000000101100 p
b00000000000000000000000000110000 r
b00000000000000000000000000110000 t
b0010011 u
b00000000000000000000000000010011 z
b000 {
b0010011 }
b00000 !"
b00000 ""
b000000000000 $"
12"
b00000 3"
b00000000000000000000000000001010 A"
b00000000000000000000000000000100 B"
b010 C"
b00000000000000000000000000001110 E"
b0000011 F"
b00000000000000000000000000000000 G"
b00000000000000000000000000101100 H"
b000 I"
b00000000000000000000000000101100 K"
b0010011 L"
b0010011 M"
b000000000000 N"
b00000000000000000000000000000000 Z"
#250000000
0!
06
b00000000000000000000000000000000 P
0o
b00000000000000000000000000000000 v
02"
b00000000000000000000000000000000 ;"
b00000000000000000000000000000000 ?"
#260000000
1!
1%
b00000000000000000000000000110100 &
b00000000000000000000000000000011 )
b00110100 .
12
b00000000000000000000000000000011 5
16
b00000000000000000000000000110100 8
1:
b00000000000000000000000000000011 =
b00000000000000000000000000110000 S
b00000000000000000000000000110000 T
b00000000000000000000000000110100 V
b000 X
b0010011 Z
b00000000000000000000000000000000 [
b00000000000000000000000000000000 \
b00000000000000000000000000000000 ^
b00000 _
b0000011 `
b11111 a
0n
1o
b00000000000000000000000000110000 p
b00000000000000000000000000110100 r
b00000000000000000000000000110100 t
12"
b11111 5"
b0000011 9"
b00000000000000000000000000000000 A"
b00000000000000000000000000000000 B"
b000 C"
b00000000000000000000000000000000 E"
b0010011 F"
b00000000000000000000000000110000 H"
b00000000000000000000000000110000 K"
#270000000
0!
06
0o
02"
#280000000
1!
b00000000000000000000000000111000 &
b00000000001111101010001010000011 (
b00111000 .
b00000000001111101010001010000011 0
16
b00000000000000000000000000111000 8
b00000000001111101010001010000011 9
b00000000000000000000000000110100 S
b00000000000000000000000000110100 T
b00000000000000000000000000111000 V
b0010011 `
b00000 a
b11111 d
b00000000000000000000000000000011 e
b0000011 f
0m
1o
b00000000000000000000000000110100 p
b00000000000000000000000000111000 r
b00000000000000000000000000111000 t
12"
b00000 5"
b11111 6"
b00000000000000000000000000000011 8"
b0010011 9"
b0000011 :"
0>"
b00000000000000000000000000110100 H"
b00000000000000000000000000110100 K"
#290000000
0!
06
0o
02"
#300000000
1!
b00000000000000000000000000111100 &
b00000000000000000000000000010011 (
b00111100 .
b00000000000000000000000000010011 0
16
b00000000000000000000000000111100 8
b00000000000000000000000000010011 9
b010 >
b0000011 @
b00101 A
b11101 B
b000000000011 D
b00000000001111101010001010000011 R
b00000000000000000000000000111000 S
b00000000000000000000000000111011 T
b00000000000000000000000000111100 V
b00000000000000000000000000000011 W
1o
b00000000000000000000000000111011 p
b00000000000000000000000000111100 r
b00000000000000000000000000111100 t
b0000011 u
b00000000001111101010001010000011 z
b010 {
b0000011 }
b00101 !"
b11101 ""
b000000000011 $"
12"
b11101 3"
b00000000000000000000000000000011 G"
b00000000000000000000000000111000 H"
b010 I"
b00000000000000000000000000111011 K"
b0000011 L"
b0000011 M"
b000000000011 N"
b00000000000000000000000000000011 Z"
#310000000
0!
06
b00000000000000000000000000001010 P
0o
b00000000000000000000000000001010 v
02"
b00000000000000000000000000001010 ;"
b00000000000000000000000000001010 ?"
#320000000
1!
b00000000000000000000000001000000 &
b01000000 .
16
b00000000000000000000000001000000 8
b000 >
b0010011 @
b00000 A
b00000 B
b000000000000 D
b00000000000000000000000000010011 R
b00000000000000000000000000111100 S
b00000000000000000000000000111100 T
b00000000000000000000000001000000 V
b00000000000000000000000000000000 W
b010 X
b0000011 Z
b00000000000000000000000000001010 [
b00000000000000000000000000000011 \
b00000000000000000000000000001101 ^
b00101 _
1o
b00000000000000000000000000111100 p
b00000000000000000000000001000000 r
b00000000000000000000000001000000 t
b0010011 u
b00000000000000000000000000010011 z
b000 {
b0010011 }
b00000 !"
b00000 ""
b000000000000 $"
12"
b00000 3"
b00000000000000000000000000001010 A"
b00000000000000000000000000000011 B"
b010 C"
b00000000000000000000000000001101 E"
b0000011 F"
b00000000000000000000000000000000 G"
b00000000000000000000000000111100 H"
b000 I"
b00000000000000000000000000111100 K"
b0010011 L"
b0010011 M"
b000000000000 N"
b00000000000000000000000000000000 Z"
#330000000
0!
06
b00000000000000000000000000000000 P
0o
b00000000000000000000000000000000 v
02"
b00000000000000000000000000000000 ;"
b00000000000000000000000000000000 ?"
#340000000
1!
b00000000000000000000000001000100 &
b00000000000000000000000000001101 '
b00000000000000000000000000001010 )
b01000100 .
b00001101 3
b00000000000000000000000000001010 5
16
b00000000000000000000000001000100 8
b00000000000000000000000000001101 ;
b00000000000000000000000000001010 =
b00000000000000000000000001000000 S
b00000000000000000000000001000000 T
b00000000000000000000000001000100 V
b000 X
b0010011 Z
b00000000000000000000000000000000 [
b00000000000000000000000000000000 \
b00000000000000000000000000000000 ^
b00000 _
b0000011 `
b00101 a
b00000000000000000000000000001101 b
1o
b00000000000000000000000001000000 p
b00000000000000000000000001000100 r
b00000000000000000000000001000100 t
12"
b00101 5"
b0000011 9"
b00000000000000000000000000000000 A"
b00000000000000000000000000000000 B"
b000 C"
b00000000000000000000000000000000 E"
b0010011 F"
b00000000000000000000000001000000 H"
b00000000000000000000000001000000 K"
#350000000
0!
06
0o
02"
#360000000
1!
b00000000000000000000000001001000 &
b00000001111100101000001100110011 (
b01001000 .
b00000001111100101000001100110011 0
16
b00000000000000000000000001001000 8
b00000001111100101000001100110011 9
b00000000000000000000000001000100 S
b00000000000000000000000001000100 T
b00000000000000000000000001001000 V
b0010011 `
b00000 a
b00101 d
b00000000000000000000000000001010 e
1o
b00000000000000000000000001000100 p
b00000000000000000000000001001000 r
b00000000000000000000000001001000 t
12"
b00000 5"
b00101 6"
b00000000000000000000000000001010 8"
b0010011 9"
b00000000000000000000000001000100 H"
b00000000000000000000000001000100 K"
#370000000
0!
06
0o
02"
#380000000
1!
b00000000000000000000000001001100 &
bUUUUUUUUUUUUUUUUUUUUUUUUUUUUUUUU (
b01001100 .
bUUUUUUUUUUUUUUUUUUUUUUUUUUUUUUUU 0
16
b00000000000000000000000001001100 8
bUUUUUUUUUUUUUUUUUUUUUUUUUUUUUUUU 9
b0000000 ?
b0110011 @
b00110 A
b00101 B
b11111 C
b00000001111100101000001100110011 R
b00000000000000000000000001001000 S
b00000000000000000000000001001000 T
b00000000000000000000000001001100 V
1o
b00000000000000000000000001001000 p
b00000000000000000000000001001100 r
b00000000000000000000000001001100 t
b0110011 u
b00000001111100101000001100110011 z
b0000000 |
b0110011 }
b00110 !"
b00101 ""
b11111 #"
12"
b00101 3"
b11111 4"
b00000000000000000000000001001000 H"
b0000000 J"
b00000000000000000000000001001000 K"
b0110011 L"
b0110011 M"
