RiscyBusiness/riscy.vcd
$date
  Sun Jan 23 17:30:39 2022
$end
$version
  GHDL v0
$end
$timescale
  1 fs
$end
$var reg 1 ! clk $end
$var reg 1 " nrst $end
$var reg 1 # const0 $end
$var reg 1 $ const1 $end
$var reg 1 % dnwe $end
$var reg 32 & iaddr[31:0] $end
$var reg 32 ' daddr[31:0] $end
$var reg 32 ( idatao[31:0] $end
$var reg 32 ) ddatao[31:0] $end
$var reg 32 * ddatai[31:0] $end
$comment ictrl is not handled $end
$comment dctrl is not handled $end
$var reg 32 + random[31:0] $end
$scope module instmemi $end
$var reg 1 , ncs $end
$var reg 1 - nwe $end
$var reg 8 . addr[7:0] $end
$var reg 32 / datain[31:0] $end
$var reg 32 0 dataout[31:0] $end
$comment fileio is not handled $end
$upscope $end
$scope module datamemi $end
$var reg 1 1 ncs $end
$var reg 1 2 nwe $end
$var reg 8 3 addr[7:0] $end
$var reg 32 4 datain[31:0] $end
$var reg 32 5 dataout[31:0] $end
$comment fileio is not handled $end
$upscope $end
$scope module pipeproci $end
$var reg 1 6 clk $end
$var reg 1 7 nrst $end
$var reg 32 8 iaddr[31:0] $end
$var reg 32 9 idata[31:0] $end
$var reg 1 : dnwe $end
$var reg 32 ; daddr[31:0] $end
$var reg 32 < ddatai[31:0] $end
$var reg 32 = ddatao[31:0] $end
$var reg 3 > alu_sel_signal_f_d[2:0] $end
$var reg 7 ? alu_sel_signal_ff_d[6:0] $end
$var reg 7 @ sel_opcode_signal_d[6:0] $end
$var reg 5 A rd_signal_d[4:0] $end
$var reg 5 B rs1_signal_d[4:0] $end
$var reg 5 C rs2_signal_d[4:0] $end
$var reg 12 D imm_signal_itype_d[11:0] $end
$var reg 20 E imm_signal_utype_d[19:0] $end
$var reg 5 F imm_signal_stype_d[4:0] $end
$var reg 7 G imm_signal_stypetwo_d[6:0] $end
$var reg 1 H imm_signal_btype_d $end
$var reg 4 I imm_signal_btypetwo_d[3:0] $end
$var reg 6 J imm_signal_btypethree_d[5:0] $end
$var reg 1 K imm_signal_btypefour_d $end
$var reg 8 L imm_signal_jtype_d[7:0] $end
$var reg 1 M imm_signal_jtypetwo_d $end
$var reg 10 N imm_signal_jtypethree_d[9:0] $end
$var reg 1 O imm_signal_jtypefour_d $end
$var reg 32 P rs1_out_d[31:0] $end
$var reg 32 Q rs2_out_d[31:0] $end
$var reg 32 R ins_mem_d[31:0] $end
$var reg 32 S o_addr_d[31:0] $end
$var reg 32 T o_addr_d2[31:0] $end
$var reg 1 U branch_out $end
$var reg 32 V o_addr_f[31:0] $end
$var reg 32 W imm_o_d[31:0] $end
$var reg 3 X alu_sel_signal_f_x[2:0] $end
$var reg 7 Y alu_sel_signal_ff_x[6:0] $end
$var reg 7 Z sel_opcode_signal_x[6:0] $end
$var reg 32 [ rs1_out_x[31:0] $end
$var reg 32 \ rs2_out_x[31:0] $end
$var reg 32 ] alu_out_x[31:0] $end
$var reg 5 ^ rd_signal_x[4:0] $end
$var reg 7 _ sel_opcode_signal_m[6:0] $end
$var reg 5 ` rd_signal_m[4:0] $end
$var reg 32 a alu_out_m[31:0] $end
$var reg 32 b data_output_wb[31:0] $end
$var reg 5 c rd_signal_wb[4:0] $end
$var reg 1 d nwe_d_ram $end
$var reg 1 e nwe_x_ram $end
$var reg 1 f nwe_d_r2 $end
$var reg 1 g nwe_x_r $end
$var reg 1 h nwe_wb_r $end
$var reg 1 i nwe_m_r $end
$scope module pc $end
$var reg 1 j clk $end
$var reg 32 k i_addr[31:0] $end
$var reg 1 l nrst $end
$var reg 32 m o_addr[31:0] $end
$var reg 1 n mux_control_target $end
$var reg 32 o current_pc[31:0] $end
$upscope $end
$scope module brancher_brain $end
$var reg 7 p sel_opcode[6:0] $end
$var reg 32 q rs1[31:0] $end
$var reg 32 r rs2[31:0] $end
$var reg 1 s branch_out $end
$var reg 1 t val $end
$upscope $end
$scope module address_decoder $end
$var reg 32 u instruction[31:0] $end
$var reg 3 v alu_sel_f[2:0] $end
$var reg 7 w alu_sel_ff[6:0] $end
$var reg 7 x sel_opcode[6:0] $end
$var reg 5 y rd[4:0] $end
$var reg 5 z rs1[4:0] $end
$var reg 5 { rs2[4:0] $end
$var reg 12 | imm_itype[11:0] $end
$var reg 20 } imm_utype[19:0] $end
$var reg 5 !" imm_stype[4:0] $end
$var reg 7 "" imm_stypetwo[6:0] $end
$var reg 1 #" imm_btype $end
$var reg 4 $" imm_btypetwo[3:0] $end
$var reg 6 %" imm_btypethree[5:0] $end
$var reg 1 &" imm_btypefour $end
$var reg 8 '" imm_jtype[7:0] $end
$var reg 1 (" imm_jtypetwo $end
$var reg 10 )" imm_jtypethree[9:0] $end
$var reg 1 *" imm_jtypefour $end
$var reg 1 +" i_nwe_r2 $end
$var reg 1 ," i_nwe_ram $end
$upscope $end
$scope module register_file $end
$var reg 1 -" i_clk $end
$var reg 5 ." i_rs1[4:0] $end
$var reg 5 /" i_rs2[4:0] $end
$var reg 5 0" i_rd[4:0] $end
$var reg 32 1" i_data_input[31:0] $end
$var reg 32 2" o_rs1_out[31:0] $end
$var reg 32 3" o_rs2_out[31:0] $end
$var reg 1 4" i_nwe $end
$comment registers is not handled $end
$var reg 32 5" out_a[31:0] $end
$var reg 32 6" out_b[31:0] $end
$upscope $end
$scope module alu_integer $end
$var reg 32 7" val_a[31:0] $end
$var reg 32 8" val_b[31:0] $end
$var reg 3 9" alu_sel_f[2:0] $end
$var reg 7 :" alu_sel_ff[6:0] $end
$var reg 32 ;" alu_out[31:0] $end
$var reg 7 <" sel_opcode[6:0] $end
$upscope $end
$scope module alu_addresser $end
$var reg 32 =" val_a[31:0] $end
$var reg 32 >" val_b[31:0] $end
$var reg 3 ?" alu_sel_f[2:0] $end
$var reg 7 @" alu_sel_ff[6:0] $end
$var reg 32 A" alu_out[31:0] $end
$var reg 7 B" sel_opcode[6:0] $end
$upscope $end
$scope module extender_imm $end
$var reg 7 C" sel_opcode[6:0] $end
$var reg 12 D" imm_itype[11:0] $end
$var reg 20 E" imm_utype[19:0] $end
$var reg 5 F" imm_stype[4:0] $end
$var reg 7 G" imm_stypetwo[6:0] $end
$var reg 1 H" imm_btype $end
$var reg 4 I" imm_btypetwo[3:0] $end
$var reg 6 J" imm_btypethree[5:0] $end
$var reg 1 K" imm_btypefour $end
$var reg 8 L" imm_jtype[7:0] $end
$var reg 1 M" imm_jtypetwo $end
$var reg 10 N" imm_jtypethree[9:0] $end
$var reg 1 O" imm_jtypefour $end
$var reg 32 P" imm_o[31:0] $end
$upscope $end
$upscope $end
$enddefinitions $end
#0
0!
0"
0#
1$
U%
bUUUUUUUUUUUUUUUUUUUUUUUUUUUUUUUU &
bUUUUUUUUUUUUUUUUUUUUUUUUUUUUUUUU '
b00000000101000110000001100010011 (
bUUUUUUUUUUUUUUUUUUUUUUUUUUUUUUUU )
bUUUUUUUUUUUUUUUUUUUUUUUUUUUUUUUU *
b00000000000000000000000000000000 +
0,
1-
bUUUUUUUU .
b00000000000000000000000000000000 /
b00000000101000110000001100010011 0
01
U2
bUUUUUUUU 3
bUUUUUUUUUUUUUUUUUUUUUUUUUUUUUUUU 4
bUUUUUUUUUUUUUUUUUUUUUUUUUUUUUUUU 5
06
07
bUUUUUUUUUUUUUUUUUUUUUUUUUUUUUUUU 8
b00000000101000110000001100010011 9
U:
bUUUUUUUUUUUUUUUUUUUUUUUUUUUUUUUU ;
bUUUUUUUUUUUUUUUUUUUUUUUUUUUUUUUU <
bUUUUUUUUUUUUUUUUUUUUUUUUUUUUUUUU =
bUUU >
bUUUUUUU ?
bUUUUUUU @
bUUUUU A
bUUUUU B
bUUUUU C
bUUUUUUUUUUUU D
bUUUUUUUUUUUUUUUUUUUU E
bUUUUU F
bUUUUUUU G
UH
bUUUU I
bUUUUUU J
UK
bUUUUUUUU L
UM
bUUUUUUUUUU N
UO
b00000000000000000000000000000000 P
b00000000000000000000000000000000 Q
bUUUUUUUUUUUUUUUUUUUUUUUUUUUUUUUU R
bUUUUUUUUUUUUUUUUUUUUUUUUUUUUUUUU S
b00000000000000000000000000000000 T
UU
b00000000000000000000000000000000 V
b00000000000000000000000000000000 W
bUUU X
bUUUUUUU Y
bUUUUUUU Z
bUUUUUUUUUUUUUUUUUUUUUUUUUUUUUUUU [
bUUUUUUUUUUUUUUUUUUUUUUUUUUUUUUUU \
b00000000000000000000000000000000 ]
bUUUUU ^
bUUUUUUU _
bUUUUU `
bUUUUUUUUUUUUUUUUUUUUUUUUUUUUUUUU a
bUUUUUUUUUUUUUUUUUUUUUUUUUUUUUUUU b
bUUUUU c
Ud
Ue
Uf
Ug
Uh
Ui
0j
b00000000000000000000000000000000 k
0l
b00000000000000000000000000000000 m
Un
b00000000000000000000000000000000 o
bUUUUUUU p
b00000000000000000000000000000000 q
b00000000000000000000000000000000 r
Us
Ut
bUUUUUUUUUUUUUUUUUUUUUUUUUUUUUUUU u
bUUU v
bUUUUUUU w
bUUUUUUU x
bUUUUU y
bUUUUU z
bUUUUU {
bUUUUUUUUUUUU |
bUUUUUUUUUUUUUUUUUUUU }
bUUUUU !"
bUUUUUUU ""
U#"
bUUUU $"
bUUUUUU %"
U&"
bUUUUUUUU '"
U("
bUUUUUUUUUU )"
U*"
U+"
U,"
0-"
bUUUUU ."
bUUUUU /"
bUUUUU 0"
bUUUUUUUUUUUUUUUUUUUUUUUUUUUUUUUU 1"
b00000000000000000000000000000000 2"
b00000000000000000000000000000000 3"
U4"
b00000000000000000000000000000000 5"
b00000000000000000000000000000000 6"
bUUUUUUUUUUUUUUUUUUUUUUUUUUUUUUUU 7"
bUUUUUUUUUUUUUUUUUUUUUUUUUUUUUUUU 8"
bUUU 9"
bUUUUUUU :"
b00000000000000000000000000000000 ;"
bUUUUUUU <"
bUUUUUUUUUUUUUUUUUUUUUUUUUUUUUUUU ="
bUUUUUUUUUUUUUUUUUUUUUUUUUUUUUUUU >"
bUUU ?"
bUUUUUUU @"
b00000000000000000000000000000000 A"
bUUUUUUU B"
bUUUUUUU C"
bUUUUUUUUUUUU D"
bUUUUUUUUUUUUUUUUUUUU E"
bUUUUU F"
bUUUUUUU G"
UH"
bUUUU I"
bUUUUUU J"
UK"
bUUUUUUUU L"
UM"
bUUUUUUUUUU N"
UO"
b00000000000000000000000000000000 P"
#5000000
1"
17
1l
#10000000
#20000000
1!
b00000000000000000000000000000000 &
b00000000000000000000000000000000 '
b00000000 .
b00000000 3
16
b00000000000000000000000000000000 8
b00000000000000000000000000000000 ;
b000 >
b0010011 @
b00110 A
b00110 B
b000000001010 D
b00000000101000110000001100010011 R
b00000000000000000000000000000000 S
b00000000000000000000000000000100 V
b00000000000000000000000000001010 W
b00000000000000000000000000000000 [
b00000000000000000000000000000000 \
b00000000000000000000000000000000 a
1d
0f
1j
b00000000000000000000000000000100 m
b00000000000000000000000000000100 o
b0010011 p
b00000000101000110000001100010011 u
b000 v
b0010011 x
b00110 y
b00110 z
b000000001010 |
0+"
1,"
1-"
b00110 ."
b00000000000000000000000000000000 7"
b00000000000000000000000000000000 8"
b00000000000000000000000000000000 ="
b00000000000000000000000000000000 >"
b000 ?"
b0010011 B"
b0010011 C"
b000000001010 D"
b00000000000000000000000000001010 P"
#30000000
0!
06
0j
0-"
#40000000
1!
b00000000000000000000000000000100 &
b00000000000000000000000000010011 (
b00000000000000000000000000000000 *
b00000100 .
b00000000000000000000000000010011 0
b00000000000000000000000000000000 4
16
b00000000000000000000000000000100 8
b00000000000000000000000000010011 9
b00000000000000000000000000000000 <
b00000000000000000000000000000100 S
b00000000000000000000000000001000 T
b00000000000000000000000000001000 V
b000 X
b0010011 Z
b00000000000000000000000000001010 \
b00000000000000000000000000001010 ]
b00110 ^
b00000000000000000000000000000000 b
1e
0g
1j
b00000000000000000000000000001000 k
b00000000000000000000000000001000 m
b00000000000000000000000000001000 o
1-"
b00000000000000000000000000000000 1"
b00000000000000000000000000001010 8"
b000 9"
b00000000000000000000000000001010 ;"
b0010011 <"
b00000000000000000000000000000100 ="
b00000000000000000000000000000100 >"
b00000000000000000000000000001000 A"
#50000000
0!
06
0j
0-"
#60000000
1!
1%
b00000000000000000000000000001000 &
b00000000000000000000000000001010 '
b00000000000000000000000000001010 *
b00001000 .
12
b00001010 3
b00000000000000000000000000001010 4
16
b00000000000000000000000000001000 8
1:
b00000000000000000000000000001010 ;
b00000000000000000000000000001010 <
b00000 A
b00000 B
b000000000000 D
b00000000000000000000000000010011 R
b00000000000000000000000000001000 S
b00000000000000000000000000010000 T
b00000000000000000000000000001100 V
b00000000000000000000000000000000 W
b0010011 _
b00110 `
b00000000000000000000000000001010 a
0i
1j
b00000000000000000000000000010000 k
b00000000000000000000000000001100 m
b00000000000000000000000000001100 o
b00000000000000000000000000010011 u
b00000 y
b00000 z
b000000000000 |
1-"
b00000 ."
b00000000000000000000000000001000 ="
b00000000000000000000000000001000 >"
b00000000000000000000000000010000 A"
b000000000000 D"
b00000000000000000000000000000000 P"
#70000000
0!
06
0j
0-"
#80000000
1!
b00000000000000000000000000001100 &
b00001100 .
16
b00000000000000000000000000001100 8
b00000000000000000000000000001100 S
b00000000000000000000000000011000 T
b00000000000000000000000000010000 V
b00000000000000000000000000000000 \
b00000000000000000000000000000000 ]
b00000 ^
b00000000000000000000000000001010 b
b00110 c
0h
1j
b00000000000000000000000000011000 k
b00000000000000000000000000010000 m
b00000000000000000000000000010000 o
1-"
b00110 0"
b00000000000000000000000000001010 1"
04"
b00000000000000000000000000000000 8"
b00000000000000000000000000000000 ;"
b00000000000000000000000000001100 ="
b00000000000000000000000000001100 >"
b00000000000000000000000000011000 A"
#90000000
0!
06
0j
0-"
#100000000
1!
b00000000000000000000000000010000 &
b00000000000000000000000000000000 '
b00000000000000000000000000000000 *
b00010000 .
b00000000 3
b00000000000000000000000000000000 4
16
b00000000000000000000000000010000 8
b00000000000000000000000000000000 ;
b00000000000000000000000000000000 <
b00000000000000000000000000010000 S
b00000000000000000000000000100000 T
b00000000000000000000000000010100 V
b00000 `
b00000000000000000000000000000000 a
1j
b00000000000000000000000000100000 k
b00000000000000000000000000010100 m
b00000000000000000000000000010100 o
1-"
b00000000000000000000000000010000 ="
b00000000000000000000000000010000 >"
b00000000000000000000000000100000 A"
#110000000
0!
06
0j
0-"
#120000000
1!
b00000000000000000000000000010100 &
b00000000010000110000001110010011 (
b00010100 .
b00000000010000110000001110010011 0
16
b00000000000000000000000000010100 8
b00000000010000110000001110010011 9
b00000000000000000000000000010100 S
b00000000000000000000000000101000 T
b00000000000000000000000000011000 V
b00000000000000000000000000000000 b
b00000 c
1j
b00000000000000000000000000101000 k
b00000000000000000000000000011000 m
b00000000000000000000000000011000 o
1-"
b00000 0"
b00000000000000000000000000000000 1"
b00000000000000000000000000010100 ="
b00000000000000000000000000010100 >"
b00000000000000000000000000101000 A"
#130000000
0!
06
0j
0-"
#140000000
1!
b00000000000000000000000000011000 &
b00000000000000000000000000010011 (
b00011000 .
b00000000000000000000000000010011 0
16
b00000000000000000000000000011000 8
b00000000000000000000000000010011 9
b00111 A
b00110 B
b000000000100 D
b00000000010000110000001110010011 R
b00000000000000000000000000011000 S
b00000000000000000000000000110000 T
b00000000000000000000000000011100 V
b00000000000000000000000000000100 W
1j
b00000000000000000000000000110000 k
b00000000000000000000000000011100 m
b00000000000000000000000000011100 o
b00000000010000110000001110010011 u
b00111 y
b00110 z
b000000000100 |
1-"
b00110 ."
b00000000000000000000000000011000 ="
b00000000000000000000000000011000 >"
b00000000000000000000000000110000 A"
b000000000100 D"
b00000000000000000000000000000100 P"
#150000000
0!
06
b00000000000000000000000000001010 P
0j
b00000000000000000000000000001010 q
0-"
b00000000000000000000000000001010 2"
b00000000000000000000000000001010 5"
#160000000
1!
b00000000000000000000000000011100 &
b00011100 .
16
b00000000000000000000000000011100 8
b00000 A
b00000 B
b000000000000 D
b00000000000000000000000000010011 R
b00000000000000000000000000011100 S
b00000000000000000000000000111000 T
b00000000000000000000000000100000 V
b00000000000000000000000000000000 W
b00000000000000000000000000001010 [
b00000000000000000000000000000100 \
b00000000000000000000000000001110 ]
b00111 ^
1j
b00000000000000000000000000111000 k
b00000000000000000000000000100000 m
b00000000000000000000000000100000 o
b00000000000000000000000000010011 u
b00000 y
b00000 z
b000000000000 |
1-"
b00000 ."
b00000000000000000000000000001010 7"
b00000000000000000000000000000100 8"
b00000000000000000000000000001110 ;"
b00000000000000000000000000011100 ="
b00000000000000000000000000011100 >"
b00000000000000000000000000111000 A"
b000000000000 D"
b00000000000000000000000000000000 P"
#170000000
0!
06
b00000000000000000000000000000000 P
0j
b00000000000000000000000000000000 q
0-"
b00000000000000000000000000000000 2"
b00000000000000000000000000000000 5"
#180000000
1!
b00000000000000000000000000100000 &
b00000000000000000000000000001110 '
b00000000000000000000000000000100 *
b00100000 .
b00001110 3
b00000000000000000000000000000100 4
16
b00000000000000000000000000100000 8
b00000000000000000000000000001110 ;
b00000000000000000000000000000100 <
b00000000000000000000000000100000 S
b00000000000000000000000001000000 T
b00000000000000000000000000100100 V
b00000000000000000000000000000000 [
b00000000000000000000000000000000 \
b00000000000000000000000000000000 ]
b00000 ^
b00111 `
b00000000000000000000000000001110 a
1j
b00000000000000000000000001000000 k
b00000000000000000000000000100100 m
b00000000000000000000000000100100 o
1-"
b00000000000000000000000000000000 7"
b00000000000000000000000000000000 8"
b00000000000000000000000000000000 ;"
b00000000000000000000000000100000 ="
b00000000000000000000000000100000 >"
b00000000000000000000000001000000 A"
#190000000
0!
06
0j
0-"
#200000000
1!
b00000000000000000000000000100100 &
b00000000000000000000000000000000 '
b00000000000000000000000000000000 *
b00100100 .
b00000000 3
b00000000000000000000000000000000 4
16
b00000000000000000000000000100100 8
b00000000000000000000000000000000 ;
b00000000000000000000000000000000 <
b00000000000000000000000000100100 S
b00000000000000000000000001001000 T
b00000000000000000000000000101000 V
b00000 `
b00000000000000000000000000000000 a
b00000000000000000000000000001110 b
b00111 c
1j
b00000000000000000000000001001000 k
b00000000000000000000000000101000 m
b00000000000000000000000000101000 o
1-"
b00111 0"
b00000000000000000000000000001110 1"
b00000000000000000000000000100100 ="
b00000000000000000000000000100100 >"
b00000000000000000000000001001000 A"
#210000000
0!
06
0j
0-"
#220000000
1!
b00000000000000000000000000101000 &
b00000000001000111000111010010011 (
b00101000 .
b00000000001000111000111010010011 0
16
b00000000000000000000000000101000 8
b00000000001000111000111010010011 9
b00000000000000000000000000101000 S
b00000000000000000000000001010000 T
b00000000000000000000000000101100 V
b00000000000000000000000000000000 b
b00000 c
1j
b00000000000000000000000001010000 k
b00000000000000000000000000101100 m
b00000000000000000000000000101100 o
1-"
b00000 0"
b00000000000000000000000000000000 1"
b00000000000000000000000000101000 ="
b00000000000000000000000000101000 >"
b00000000000000000000000001010000 A"
#230000000
0!
06
0j
0-"
#240000000
1!
b00000000000000000000000000101100 &
bUUUUUUUUUUUUUUUUUUUUUUUUUUUUUUUU (
b00101100 .
bUUUUUUUUUUUUUUUUUUUUUUUUUUUUUUUU 0
16
b00000000000000000000000000101100 8
bUUUUUUUUUUUUUUUUUUUUUUUUUUUUUUUU 9
b11101 A
b00111 B
b000000000010 D
b00000000001000111000111010010011 R
b00000000000000000000000000101100 S
b00000000000000000000000001011000 T
b00000000000000000000000000110000 V
b00000000000000000000000000000010 W
1j
b00000000000000000000000001011000 k
b00000000000000000000000000110000 m
b00000000000000000000000000110000 o
b00000000001000111000111010010011 u
b11101 y
b00111 z
b000000000010 |
1-"
b00111 ."
b00000000000000000000000000101100 ="
b00000000000000000000000000101100 >"
b00000000000000000000000001011000 A"
b000000000010 D"
b00000000000000000000000000000010 P"
#250000000
0!
06
b00000000000000000000000000001110 P
0j
b00000000000000000000000000001110 q
0-"
b00000000000000000000000000001110 2"
b00000000000000000000000000001110 5"
#260000000
1!
b00000000000000000000000000110000 &
b00110000 .
16
b00000000000000000000000000110000 8
bUUUUUUUUUUUUUUUUUUUUUUUUUUUUUUUU R
b00000000000000000000000000110000 S
b00000000000000000000000001100000 T
b00000000000000000000000000110100 V
b00000000000000000000000000001110 [
b00000000000000000000000000000010 \
b00000000000000000000000000010000 ]
b11101 ^
1j
b00000000000000000000000001100000 k
b00000000000000000000000000110100 m
b00000000000000000000000000110100 o
bUUUUUUUUUUUUUUUUUUUUUUUUUUUUUUUU u
1-"
b00000000000000000000000000001110 7"
b00000000000000000000000000000010 8"
b00000000000000000000000000010000 ;"
b00000000000000000000000000110000 ="
b00000000000000000000000000110000 >"
b00000000000000000000000001100000 A"
#270000000
0!
06
0j
0-"
#280000000
1!
b00000000000000000000000000110100 &
b00000000000000000000000000010000 '
b00000000000000000000000000000010 *
b00110100 .
b00010000 3
b00000000000000000000000000000010 4
16
b00000000000000000000000000110100 8
b00000000000000000000000000010000 ;
b00000000000000000000000000000010 <
b00000000000000000000000000110100 S
b00000000000000000000000001101000 T
b00000000000000000000000000111000 V
b11101 `
b00000000000000000000000000010000 a
1j
b00000000000000000000000001101000 k
b00000000000000000000000000111000 m
b00000000000000000000000000111000 o
1-"
b00000000000000000000000000110100 ="
b00000000000000000000000000110100 >"
b00000000000000000000000001101000 A"
#290000000
0!
06
0j
0-"
#300000000
1!
b00000000000000000000000000111000 &
b00111000 .
16
b00000000000000000000000000111000 8
b00000000000000000000000000111000 S
b00000000000000000000000001110000 T
b00000000000000000000000000111100 V
b00000000000000000000000000010000 b
b11101 c
1j
b00000000000000000000000001110000 k
b00000000000000000000000000111100 m
b00000000000000000000000000111100 o
1-"
b11101 0"
b00000000000000000000000000010000 1"
b00000000000000000000000000111000 ="
b00000000000000000000000000111000 >"
b00000000000000000000000001110000 A"
#310000000
0!
06
0j
0-"
#320000000
1!
b00000000000000000000000000111100 &
b00111100 .
16
b00000000000000000000000000111100 8
b00000000000000000000000000111100 S
b00000000000000000000000001111000 T
b00000000000000000000000001000000 V
1j
b00000000000000000000000001111000 k
b00000000000000000000000001000000 m
b00000000000000000000000001000000 o
1-"
b00000000000000000000000000111100 ="
b00000000000000000000000000111100 >"
b00000000000000000000000001111000 A"
#330000000
0!
06
0j
0-"
#340000000
1!
b00000000000000000000000001000000 &
b01000000 .
16
b00000000000000000000000001000000 8
b00000000000000000000000001000000 S
b00000000000000000000000010000000 T
b00000000000000000000000001000100 V
1j
b00000000000000000000000010000000 k
b00000000000000000000000001000100 m
b00000000000000000000000001000100 o
1-"
b00000000000000000000000001000000 ="
b00000000000000000000000001000000 >"
b00000000000000000000000010000000 A"
#350000000
0!
06
0j
0-"
#360000000
1!
b00000000000000000000000001000100 &
b01000100 .
16
b00000000000000000000000001000100 8
b00000000000000000000000001000100 S
b00000000000000000000000010001000 T
b00000000000000000000000001001000 V
1j
b00000000000000000000000010001000 k
b00000000000000000000000001001000 m
b00000000000000000000000001001000 o
1-"
b00000000000000000000000001000100 ="
b00000000000000000000000001000100 >"
b00000000000000000000000010001000 A"
#370000000
0!
06
0j
0-"
#380000000
1!
b00000000000000000000000001001000 &
b01001000 .
16
b00000000000000000000000001001000 8
b00000000000000000000000001001000 S
b00000000000000000000000010010000 T
b00000000000000000000000001001100 V
1j
b00000000000000000000000010010000 k
b00000000000000000000000001001100 m
b00000000000000000000000001001100 o
1-"
b00000000000000000000000001001000 ="
b00000000000000000000000001001000 >"
b00000000000000000000000010010000 A"
#390000000
0!
06
0j
0-"
#400000000
1!
b00000000000000000000000001001100 &
b01001100 .
16
b00000000000000000000000001001100 8
b00000000000000000000000001001100 S
b00000000000000000000000010011000 T
b00000000000000000000000001010000 V
1j
b00000000000000000000000010011000 k
b00000000000000000000000001010000 m
b00000000000000000000000001010000 o
1-"
b00000000000000000000000001001100 ="
b00000000000000000000000001001100 >"
b00000000000000000000000010011000 A"
